{
    "rating": 4.0,
    "culture": "Cuban",
    "display_phone": "(214) 660-9611",
    "id": 48,
    "is_closed": false,
    "review_count": 358,
    "coordinates": {
        "latitude": 32.8342437201596,
        "longitude": -96.7021529494065
    },
    "location": {
        "cross_streets": "",
        "city": "Dallas",
        "display_address": [
            "1152 Buckner Blvd",
            "Ste J-126",
            "Dallas, TX 75218"
        ],
        "country": "US",
        "address2": "Ste J-126",
        "address3": "",
        "state": "TX",
        "address1": "1152 Buckner Blvd",
        "zip_code": "75218"
    },
    "is_claimed": true,
    "recipe_connections": [
        {
            "id": "28",
            "name": "Conch Fritters"
        },
        {
            "id": "33",
            "name": "Cuban Roast Pork (Lechon Asado)"
        },
        {
            "id": "53",
            "name": "Jerk chicken"
        },
        {
            "id": "66",
            "name": "Mofongo with Shrimp (Mashed Green Plantains with Shrimp)"
        }
    ],
    "description": "We offer a unique, fun and a relaxed service oriented ambience. Quite a few of our customers make a little detour every day to enjoy our coffee and traditional cuban plates. Our menu includes sandwiches, soups/stews, authentic caribbean cuisine and sweet temptations such as pastelitos de guayaba (Guava pastries), cuban cheesecake or crema catalana. With our help, you won\u2019t have to go hungry all day!",
    "transactions": [
        "pickup",
        "delivery"
    ],
    "price": "$$",
    "hours": [
        {
            "hours_type": "REGULAR",
            "open": [
                {
                    "is_overnight": false,
                    "end": "2200",
                    "day": 0,
                    "start": "1100"
                },
                {
                    "is_overnight": false,
                    "end": "2200",
                    "day": 1,
                    "start": "1100"
                },
                {
                    "is_overnight": false,
                    "end": "2200",
                    "day": 2,
                    "start": "1100"
                },
                {
                    "is_overnight": false,
                    "end": "2200",
                    "day": 3,
                    "start": "1100"
                },
                {
                    "is_overnight": false,
                    "end": "2200",
                    "day": 4,
                    "start": "1100"
                },
                {
                    "is_overnight": false,
                    "end": "2200",
                    "day": 5,
                    "start": "1100"
                },
                {
                    "is_overnight": false,
                    "end": "2000",
                    "day": 6,
                    "start": "1100"
                }
            ],
            "is_open_now": true
        }
    ],
    "phone": "+12146609611",
    "num_recipe_connections": 4,
    "name": "Havana Cafe",
    "photos": [
        "https://s3-media2.fl.yelpcdn.com/bphoto/LgKU8S0LNuUmcN9rxPH6kA/o.jpg",
        "https://s3-media2.fl.yelpcdn.com/bphoto/MuysCgwSzdJUTfyRssDYZg/o.jpg",
        "https://s3-media2.fl.yelpcdn.com/bphoto/LpXayUlTU0Jp4LcY_mSCwA/o.jpg"
    ],
    "url": "https://www.yelp.com/biz/havana-cafe-dallas?adjust_creative=CLvH_oejmW4isGEg-hCd2w&utm_campaign=yelp_api_v3&utm_medium=api_v3_business_lookup&utm_source=CLvH_oejmW4isGEg-hCd2w",
    "reviews": [
        {
            "rating": 5,
            "url": "https://www.yelp.com/biz/havana-cafe-dallas?adjust_creative=CLvH_oejmW4isGEg-hCd2w&hrid=iNW63bYeVmN9yyvAQo2ZuA&utm_campaign=yelp_api_v3&utm_medium=api_v3_business_reviews&utm_source=CLvH_oejmW4isGEg-hCd2w",
            "text": "Hard to find authentic Cuban food in Dallas. This spot is it! The Vaca Frita is fantastic...",
            "time_created": "2022-01-22 17:20:00",
            "user": {
                "image_url": "https://s3-media3.fl.yelpcdn.com/photo/RI_n8rbNKxv_FI5G-rZnaQ/o.jpg",
                "id": "OQTJZHyMh_4q4_Ze4nclOg",
                "profile_url": "https://www.yelp.com/user_details?userid=OQTJZHyMh_4q4_Ze4nclOg",
                "name": "Javier M."
            },
            "id": "iNW63bYeVmN9yyvAQo2ZuA"
        },
        {
            "rating": 4,
            "url": "https://www.yelp.com/biz/havana-cafe-dallas?adjust_creative=CLvH_oejmW4isGEg-hCd2w&hrid=l4ExgNSbF9fhzb9A5-XXzg&utm_campaign=yelp_api_v3&utm_medium=api_v3_business_reviews&utm_source=CLvH_oejmW4isGEg-hCd2w",
            "text": "Had the \"triple\" appetizer, fried mashed potato filled with picadillo, cheese empanada & a fried plantain cup filled w marinated meat & another appetizer of...",
            "time_created": "2021-09-27 12:56:58",
            "user": {
                "image_url": "https://s3-media2.fl.yelpcdn.com/photo/DVLXpHEALyGRr6EDuMEz-A/o.jpg",
                "id": "HpivLAodxcQlmncyc6swXg",
                "profile_url": "https://www.yelp.com/user_details?userid=HpivLAodxcQlmncyc6swXg",
                "name": "Teresa L."
            },
            "id": "l4ExgNSbF9fhzb9A5-XXzg"
        },
        {
            "rating": 5,
            "url": "https://www.yelp.com/biz/havana-cafe-dallas?adjust_creative=CLvH_oejmW4isGEg-hCd2w&hrid=jpp8DhDjP7YSYdKWqurKgQ&utm_campaign=yelp_api_v3&utm_medium=api_v3_business_reviews&utm_source=CLvH_oejmW4isGEg-hCd2w",
            "text": "This Cuban restaurant has been on my bucket list for quite some time, and boy am I glad I went there tonight! We we warmly greeted upon entering their...",
            "time_created": "2022-01-08 17:37:12",
            "user": {
                "image_url": "https://s3-media1.fl.yelpcdn.com/photo/BAt1liFFI8n8H9hteACbjQ/o.jpg",
                "id": "O761RE8n-4xNvCrw0XRTGw",
                "profile_url": "https://www.yelp.com/user_details?userid=O761RE8n-4xNvCrw0XRTGw",
                "name": "Michael N."
            },
            "id": "jpp8DhDjP7YSYdKWqurKgQ"
        }
    ],
    "alias": "havana-cafe-dallas",
    "image_url": "https://s3-media2.fl.yelpcdn.com/bphoto/LgKU8S0LNuUmcN9rxPH6kA/o.jpg"
}