{
    "rating": 4.5,
    "culture": "Indian",
    "display_phone": "(214) 821-1048",
    "id": 52,
    "is_closed": false,
    "review_count": 615,
    "coordinates": {
        "latitude": 32.79407,
        "longitude": -96.74991
    },
    "location": {
        "cross_streets": "",
        "city": "Dallas",
        "display_address": [
            "5430 Gurley Ave",
            "Dallas, TX 75223"
        ],
        "country": "US",
        "address2": "",
        "address3": "",
        "state": "TX",
        "address1": "5430 Gurley Ave",
        "zip_code": "75223"
    },
    "is_claimed": true,
    "recipe_connections": [
        {
            "id": "23",
            "name": "Chicken Korma"
        },
        {
            "id": "24",
            "name": "Chicken Tandoori"
        },
        {
            "id": "38",
            "name": "Eggplant Curry"
        },
        {
            "id": "60",
            "name": "Lamb Curry"
        },
        {
            "id": "77",
            "name": "Rice and Peas with Coconut Curry Mackerel"
        },
        {
            "id": "85",
            "name": "Spicy Indian Style Hummus"
        }
    ],
    "description": "Kalachandji's is Dallas' longest serving vegetarian restaurant. For 37 years we have been providing DFW diners with a taste of India's vast and ancient vegetarian tradition. We practice the timeless Ayurvedic art of cooking for the body, mind and spirit, and all our dishes are prepared with the best ingredients available. Thus our mission at Kalachandji\u2019s is to provide vegetarian cuisine that delights the palate, promotes good health, makes the mind peaceful and elevates the consciousness.",
    "transactions": [
        "pickup",
        "delivery"
    ],
    "price": "$$",
    "hours": [
        {
            "hours_type": "REGULAR",
            "open": [
                {
                    "is_overnight": false,
                    "end": "1400",
                    "day": 1,
                    "start": "1130"
                },
                {
                    "is_overnight": false,
                    "end": "2000",
                    "day": 1,
                    "start": "1730"
                },
                {
                    "is_overnight": false,
                    "end": "1400",
                    "day": 2,
                    "start": "1130"
                },
                {
                    "is_overnight": false,
                    "end": "2000",
                    "day": 2,
                    "start": "1730"
                },
                {
                    "is_overnight": false,
                    "end": "1400",
                    "day": 3,
                    "start": "1130"
                },
                {
                    "is_overnight": false,
                    "end": "2000",
                    "day": 3,
                    "start": "1730"
                },
                {
                    "is_overnight": false,
                    "end": "1400",
                    "day": 4,
                    "start": "1130"
                },
                {
                    "is_overnight": false,
                    "end": "2000",
                    "day": 4,
                    "start": "1730"
                },
                {
                    "is_overnight": false,
                    "end": "1500",
                    "day": 5,
                    "start": "1200"
                },
                {
                    "is_overnight": false,
                    "end": "2000",
                    "day": 5,
                    "start": "1730"
                },
                {
                    "is_overnight": false,
                    "end": "1500",
                    "day": 6,
                    "start": "1200"
                },
                {
                    "is_overnight": false,
                    "end": "2000",
                    "day": 6,
                    "start": "1730"
                }
            ],
            "is_open_now": false
        }
    ],
    "phone": "+12148211048",
    "num_recipe_connections": 6,
    "name": "Kalachandji's",
    "photos": [
        "https://s3-media2.fl.yelpcdn.com/bphoto/rq92pMZA9cAQeNicRyDELg/o.jpg",
        "https://s3-media3.fl.yelpcdn.com/bphoto/0Pwp8X2KcFAFizr-ccPjZQ/o.jpg",
        "https://s3-media3.fl.yelpcdn.com/bphoto/PpxXB9azg_5CuwpztPsHzg/o.jpg"
    ],
    "url": "https://www.yelp.com/biz/kalachandjis-dallas-2?adjust_creative=CLvH_oejmW4isGEg-hCd2w&utm_campaign=yelp_api_v3&utm_medium=api_v3_business_lookup&utm_source=CLvH_oejmW4isGEg-hCd2w",
    "reviews": [
        {
            "rating": 5,
            "url": "https://www.yelp.com/biz/kalachandjis-dallas-2?adjust_creative=CLvH_oejmW4isGEg-hCd2w&hrid=2jQaMINhbdTi6a5ItUKsHg&utm_campaign=yelp_api_v3&utm_medium=api_v3_business_reviews&utm_source=CLvH_oejmW4isGEg-hCd2w",
            "text": "Very tasty wholesome vegetarian food at a reasonable cost. It is attached to a Hare Krishna temple, also worth visiting.",
            "time_created": "2022-02-24 07:59:19",
            "user": {
                "image_url": null,
                "id": "MC2pC2snM3aP2DS5nh7VOg",
                "profile_url": "https://www.yelp.com/user_details?userid=MC2pC2snM3aP2DS5nh7VOg",
                "name": "Rajiv S."
            },
            "id": "2jQaMINhbdTi6a5ItUKsHg"
        },
        {
            "rating": 5,
            "url": "https://www.yelp.com/biz/kalachandjis-dallas-2?adjust_creative=CLvH_oejmW4isGEg-hCd2w&hrid=uAy-NfvskqWcfmExd__6rA&utm_campaign=yelp_api_v3&utm_medium=api_v3_business_reviews&utm_source=CLvH_oejmW4isGEg-hCd2w",
            "text": "A phenomenon of flavor!  We came to Kalachandji's not knowing what to expect but curious about an entirely vegetarian menu.  My mind was blown open and my...",
            "time_created": "2022-02-18 20:29:57",
            "user": {
                "image_url": "https://s3-media3.fl.yelpcdn.com/photo/8u6eBMhDKsbVVtG09h6ZjA/o.jpg",
                "id": "S29yNnuV7F2k2_ecPgb0kA",
                "profile_url": "https://www.yelp.com/user_details?userid=S29yNnuV7F2k2_ecPgb0kA",
                "name": "Jay C."
            },
            "id": "uAy-NfvskqWcfmExd__6rA"
        },
        {
            "rating": 1,
            "url": "https://www.yelp.com/biz/kalachandjis-dallas-2?adjust_creative=CLvH_oejmW4isGEg-hCd2w&hrid=YkZ25_gRpm157z8wsv5NHg&utm_campaign=yelp_api_v3&utm_medium=api_v3_business_reviews&utm_source=CLvH_oejmW4isGEg-hCd2w",
            "text": "IT was a fabulous restaurant that I really enjoyed for 16 years.  Since COVID, you cannot eat inside, the Salad Bar is discontinued for a standard salad....",
            "time_created": "2022-03-19 19:09:43",
            "user": {
                "image_url": "https://s3-media4.fl.yelpcdn.com/photo/zwbSRPAUSJ28c8kuX2LZRw/o.jpg",
                "id": "O1abc3mQb_SFHk_x-L7mPw",
                "profile_url": "https://www.yelp.com/user_details?userid=O1abc3mQb_SFHk_x-L7mPw",
                "name": "Harry P."
            },
            "id": "YkZ25_gRpm157z8wsv5NHg"
        }
    ],
    "alias": "kalachandjis-dallas-2",
    "image_url": "https://s3-media2.fl.yelpcdn.com/bphoto/rq92pMZA9cAQeNicRyDELg/o.jpg"
}