{
    "rating": 4.5,
    "culture": "Colombian",
    "display_phone": "(817) 243-5500",
    "id": 59,
    "is_closed": false,
    "review_count": 20,
    "coordinates": {
        "latitude": 32.792827,
        "longitude": -96.748711
    },
    "location": {
        "cross_streets": "",
        "city": "Dallas",
        "display_address": [
            "5431 E Grand Ave",
            "Dallas, TX 75223"
        ],
        "country": "US",
        "address2": null,
        "address3": null,
        "state": "TX",
        "address1": "5431 E Grand Ave",
        "zip_code": "75223"
    },
    "is_claimed": true,
    "recipe_connections": [
        {
            "id": "25",
            "name": "Chimichurri Skirt Steak with Grilled Asparagus"
        },
        {
            "id": "68",
            "name": "Pan Seared Lamb Loin With Chimichurri & Roasted Trio Squash Salad With Goat Cheese and Pinenuts"
        },
        {
            "id": "81",
            "name": "Shrimp Ceviche"
        }
    ],
    "description": "Serving authentic Colombian food with a smile. We offer dine in, take out, curbside pickup. Local Colombian restaurant with a fun fresh vibe.",
    "transactions": [
        "delivery",
        "pickup"
    ],
    "hours": [
        {
            "hours_type": "REGULAR",
            "open": [
                {
                    "is_overnight": false,
                    "end": "1930",
                    "day": 1,
                    "start": "1100"
                },
                {
                    "is_overnight": false,
                    "end": "1930",
                    "day": 2,
                    "start": "0900"
                },
                {
                    "is_overnight": false,
                    "end": "1930",
                    "day": 3,
                    "start": "0900"
                },
                {
                    "is_overnight": false,
                    "end": "1930",
                    "day": 4,
                    "start": "0900"
                },
                {
                    "is_overnight": false,
                    "end": "1800",
                    "day": 5,
                    "start": "1100"
                },
                {
                    "is_overnight": false,
                    "end": "1700",
                    "day": 6,
                    "start": "1100"
                }
            ],
            "is_open_now": false
        }
    ],
    "phone": "+18172435500",
    "num_recipe_connections": 3,
    "name": "Sabor Latino - Dallas",
    "photos": [
        "https://s3-media4.fl.yelpcdn.com/bphoto/FkJwFNI215-LjObYvRkNNw/o.jpg",
        "https://s3-media1.fl.yelpcdn.com/bphoto/9QiVaKpPUIO4Ab5mMIwTkA/o.jpg",
        "https://s3-media2.fl.yelpcdn.com/bphoto/MNuQlfKuipnsq6uL9BrvJQ/o.jpg"
    ],
    "url": "https://www.yelp.com/biz/sabor-latino-dallas-dallas?adjust_creative=CLvH_oejmW4isGEg-hCd2w&utm_campaign=yelp_api_v3&utm_medium=api_v3_business_lookup&utm_source=CLvH_oejmW4isGEg-hCd2w",
    "reviews": [
        {
            "rating": 5,
            "url": "https://www.yelp.com/biz/sabor-latino-dallas-dallas?adjust_creative=CLvH_oejmW4isGEg-hCd2w&hrid=hTZh8jGh9qWpDUU1FnkE3w&utm_campaign=yelp_api_v3&utm_medium=api_v3_business_reviews&utm_source=CLvH_oejmW4isGEg-hCd2w",
            "text": "They are now open!!\nWonderful service and food prepared by Fernando. Portions are generous so bring your appetite! First place in the US where I have found...",
            "time_created": "2020-07-28 19:17:12",
            "user": {
                "image_url": "https://s3-media1.fl.yelpcdn.com/photo/a9SjgnrjzbfBJIxk9DHS1w/o.jpg",
                "id": "lzCstomq4Puwpg-5H53uyg",
                "profile_url": "https://www.yelp.com/user_details?userid=lzCstomq4Puwpg-5H53uyg",
                "name": "Matt H."
            },
            "id": "hTZh8jGh9qWpDUU1FnkE3w"
        },
        {
            "rating": 3,
            "url": "https://www.yelp.com/biz/sabor-latino-dallas-dallas?adjust_creative=CLvH_oejmW4isGEg-hCd2w&hrid=uHJgMSBZguavkCiC_1vy8A&utm_campaign=yelp_api_v3&utm_medium=api_v3_business_reviews&utm_source=CLvH_oejmW4isGEg-hCd2w",
            "text": "Everything tastes very fresh, but at the same time lacking. Nothing in my bandeja paisa had enough salt. So bland. The pork belly was nearly impossible to...",
            "time_created": "2021-11-14 19:58:29",
            "user": {
                "image_url": "https://s3-media1.fl.yelpcdn.com/photo/zVjJbPF-vpOrGbLOSrhODQ/o.jpg",
                "id": "uDPo0vV_btA-kZZdNKsu_g",
                "profile_url": "https://www.yelp.com/user_details?userid=uDPo0vV_btA-kZZdNKsu_g",
                "name": "Madeleine H."
            },
            "id": "uHJgMSBZguavkCiC_1vy8A"
        },
        {
            "rating": 5,
            "url": "https://www.yelp.com/biz/sabor-latino-dallas-dallas?adjust_creative=CLvH_oejmW4isGEg-hCd2w&hrid=FYe9EjyBEmIhbJlkuvGQTA&utm_campaign=yelp_api_v3&utm_medium=api_v3_business_reviews&utm_source=CLvH_oejmW4isGEg-hCd2w",
            "text": "Stopped in for a quick bite & am very glad I did. While I have experienced Latin American cuisine, to the tune of empanadas & plantains, Columbian food was...",
            "time_created": "2020-01-17 13:28:58",
            "user": {
                "image_url": "https://s3-media2.fl.yelpcdn.com/photo/DVLXpHEALyGRr6EDuMEz-A/o.jpg",
                "id": "HpivLAodxcQlmncyc6swXg",
                "profile_url": "https://www.yelp.com/user_details?userid=HpivLAodxcQlmncyc6swXg",
                "name": "Teresa L."
            },
            "id": "FYe9EjyBEmIhbJlkuvGQTA"
        }
    ],
    "alias": "sabor-latino-dallas-dallas",
    "image_url": "https://s3-media4.fl.yelpcdn.com/bphoto/FkJwFNI215-LjObYvRkNNw/o.jpg",
    "messaging": {
        "url": "https://www.yelp.com/raq/5fOoaXI8mL9emsUE86HBgw?adjust_creative=CLvH_oejmW4isGEg-hCd2w&utm_campaign=yelp_api_v3&utm_medium=api_v3_business_lookup&utm_source=CLvH_oejmW4isGEg-hCd2w#popup%3Araq",
        "use_case_text": "Message the Business"
    }
}