{
    "code": "BR",
    "depends_on": null,
    "phone_code": "55",
    "total_iso_divisions": 27,
    "currency": {
        "code": "BRL",
        "name": "Brazilian real"
    },
    "wiki_id": "Q155",
    "timezone": {
        "gmt_offset": -10800,
        "is_daylight_saving": false,
        "code": "-03",
        "gtm_offset": -10800,
        "timezone": "America/Fortaleza"
    },
    "id": 3,
    "total_cities": 2037,
    "wiki_url": "https://en.wikipedia.org/wiki/Brazil",
    "geonameid": 3469034,
    "num_restaurant_connections": 5,
    "continent": {
        "geonameid": 6255150,
        "code": "SA",
        "name": "South America"
    },
    "territories": {},
    "capital": {
        "geonameid": 3469058,
        "name": "Bras\u00edlia"
    },
    "latitude": -14.235,
    "total_adm_divisions": 28,
    "cuisine_info": "Brazilian cuisine varies greatly by region, reflecting the country's varying mix of indigenous and immigrant populations. This has created a national cuisine marked by the preservation of regional differences. Examples are Feijoada, considered the country's national dish; and regional foods such as beiju, feij\u00e3o tropeiro, vatap\u00e1, moqueca, polenta (from Italian cuisine) and acaraj\u00e9 (from African cuisine).The national beverage is coffee and cacha\u00e7a is Brazil's native liquor. Cacha\u00e7a is distilled from sugar cane and is the main ingredient in the national cocktail, Caipirinha.A typical meal consists mostly of rice and beans with beef, salad, french fries and a fried egg. Often, it is mixed with cassava flour (farofa). Fried potatoes, fried cassava, fried banana, fried meat and fried cheese are very often eaten in lunch and served in most typical restaurants. Popular snacks are pastel (a fried pastry); coxinha (a variation of chicken croquete); p\u00e3o de queijo (cheese bread and cassava flour / tapioca); pamonha (corn and milk paste); esfirra (a variation of Lebanese pastry); kibbeh (from Arabic cuisine); empanada (pastry) and empada, little salt pies filled with shrimps or heart of palm.",
    "is_in_eu": false,
    "status": "success",
    "recipe_connections": [
        25,
        68,
        81
    ],
    "name": "Brazil",
    "flag": {
        "file": "https://commons.wikimedia.org/wiki/Special:FilePath/Flag_of_Brazil.svg",
        "unicode": "U+1F1E7 U+1F1F7",
        "emoji": "\ud83c\udde7\ud83c\uddf7"
    },
    "produce": [
        "sugarcane",
        "coffee beans",
        "beef",
        "soybeans",
        "cassava",
        "cacao"
    ],
    "restaurant_connections": [
        37,
        111,
        81,
        16,
        115
    ],
    "population": 209469333,
    "num_recipe_connections": 3,
    "language": "Portuguese language",
    "longitude": -51.9253,
    "area_size": "8511965.00 sq. km",
    "tld": ".br",
    "spoonacular_tag": "Latin American"
}