{
    "code": "IL",
    "depends_on": null,
    "phone_code": "972",
    "total_iso_divisions": 6,
    "currency": {
        "code": "ILS",
        "name": "Israeli new shekel"
    },
    "wiki_id": "Q801",
    "timezone": {
        "gmt_offset": 7200,
        "is_daylight_saving": false,
        "code": "IST",
        "gtm_offset": 7200,
        "timezone": "Asia/Jerusalem"
    },
    "id": 16,
    "total_cities": 877,
    "wiki_url": "https://en.wikipedia.org/wiki/Israel",
    "geonameid": 294640,
    "num_restaurant_connections": 2,
    "continent": {
        "geonameid": 6255147,
        "code": "AS",
        "name": "Asia"
    },
    "territories": {},
    "capital": {
        "geonameid": 281184,
        "name": "Jerusalem"
    },
    "latitude": 31.0461,
    "total_adm_divisions": 9,
    "cuisine_info": "Israeli cuisine includes local dishes as well as Jewish cuisine brought to the country by immigrants from the diaspora. Since the establishment of the state in 1948, and particularly since the late 1970s, an Israeli fusion cuisine has developed. Israeli cuisine has adopted, and continues to adapt, elements of the Mizrahi, Sephardi, and Ashkenazi styles of cooking. It incorporates many foods traditionally eaten in the Levantine, Arab, Middle Eastern and Mediterranean cuisines, such as falafel, hummus, shakshouka, couscous, and za'atar. Schnitzel, pizza, hamburgers, French fries, rice and salad are also common in Israel.Roughly half of the Israeli-Jewish population attests to keeping kosher at home. Kosher restaurants, though rare in the 1960s, make up around a quarter of the total as of 2015, perhaps reflecting the largely secular values of those who dine out. Hotel restaurants are much more likely to serve kosher food. The non-kosher retail market was traditionally sparse, but grew rapidly and considerably following the influx of immigrants from the post-Soviet states during the 1990s. Together with non-kosher fish, rabbits and ostriches, pork\u2014often called \"white meat\" in Israel\u2014is produced and consumed, though it is forbidden by both Judaism and Islam.",
    "is_in_eu": false,
    "status": "success",
    "recipe_connections": [
        7,
        13,
        55
    ],
    "name": "Israel",
    "flag": {
        "file": "https://commons.wikimedia.org/wiki/Special:FilePath/Flag_of_Israel.svg",
        "unicode": "U+1F1EE U+1F1F1",
        "emoji": "\ud83c\uddee\ud83c\uddf1"
    },
    "produce": [
        "citrus fruit",
        "avacados",
        "bananas",
        "olives",
        "cherries",
        "dates"
    ],
    "restaurant_connections": [
        3,
        105
    ],
    "population": 8883800,
    "num_recipe_connections": 3,
    "language": "Hebrew language",
    "longitude": 34.8516,
    "area_size": "20770.00 sq. km",
    "tld": ".il",
    "spoonacular_tag": "Mediterranean"
}