{
    "rating": 4.0,
    "culture": "Nigerian",
    "display_phone": "(210) 255-8617",
    "id": 134,
    "is_closed": false,
    "review_count": 33,
    "coordinates": {
        "latitude": 29.50922140441368,
        "longitude": -98.62555141360814
    },
    "location": {
        "cross_streets": "",
        "city": "San Antonio",
        "display_address": [
            "7600 Eckhert Rd",
            "San Antonio, TX 78240"
        ],
        "country": "US",
        "address2": null,
        "address3": "",
        "state": "TX",
        "address1": "7600 Eckhert Rd",
        "zip_code": "78240"
    },
    "is_claimed": true,
    "recipe_connections": [
        {
            "id": "1",
            "name": "African Chicken Peanut Stew"
        },
        {
            "id": "2",
            "name": "African Kale & Yam Soup"
        },
        {
            "id": "54",
            "name": "Jollof Rice"
        }
    ],
    "description": "Trices Cafe and Lounge is a high quality African restaurant in San Antonio, TX. Serving delicacies like egusi, fufu, jollof rice, and many others in a relaxing, calm, but fun environment. Come dine in and enjoy the experience with family and friends and dwell in the food, music, and culture of West-Africa.",
    "transactions": [
        "pickup",
        "delivery"
    ],
    "hours": [
        {
            "hours_type": "REGULAR",
            "open": [
                {
                    "is_overnight": false,
                    "end": "2200",
                    "day": 1,
                    "start": "1100"
                },
                {
                    "is_overnight": false,
                    "end": "2200",
                    "day": 2,
                    "start": "1100"
                },
                {
                    "is_overnight": false,
                    "end": "2200",
                    "day": 3,
                    "start": "1100"
                },
                {
                    "is_overnight": false,
                    "end": "2200",
                    "day": 4,
                    "start": "1100"
                },
                {
                    "is_overnight": true,
                    "end": "0200",
                    "day": 5,
                    "start": "1100"
                },
                {
                    "is_overnight": true,
                    "end": "0200",
                    "day": 6,
                    "start": "1100"
                }
            ],
            "is_open_now": true
        }
    ],
    "phone": "+12102558617",
    "num_recipe_connections": 3,
    "name": "Trices Cafe and Lounge",
    "photos": [
        "https://s3-media3.fl.yelpcdn.com/bphoto/8IhfEosoQAolEWDgX0aijA/o.jpg",
        "https://s3-media4.fl.yelpcdn.com/bphoto/QBLGbSpoGcoFoo3dix08MQ/o.jpg",
        "https://s3-media2.fl.yelpcdn.com/bphoto/32clmxGg2_u6iGNIfc7o8Q/o.jpg"
    ],
    "url": "https://www.yelp.com/biz/trices-cafe-and-lounge-san-antonio-2?adjust_creative=CLvH_oejmW4isGEg-hCd2w&utm_campaign=yelp_api_v3&utm_medium=api_v3_business_lookup&utm_source=CLvH_oejmW4isGEg-hCd2w",
    "reviews": [
        {
            "rating": 5,
            "url": "https://www.yelp.com/biz/trices-cafe-and-lounge-san-antonio-2?adjust_creative=CLvH_oejmW4isGEg-hCd2w&hrid=RnWOCCzJBCXvesJo_Pi0qg&utm_campaign=yelp_api_v3&utm_medium=api_v3_business_reviews&utm_source=CLvH_oejmW4isGEg-hCd2w",
            "text": "I came here for Black Restaurant week (BRWSA) about 2 yrs ago.  It's black restaurant week again and I'm about to recommend this for lunch for a friend and...",
            "time_created": "2022-03-02 14:33:23",
            "user": {
                "image_url": "https://s3-media3.fl.yelpcdn.com/photo/J_EKoP7tiq_LWT8eUhHWMQ/o.jpg",
                "id": "Qj8kfzwwYPRUqDrk9WEK5g",
                "profile_url": "https://www.yelp.com/user_details?userid=Qj8kfzwwYPRUqDrk9WEK5g",
                "name": "Jerry T."
            },
            "id": "RnWOCCzJBCXvesJo_Pi0qg"
        },
        {
            "rating": 1,
            "url": "https://www.yelp.com/biz/trices-cafe-and-lounge-san-antonio-2?adjust_creative=CLvH_oejmW4isGEg-hCd2w&hrid=WFqBJYMaZ-2nBR-WncEdgg&utm_campaign=yelp_api_v3&utm_medium=api_v3_business_reviews&utm_source=CLvH_oejmW4isGEg-hCd2w",
            "text": "Terrible first time experience.\n\nMade an online delivery order.\nIt took 1hr 30min estimate.\n\nPrice totaled upwards $70+ \nThe order was WRONG.\n\nItems were...",
            "time_created": "2022-03-10 19:22:28",
            "user": {
                "image_url": "https://s3-media2.fl.yelpcdn.com/photo/bg8PZbmfJtls-fLkYn3S-Q/o.jpg",
                "id": "KvrQ_GR1uDnaFLBwYrSTaQ",
                "profile_url": "https://www.yelp.com/user_details?userid=KvrQ_GR1uDnaFLBwYrSTaQ",
                "name": "Cri S."
            },
            "id": "WFqBJYMaZ-2nBR-WncEdgg"
        },
        {
            "rating": 4,
            "url": "https://www.yelp.com/biz/trices-cafe-and-lounge-san-antonio-2?adjust_creative=CLvH_oejmW4isGEg-hCd2w&hrid=qT9OB3xe4ZCsbCglEHNUoQ&utm_campaign=yelp_api_v3&utm_medium=api_v3_business_reviews&utm_source=CLvH_oejmW4isGEg-hCd2w",
            "text": "Sooo, my best friend's husband is Nigerian and I wanted to bless him with some food from his homeland for Christmas, so I chose Trices Cafe and Lounge....",
            "time_created": "2022-01-02 09:26:46",
            "user": {
                "image_url": "https://s3-media4.fl.yelpcdn.com/photo/_LxqJQqvVtbccu8u0A-28w/o.jpg",
                "id": "29e6YZwitSW8NYyWd6koPw",
                "profile_url": "https://www.yelp.com/user_details?userid=29e6YZwitSW8NYyWd6koPw",
                "name": "Alsor S."
            },
            "id": "qT9OB3xe4ZCsbCglEHNUoQ"
        }
    ],
    "alias": "trices-cafe-and-lounge-san-antonio-2",
    "image_url": "https://s3-media3.fl.yelpcdn.com/bphoto/8IhfEosoQAolEWDgX0aijA/o.jpg",
    "messaging": {
        "url": "https://www.yelp.com/raq/1IsTab5_EMwacqpPJTRqNA?adjust_creative=CLvH_oejmW4isGEg-hCd2w&utm_campaign=yelp_api_v3&utm_medium=api_v3_business_lookup&utm_source=CLvH_oejmW4isGEg-hCd2w#popup%3Araq",
        "use_case_text": "Message the Business"
    }
}