{
    "spoonacularScore": 0.0,
    "image": "https://spoonacular.com/productImages/203803-312x231.jpeg",
    "likes": 0,
    "images": [
        "https://spoonacular.com/productImages/203803-90x90.jpeg",
        "https://spoonacular.com/productImages/203803-312x231.jpeg",
        "https://spoonacular.com/productImages/203803-636x393.jpeg"
    ],
    "id": 8,
    "badges": [
        "egg_free",
        "no_artificial_colors",
        "peanut_free",
        "no_artificial_flavors",
        "sugar_free",
        "vegetarian",
        "no_artificial_ingredients",
        "nut_free",
        "vegan",
        "dairy_free",
        "gluten_free",
        "kosher"
    ],
    "ingredients": [
        {
            "safety_level": null,
            "name": "added sugar",
            "description": null
        },
        {
            "safety_level": null,
            "name": "additive",
            "description": null
        },
        {
            "safety_level": null,
            "name": "contains",
            "description": null
        },
        {
            "safety_level": null,
            "name": "corn syrup",
            "description": null
        },
        {
            "safety_level": null,
            "name": "corn starch",
            "description": null
        },
        {
            "safety_level": null,
            "name": "corn syrup",
            "description": null
        },
        {
            "safety_level": "high",
            "name": "dehydrated garlic",
            "description": null
        },
        {
            "safety_level": null,
            "name": "drink",
            "description": null
        },
        {
            "safety_level": null,
            "name": "fermented soybeans",
            "description": null
        },
        {
            "safety_level": null,
            "name": "flavor enhancer",
            "description": null
        },
        {
            "safety_level": "high",
            "name": "garlic powder",
            "description": null
        },
        {
            "safety_level": null,
            "name": "grains",
            "description": null
        },
        {
            "safety_level": "controversial",
            "name": "high fructose corn syrup",
            "description": null
        },
        {
            "safety_level": "medium",
            "name": "hydrolyzed corn protein",
            "description": "People sensitive to the effects of MSG should avoid hydrolyzed proteins."
        },
        {
            "safety_level": "medium",
            "name": "hydrolyzed protein",
            "description": "People sensitive to the effects of MSG should avoid hydrolyzed proteins."
        },
        {
            "safety_level": "medium",
            "name": "hydrolyzed vegetable protein",
            "description": "People sensitive to the effects of MSG should avoid hydrolyzed proteins."
        },
        {
            "safety_level": null,
            "name": "menu item type",
            "description": null
        },
        {
            "safety_level": null,
            "name": "mineral",
            "description": null
        },
        {
            "safety_level": null,
            "name": "miso",
            "description": null
        },
        {
            "safety_level": "high",
            "name": "modified corn starch",
            "description": null
        },
        {
            "safety_level": null,
            "name": "red #3",
            "description": null
        },
        {
            "safety_level": null,
            "name": "refined sweetener",
            "description": null
        },
        {
            "safety_level": null,
            "name": "rice",
            "description": null
        },
        {
            "safety_level": null,
            "name": "salt",
            "description": null
        },
        {
            "safety_level": null,
            "name": "soy",
            "description": null
        },
        {
            "safety_level": "high",
            "name": "spices",
            "description": "\"Spice\" can refer to any number of spices. If you are allergic to a spice, you will need to call the manufacturer to find out which spices are included. Things like wheat and sugar <a href=\"http://www.foodlabels.com/q&a.htm#2013_oct\">have to be listed separately</a>, so \"spice\" is safe for gluten free diets."
        },
        {
            "safety_level": null,
            "name": "sweetener",
            "description": null
        },
        {
            "safety_level": null,
            "name": "water",
            "description": null
        }
    ],
    "recipeConnections": [
        8,
        36,
        80
    ],
    "breadcrumbs": [
        "barbecue sauce",
        "grilling sauce",
        "sauce",
        "menu item type"
    ],
    "price": 14.0,
    "imageType": "jpeg",
    "nutrition": {
        "carbs": "21g",
        "nutrients": [
            {
                "amount": 0.0,
                "name": "Calcium",
                "unit": "mg",
                "percentOfDailyNeeds": 0.0
            },
            {
                "amount": 21.0,
                "name": "Carbohydrates",
                "unit": "g",
                "percentOfDailyNeeds": 7.0
            },
            {
                "amount": 0.0,
                "name": "Cholesterol",
                "unit": "mg",
                "percentOfDailyNeeds": 0.0
            },
            {
                "amount": 80.0,
                "name": "Calories",
                "unit": "kcal",
                "percentOfDailyNeeds": 4.0
            },
            {
                "amount": 0.0,
                "name": "Fat",
                "unit": "g",
                "percentOfDailyNeeds": 0.0
            },
            {
                "amount": 0.0,
                "name": "Saturated Fat",
                "unit": "g",
                "percentOfDailyNeeds": 0.0
            },
            {
                "amount": 0.0,
                "name": "Trans Fat",
                "unit": "g",
                "percentOfDailyNeeds": 0.0
            },
            {
                "amount": 0.0,
                "name": "Fiber",
                "unit": "g",
                "percentOfDailyNeeds": 0.0
            },
            {
                "amount": 0.0,
                "name": "Protein",
                "unit": "g",
                "percentOfDailyNeeds": 0.0
            },
            {
                "amount": 970.0,
                "name": "Sodium",
                "unit": "mg",
                "percentOfDailyNeeds": 42.17
            },
            {
                "amount": 14.0,
                "name": "Sugar",
                "unit": "g",
                "percentOfDailyNeeds": 15.56
            },
            {
                "amount": 0.0,
                "name": "Vitamin A",
                "unit": "IU",
                "percentOfDailyNeeds": 0.0
            },
            {
                "amount": 0.0,
                "name": "Vitamin C",
                "unit": "mg",
                "percentOfDailyNeeds": 0.0
            },
            {
                "amount": 21.0,
                "name": "Net Carbohydrates",
                "unit": "g",
                "percentOfDailyNeeds": 7.64
            }
        ],
        "calories": 80.0,
        "fat": "0g",
        "caloricBreakdown": {
            "percentFat": 0.0,
            "percentCarbs": 100.0,
            "percentProtein": 0.0
        },
        "protein": "0g"
    },
    "description": "Ah-So Barbecue Sauce, 11 oz : This bar-b-que sauce is spectacular for anyone following a vegan diet. This product has 13 ingredients (in our experience: the fewer ingredients, the better!) One serving of this product provides 80 calories, 0 grams of fat, 0 grams of protein, and 21 grams of carbs. According to our research, this product contains no ingredients that you should avoid.",
    "brand": "Ah-So",
    "importantBadges": [
        "no_artificial_flavors",
        "no_artificial_colors",
        "no_artificial_ingredients",
        "kosher",
        "gluten_free",
        "nut_free"
    ],
    "ingredientCount": 13,
    "aisle": "Condiments",
    "name": "barbecue sauce",
    "generatedText": "Ah-So Barbecue Sauce, 11 oz : This bar-b-que sauce is spectacular for anyone following a vegan diet. This product has 13 ingredients (in our experience: the fewer ingredients, the better!) One serving of this product provides 80 calories, 0 grams of fat, 0 grams of protein, and 21 grams of carbs. According to our research, this product contains no ingredients that you should avoid.",
    "upc": "030684906473",
    "ingredientList": "High Fructose Corn Syrup, Corn Syrup, Water, Salt, Miso (Water, Fermented Soybeans, Rice, And Salt), Modified Corn Starch, Hydrolyzed Corn Protein, Garlic Powder And Red #3. Contains: Soy",
    "servings": {
        "number": 8.0,
        "unit": "g",
        "size": 37.0
    },
    "title": "Ah-So Barbecue Sauce, 11 oz"
}