{
    "spoonacularScore": 100.0,
    "image": "https://spoonacular.com/productImages/109350-312x231.jpeg",
    "likes": 0,
    "images": [
        "https://spoonacular.com/productImages/109350-90x90.jpeg",
        "https://spoonacular.com/productImages/109350-312x231.jpeg",
        "https://spoonacular.com/productImages/109350-636x393.jpeg"
    ],
    "id": 11,
    "badges": [
        "egg_free",
        "peanut_free",
        "sulfite_free",
        "nut_free",
        "vegan",
        "no_preservatives",
        "soy_free",
        "msg_free",
        "no_artificial_colors",
        "no_artificial_flavors",
        "sugar_free",
        "vegetarian",
        "no_artificial_ingredients",
        "no_additives",
        "corn_free",
        "dairy_free",
        "gluten_free"
    ],
    "ingredients": [
        {
            "safety_level": null,
            "name": "antioxidant",
            "description": null
        },
        {
            "safety_level": "high",
            "name": "ascorbic acid",
            "description": null
        },
        {
            "safety_level": null,
            "name": "bean sprouts",
            "description": null
        },
        {
            "safety_level": "high",
            "name": "citric acid",
            "description": null
        },
        {
            "safety_level": null,
            "name": "drink",
            "description": null
        },
        {
            "safety_level": null,
            "name": "menu item type",
            "description": null
        },
        {
            "safety_level": null,
            "name": "mineral",
            "description": null
        },
        {
            "safety_level": null,
            "name": "nutrient",
            "description": null
        },
        {
            "safety_level": null,
            "name": "salt",
            "description": null
        },
        {
            "safety_level": null,
            "name": "sprouts",
            "description": null
        },
        {
            "safety_level": null,
            "name": "to maintain",
            "description": null
        },
        {
            "safety_level": null,
            "name": "vitamin",
            "description": null
        },
        {
            "safety_level": null,
            "name": "water",
            "description": null
        }
    ],
    "recipeConnections": [
        35,
        99
    ],
    "breadcrumbs": [
        "bean sprouts",
        "sprouts",
        "ingredient"
    ],
    "price": 1.48,
    "imageType": "jpeg",
    "nutrition": {
        "carbs": "3g",
        "nutrients": [
            {
                "amount": 40.0,
                "name": "Calcium",
                "unit": "mg",
                "percentOfDailyNeeds": 4.0
            },
            {
                "amount": 3.0,
                "name": "Carbohydrates",
                "unit": "g",
                "percentOfDailyNeeds": 1.0
            },
            {
                "amount": 0.0,
                "name": "Cholesterol",
                "unit": "mg",
                "percentOfDailyNeeds": 0.0
            },
            {
                "amount": 15.0,
                "name": "Calories",
                "unit": "kcal",
                "percentOfDailyNeeds": 0.75
            },
            {
                "amount": 0.0,
                "name": "Fat",
                "unit": "g",
                "percentOfDailyNeeds": 0.0
            },
            {
                "amount": 0.0,
                "name": "Saturated Fat",
                "unit": "g",
                "percentOfDailyNeeds": 0.0
            },
            {
                "amount": 0.0,
                "name": "Trans Fat",
                "unit": "g",
                "percentOfDailyNeeds": 0.0
            },
            {
                "amount": 1.0,
                "name": "Fiber",
                "unit": "g",
                "percentOfDailyNeeds": 4.0
            },
            {
                "amount": 0.0,
                "name": "Iron",
                "unit": "mg",
                "percentOfDailyNeeds": 0.0
            },
            {
                "amount": 1.0,
                "name": "Protein",
                "unit": "g",
                "percentOfDailyNeeds": 2.0
            },
            {
                "amount": 50.0,
                "name": "Sodium",
                "unit": "mg",
                "percentOfDailyNeeds": 2.17
            },
            {
                "amount": 1.0,
                "name": "Sugar",
                "unit": "g",
                "percentOfDailyNeeds": 1.11
            },
            {
                "amount": 0.0,
                "name": "Vitamin A",
                "unit": "IU",
                "percentOfDailyNeeds": 0.0
            },
            {
                "amount": 57.75,
                "name": "Vitamin C",
                "unit": "mg",
                "percentOfDailyNeeds": 70.0
            },
            {
                "amount": 2.0,
                "name": "Net Carbohydrates",
                "unit": "g",
                "percentOfDailyNeeds": 0.73
            }
        ],
        "calories": 15.0,
        "fat": "0g",
        "caloricBreakdown": {
            "percentFat": 0.0,
            "percentCarbs": 75.0,
            "percentProtein": 25.0
        },
        "protein": "1g"
    },
    "description": "La Choy?? has created authentic and easy to prepare Asian foods for over 80 years. Our flavorful sauces. Asian vegetables, crunchy noodles and complete meals are a convenient and delicious way to add variety to your everyday meals. Let us show you how at www.lachoy.com. Crisp La Choy?? Bean Sprouts are the perfect addition to Asian soups, salads, and meals. Try them in our delicious Ginger Teriyaki Chicken recipe (see inside label). For authentic, delicious and easy Asian recipes, please visit us at www.lachoy.com. Questions/comments? Please contact us at La Choy Consumer Affairs, 1-800-252-0672.",
    "brand": "La Choy",
    "importantBadges": [
        "no_additives",
        "no_preservatives",
        "no_artificial_flavors",
        "no_artificial_colors",
        "no_artificial_ingredients",
        "sulfite_free"
    ],
    "ingredientCount": 6,
    "aisle": "Ethnic Foods",
    "name": "bean sprouts",
    "generatedText": null,
    "upc": "044300123304",
    "ingredientList": "Bean Sprouts, Water, Salt, Ascorbic Acid (to maintain color), Citric Acid",
    "servings": {
        "number": 3.0,
        "unit": "c",
        "size": 0.66
    },
    "title": "La Choy Bean Sprouts, 14 Ounce"
}