{
    "spoonacularScore": 65.0,
    "image": "https://spoonacular.com/productImages/43851-312x231.jpeg",
    "likes": 0,
    "images": [
        "https://spoonacular.com/productImages/43851-90x90.jpeg",
        "https://spoonacular.com/productImages/43851-312x231.jpeg",
        "https://spoonacular.com/productImages/43851-636x393.jpeg"
    ],
    "id": 12,
    "badges": [
        "egg_free",
        "peanut_free",
        "no_artificial_colors",
        "no_artificial_flavors",
        "sulfite_free",
        "nut_free",
        "no_artificial_ingredients",
        "corn_free",
        "dairy_free",
        "no_preservatives",
        "gluten_free",
        "soy_free"
    ],
    "ingredients": [
        {
            "safety_level": null,
            "name": "natural flavoring",
            "description": null
        },
        {
            "safety_level": null,
            "name": "ingredients",
            "description": null
        },
        {
            "safety_level": null,
            "name": "added sugar",
            "description": null
        },
        {
            "safety_level": null,
            "name": "celery",
            "description": null
        },
        {
            "safety_level": null,
            "name": "vegetable",
            "description": null
        },
        {
            "safety_level": null,
            "name": "refined sweetener",
            "description": null
        },
        {
            "safety_level": null,
            "name": "sugar",
            "description": null
        },
        {
            "safety_level": null,
            "name": "additive",
            "description": null
        },
        {
            "safety_level": null,
            "name": "onions",
            "description": null
        },
        {
            "safety_level": null,
            "name": "granulated sugar",
            "description": null
        },
        {
            "safety_level": null,
            "name": "flavor enhancer",
            "description": null
        },
        {
            "safety_level": null,
            "name": "stock",
            "description": null
        },
        {
            "safety_level": "controversial",
            "name": "yeast extract",
            "description": null
        },
        {
            "safety_level": null,
            "name": "carrots",
            "description": null
        },
        {
            "safety_level": null,
            "name": "beef stock",
            "description": null
        },
        {
            "safety_level": null,
            "name": "mixed vegetables",
            "description": null
        },
        {
            "safety_level": null,
            "name": "sweetener",
            "description": null
        },
        {
            "safety_level": null,
            "name": "nutrient",
            "description": null
        },
        {
            "safety_level": null,
            "name": "mineral",
            "description": null
        },
        {
            "safety_level": null,
            "name": "salt",
            "description": null
        },
        {
            "safety_level": null,
            "name": "root vegetable",
            "description": null
        },
        {
            "safety_level": null,
            "name": "mirepoix",
            "description": null
        }
    ],
    "recipeConnections": [
        29,
        40,
        48,
        60,
        80
    ],
    "breadcrumbs": [
        "beef broth",
        "broth",
        "ingredient"
    ],
    "price": 2.42,
    "imageType": "jpeg",
    "nutrition": {
        "carbs": "1g",
        "nutrients": [
            {
                "amount": 0.0,
                "name": "Calcium",
                "unit": "mg",
                "percentOfDailyNeeds": 0.0
            },
            {
                "amount": 1.0,
                "name": "Carbohydrates",
                "unit": "g",
                "percentOfDailyNeeds": 0.33
            },
            {
                "amount": 0.0,
                "name": "Cholesterol",
                "unit": "mg",
                "percentOfDailyNeeds": 0.0
            },
            {
                "amount": 15.0,
                "name": "Calories",
                "unit": "kcal",
                "percentOfDailyNeeds": 0.75
            },
            {
                "amount": 0.0,
                "name": "Fat",
                "unit": "g",
                "percentOfDailyNeeds": 0.0
            },
            {
                "amount": 0.0,
                "name": "Saturated Fat",
                "unit": "g",
                "percentOfDailyNeeds": 0.0
            },
            {
                "amount": 0.0,
                "name": "Trans Fat",
                "unit": "g",
                "percentOfDailyNeeds": 0.0
            },
            {
                "amount": 0.0,
                "name": "Fiber",
                "unit": "g",
                "percentOfDailyNeeds": 0.0
            },
            {
                "amount": 0.0,
                "name": "Iron",
                "unit": "mg",
                "percentOfDailyNeeds": 0.0
            },
            {
                "amount": 2.0,
                "name": "Protein",
                "unit": "g",
                "percentOfDailyNeeds": 4.0
            },
            {
                "amount": 800.0,
                "name": "Sodium",
                "unit": "mg",
                "percentOfDailyNeeds": 34.78
            },
            {
                "amount": 1.0,
                "name": "Sugar",
                "unit": "g",
                "percentOfDailyNeeds": 1.11
            },
            {
                "amount": 0.0,
                "name": "Vitamin A",
                "unit": "IU",
                "percentOfDailyNeeds": 0.0
            },
            {
                "amount": 0.0,
                "name": "Vitamin C",
                "unit": "mg",
                "percentOfDailyNeeds": 0.0
            },
            {
                "amount": 0.0,
                "name": "Vitamin D",
                "unit": "\u00b5g",
                "percentOfDailyNeeds": 0.0
            },
            {
                "amount": 1.0,
                "name": "Net Carbohydrates",
                "unit": "g",
                "percentOfDailyNeeds": 0.36
            }
        ],
        "calories": 15.0,
        "fat": "0g",
        "caloricBreakdown": {
            "percentFat": 0.0,
            "percentCarbs": 33.33,
            "percentProtein": 66.67
        },
        "protein": "2g"
    },
    "description": "SwansonBeef Broth, 32 oz. Carton: This beef broth is great for anyone following a paleo diet. One serving of this product provides 10 calories, 0 grams of fat, 2 grams of protein, and 1 grams of carbs. This product has 10 ingredients (in our experience: the fewer ingredients, the better!) According to our research, this product contains no ingredients that you should avoid.",
    "brand": "Swanson",
    "importantBadges": [
        "no_preservatives",
        "no_artificial_flavors",
        "no_artificial_colors",
        "no_artificial_ingredients",
        "sulfite_free",
        "gluten_free"
    ],
    "ingredientCount": 10,
    "aisle": "Canned and Jarred",
    "name": "beef broth",
    "generatedText": "Swanson\u00a0Beef Broth, 32 oz. Carton: This beef broth is great for anyone following a paleo diet. One serving of this product provides 10 calories, 0 grams of fat, 2 grams of protein, and 1 grams of carbs. This product has 10 ingredients (in our experience: the fewer ingredients, the better!) According to our research, this product contains no ingredients that you should avoid.",
    "upc": "051000198808",
    "ingredientList": "Beef Stock, Contains Less than 2% of: Salt, Yeast Extract, Dextrose, Natural Flavoring, Onion Juice Concentrate, Tomato Paste, Beef Fat (Adds a Trivial Amount of Fat), Beef Extract, Carrots, Celery, Onions, Sugar",
    "servings": {
        "number": 6.0,
        "unit": "cup",
        "size": 1.0
    },
    "title": "Swanson Beef Broth, 32 oz. Carton"
}