{
    "spoonacularScore": 100.0,
    "image": "https://spoonacular.com/productImages/414349-312x231.jpg",
    "likes": 0,
    "images": [
        "https://spoonacular.com/productImages/414349-90x90.jpg",
        "https://spoonacular.com/productImages/414349-312x231.jpg",
        "https://spoonacular.com/productImages/414349-636x393.jpg"
    ],
    "id": 24,
    "badges": [
        "egg_free",
        "peanut_free",
        "sulfite_free",
        "nut_free",
        "vegan",
        "no_preservatives",
        "soy_free",
        "msg_free",
        "no_artificial_colors",
        "no_artificial_flavors",
        "sugar_free",
        "vegetarian",
        "no_artificial_ingredients",
        "no_additives",
        "corn_free",
        "dairy_free",
        "gluten_free",
        "organic"
    ],
    "ingredients": [
        {
            "safety_level": null,
            "name": "butter lettuce",
            "description": null
        },
        {
            "safety_level": null,
            "name": "greens",
            "description": null
        },
        {
            "safety_level": null,
            "name": "ingredient",
            "description": null
        },
        {
            "safety_level": null,
            "name": "lettuce",
            "description": null
        },
        {
            "safety_level": null,
            "name": "vegetable",
            "description": null
        }
    ],
    "recipeConnections": [],
    "breadcrumbs": [
        "butter lettuce",
        "lettuce",
        "greens",
        "vegetable",
        "ingredient"
    ],
    "price": 3.49,
    "imageType": "jpg",
    "nutrition": {
        "carbs": "2g",
        "nutrients": [
            {
                "amount": 40.0,
                "name": "Calcium",
                "unit": "mg",
                "percentOfDailyNeeds": 4.0
            },
            {
                "amount": 2.0,
                "name": "Carbohydrates",
                "unit": "g",
                "percentOfDailyNeeds": 0.67
            },
            {
                "amount": 10.0,
                "name": "Calories",
                "unit": "kcal",
                "percentOfDailyNeeds": 0.5
            },
            {
                "amount": 0.0,
                "name": "Fat",
                "unit": "g",
                "percentOfDailyNeeds": 0.0
            },
            {
                "amount": 0.0,
                "name": "Saturated Fat",
                "unit": "g",
                "percentOfDailyNeeds": 0.0
            },
            {
                "amount": 1.0,
                "name": "Fiber",
                "unit": "g",
                "percentOfDailyNeeds": 4.0
            },
            {
                "amount": 1.08,
                "name": "Iron",
                "unit": "mg",
                "percentOfDailyNeeds": 6.0
            },
            {
                "amount": 200.0,
                "name": "Potassium",
                "unit": "mg",
                "percentOfDailyNeeds": 5.71
            },
            {
                "amount": 1.0,
                "name": "Protein",
                "unit": "g",
                "percentOfDailyNeeds": 2.0
            },
            {
                "amount": 0.0,
                "name": "Sodium",
                "unit": "mg",
                "percentOfDailyNeeds": 0.0
            },
            {
                "amount": 1.0,
                "name": "Sugar",
                "unit": "g",
                "percentOfDailyNeeds": 1.11
            },
            {
                "amount": 3000.0,
                "name": "Vitamin A",
                "unit": "IU",
                "percentOfDailyNeeds": 60.0
            },
            {
                "amount": 4.95,
                "name": "Vitamin C",
                "unit": "mg",
                "percentOfDailyNeeds": 6.0
            },
            {
                "amount": 1.0,
                "name": "Net Carbohydrates",
                "unit": "g",
                "percentOfDailyNeeds": 0.36
            }
        ],
        "calories": 10.0,
        "fat": "0g",
        "caloricBreakdown": {
            "percentFat": 0.0,
            "percentCarbs": 66.67,
            "percentProtein": 33.33
        },
        "protein": "1g"
    },
    "description": "Organic regulations prohibit the use of genetically engineered ingredients.Certified by Quality Assurance International.Quality guaranteed or your money back.Call: 1-877-846-9949.2016 Ahold licensing Sarl.",
    "brand": "Nature's Promise",
    "importantBadges": [
        "organic",
        "no_additives",
        "no_preservatives",
        "no_artificial_flavors",
        "no_artificial_colors",
        "no_artificial_ingredients"
    ],
    "ingredientCount": 2,
    "aisle": "Produce",
    "name": "butter leaf lettuce",
    "generatedText": null,
    "upc": "688267175558",
    "ingredientList": "Organic Ingredient: Butter lettuce",
    "servings": {
        "number": 1.0,
        "unit": "cups",
        "size": 2.0
    },
    "title": "Nature's Promise Organic Baby Butter Lettuce"
}