{
    "spoonacularScore": 100.0,
    "image": "https://spoonacular.com/productImages/539467-312x231.jpeg",
    "likes": 0,
    "images": [
        "https://spoonacular.com/productImages/539467-90x90.jpeg",
        "https://spoonacular.com/productImages/539467-312x231.jpeg",
        "https://spoonacular.com/productImages/539467-636x393.jpeg"
    ],
    "id": 33,
    "badges": [
        "egg_free",
        "peanut_free",
        "sulfite_free",
        "nut_free",
        "vegan",
        "no_preservatives",
        "soy_free",
        "msg_free",
        "no_artificial_colors",
        "no_artificial_flavors",
        "sugar_free",
        "vegetarian",
        "no_artificial_ingredients",
        "no_additives",
        "corn_free",
        "dairy_free",
        "gluten_free"
    ],
    "ingredients": [
        {
            "safety_level": null,
            "name": "diced celery",
            "description": null
        },
        {
            "safety_level": null,
            "name": "vegetable",
            "description": null
        }
    ],
    "recipeConnections": [
        8,
        11,
        22,
        34,
        51,
        52,
        73,
        80
    ],
    "breadcrumbs": [
        "celery",
        "vegetable",
        "ingredient"
    ],
    "price": 3.89,
    "imageType": "jpeg",
    "nutrition": {
        "carbs": "8g",
        "nutrients": [
            {
                "amount": 20.0,
                "name": "Calcium",
                "unit": "mg",
                "percentOfDailyNeeds": 2.0
            },
            {
                "amount": 8.0,
                "name": "Carbohydrates",
                "unit": "g",
                "percentOfDailyNeeds": 2.67
            },
            {
                "amount": 0.0,
                "name": "Cholesterol",
                "unit": "mg",
                "percentOfDailyNeeds": 0.0
            },
            {
                "amount": 35.0,
                "name": "Calories",
                "unit": "kcal",
                "percentOfDailyNeeds": 1.75
            },
            {
                "amount": 0.0,
                "name": "Fat",
                "unit": "g",
                "percentOfDailyNeeds": 0.0
            },
            {
                "amount": 0.0,
                "name": "Saturated Fat",
                "unit": "g",
                "percentOfDailyNeeds": 0.0
            },
            {
                "amount": 0.0,
                "name": "Trans Fat",
                "unit": "g",
                "percentOfDailyNeeds": 0.0
            },
            {
                "amount": 1.0,
                "name": "Fiber",
                "unit": "g",
                "percentOfDailyNeeds": 4.0
            },
            {
                "amount": 1.0,
                "name": "Protein",
                "unit": "g",
                "percentOfDailyNeeds": 2.0
            },
            {
                "amount": 10.0,
                "name": "Sodium",
                "unit": "mg",
                "percentOfDailyNeeds": 0.43
            },
            {
                "amount": 3.0,
                "name": "Sugar",
                "unit": "g",
                "percentOfDailyNeeds": 3.33
            },
            {
                "amount": 300.0,
                "name": "Vitamin A",
                "unit": "IU",
                "percentOfDailyNeeds": 6.0
            },
            {
                "amount": 20.63,
                "name": "Vitamin C",
                "unit": "mg",
                "percentOfDailyNeeds": 25.0
            },
            {
                "amount": 7.0,
                "name": "Net Carbohydrates",
                "unit": "g",
                "percentOfDailyNeeds": 2.55
            }
        ],
        "calories": 35.0,
        "fat": "0g",
        "caloricBreakdown": {
            "percentFat": 0.0,
            "percentCarbs": 88.89,
            "percentProtein": 11.11
        },
        "protein": "1g"
    },
    "description": "Diced Celery: This celery is amazing for anyone following a gaps_3 diet. We recommend choosing products with short ingredient lists, as these tend to be less processed. This product has 1 ingredient. According to our research, this product contains no ingredients that you should avoid. This product contains 35 calories, 0 grams of fat, 1 grams of protein, and 8 grams of carbs per serving.",
    "brand": "Generic",
    "importantBadges": [
        "no_additives",
        "no_preservatives",
        "no_artificial_flavors",
        "no_artificial_colors",
        "no_artificial_ingredients",
        "sulfite_free"
    ],
    "ingredientCount": 1,
    "aisle": "Produce",
    "name": "celery",
    "generatedText": "Diced Celery: This celery is amazing for anyone following a gaps_3 diet. We recommend choosing products with short ingredient lists, as these tend to be less processed. This product has 1 ingredient. According to our research, this product contains no ingredients that you should avoid. This product contains 35 calories, 0 grams of fat, 1 grams of protein, and 8 grams of carbs per serving.",
    "upc": "741739003336",
    "ingredientList": "Diced Celery",
    "servings": {
        "number": 5.0,
        "unit": "g",
        "size": 85.0
    },
    "title": "Diced Celery"
}