{
    "spoonacularScore": 100.0,
    "image": "https://spoonacular.com/productImages/602899-312x231.jpeg",
    "likes": 0,
    "images": [
        "https://spoonacular.com/productImages/602899-90x90.jpeg",
        "https://spoonacular.com/productImages/602899-312x231.jpeg",
        "https://spoonacular.com/productImages/602899-636x393.jpeg"
    ],
    "id": 46,
    "badges": [
        "egg_free",
        "peanut_free",
        "sulfite_free",
        "nut_free",
        "vegan",
        "no_preservatives",
        "soy_free",
        "msg_free",
        "no_artificial_colors",
        "sugar_free",
        "no_artificial_flavors",
        "vegetarian",
        "no_artificial_ingredients",
        "no_additives",
        "corn_free",
        "dairy_free",
        "gluten_free"
    ],
    "ingredients": [
        {
            "safety_level": null,
            "name": "glucono-delta-lactone",
            "description": null
        },
        {
            "safety_level": null,
            "name": "water",
            "description": null
        },
        {
            "safety_level": null,
            "name": "rice",
            "description": null
        },
        {
            "safety_level": null,
            "name": "grains",
            "description": null
        },
        {
            "safety_level": null,
            "name": "drink",
            "description": null
        },
        {
            "safety_level": null,
            "name": "menu item type",
            "description": null
        }
    ],
    "recipeConnections": [
        93
    ],
    "breadcrumbs": [
        "cooked white rice",
        "white rice",
        "rice",
        "grains",
        "ingredient"
    ],
    "price": 1.5,
    "imageType": "jpeg",
    "nutrition": {
        "caloricBreakdown": {
            "percentFat": 0.0,
            "percentCarbs": 0.0,
            "percentProtein": 0.0
        },
        "nutrients": [
            {
                "amount": 0.0,
                "name": "Net Carbohydrates",
                "unit": "g",
                "percentOfDailyNeeds": 0.0
            }
        ],
        "calories": null
    },
    "description": "In the mood for steamed white rice?. We recommend choosing products with short ingredient lists, as these tend to be less processed. This product has 3 ingredients. According to our research, this product contains no ingredients that you should avoid.",
    "brand": "Ottogi",
    "importantBadges": [
        "no_additives",
        "no_preservatives",
        "no_artificial_flavors",
        "no_artificial_colors",
        "no_artificial_ingredients",
        "sulfite_free"
    ],
    "ingredientCount": 3,
    "aisle": "Pasta and Rice",
    "name": "cooked rice",
    "generatedText": "In the mood for steamed white rice?. We recommend choosing products with short ingredient lists, as these tend to be less processed. This product has 3 ingredients. According to our research, this product contains no ingredients that you should avoid.",
    "upc": "645175930068",
    "ingredientList": "WATER, RICE, GLUCONO-DELTA-LACTONE",
    "servings": {
        "number": 1.0,
        "unit": null,
        "size": null
    },
    "title": "White Rice"
}