{
    "spoonacularScore": 47.5,
    "image": "https://spoonacular.com/productImages/194411-312x231.jpeg",
    "likes": 0,
    "images": [
        "https://spoonacular.com/productImages/194411-90x90.jpeg",
        "https://spoonacular.com/productImages/194411-312x231.jpeg",
        "https://spoonacular.com/productImages/194411-636x393.jpeg"
    ],
    "id": 50,
    "badges": [
        "msg_free",
        "egg_free",
        "no_artificial_colors",
        "peanut_free",
        "vegetarian",
        "no_artificial_flavors",
        "nut_free",
        "no_artificial_ingredients",
        "vegan",
        "dairy_free",
        "kosher",
        "soy_free"
    ],
    "ingredients": [
        {
            "safety_level": "high",
            "name": "leavening",
            "description": null
        },
        {
            "safety_level": "medium",
            "name": "phosphate",
            "description": "The Environmental Working Group recommends limiting consumption of phosphate-based additives until more research has been done on their health effects."
        },
        {
            "safety_level": null,
            "name": "yeast nutrient",
            "description": null
        },
        {
            "safety_level": null,
            "name": "refined sweetener",
            "description": null
        },
        {
            "safety_level": null,
            "name": "additive",
            "description": null
        },
        {
            "safety_level": null,
            "name": "sweetener",
            "description": null
        },
        {
            "safety_level": null,
            "name": "flour product",
            "description": null
        },
        {
            "safety_level": null,
            "name": "anticaking agent",
            "description": null
        },
        {
            "safety_level": "medium",
            "name": "calcium phosphate",
            "description": null
        },
        {
            "safety_level": null,
            "name": "mineral",
            "description": null
        },
        {
            "safety_level": null,
            "name": "nutrient",
            "description": null
        },
        {
            "safety_level": null,
            "name": "added sugar",
            "description": null
        },
        {
            "safety_level": null,
            "name": "yeast",
            "description": null
        },
        {
            "safety_level": null,
            "name": "salt",
            "description": null
        },
        {
            "safety_level": null,
            "name": "leavening",
            "description": null
        },
        {
            "safety_level": null,
            "name": "cornmeal",
            "description": null
        },
        {
            "safety_level": null,
            "name": "sodium aluminum phosphate",
            "description": null
        },
        {
            "safety_level": null,
            "name": "sodium bicarbonate",
            "description": null
        },
        {
            "safety_level": null,
            "name": "sugar",
            "description": null
        },
        {
            "safety_level": null,
            "name": "wheat flour",
            "description": null
        },
        {
            "safety_level": "high",
            "name": "monocalcium phosphate",
            "description": null
        }
    ],
    "recipeConnections": [],
    "breadcrumbs": [
        "cornbread",
        "bread",
        "baked goods",
        "menu item type"
    ],
    "price": 1.48,
    "imageType": "jpeg",
    "nutrition": {
        "carbs": "27g",
        "nutrients": [
            {
                "amount": 20.0,
                "name": "Calcium",
                "unit": "mg",
                "percentOfDailyNeeds": 2.0
            },
            {
                "amount": 27.0,
                "name": "Carbohydrates",
                "unit": "g",
                "percentOfDailyNeeds": 9.0
            },
            {
                "amount": 0.0,
                "name": "Cholesterol",
                "unit": "mg",
                "percentOfDailyNeeds": 0.0
            },
            {
                "amount": 110.0,
                "name": "Calories",
                "unit": "kcal",
                "percentOfDailyNeeds": 5.5
            },
            {
                "amount": 5.0,
                "name": "Fat",
                "unit": "g",
                "percentOfDailyNeeds": 7.69
            },
            {
                "amount": 0.0,
                "name": "Saturated Fat",
                "unit": "g",
                "percentOfDailyNeeds": 0.0
            },
            {
                "amount": 0.0,
                "name": "Trans Fat",
                "unit": "g",
                "percentOfDailyNeeds": 0.0
            },
            {
                "amount": 1.0,
                "name": "Fiber",
                "unit": "g",
                "percentOfDailyNeeds": 4.0
            },
            {
                "amount": 0.72,
                "name": "Iron",
                "unit": "mg",
                "percentOfDailyNeeds": 4.0
            },
            {
                "amount": 2.0,
                "name": "Protein",
                "unit": "g",
                "percentOfDailyNeeds": 4.0
            },
            {
                "amount": 260.0,
                "name": "Sodium",
                "unit": "mg",
                "percentOfDailyNeeds": 11.3
            },
            {
                "amount": 8.0,
                "name": "Sugar",
                "unit": "g",
                "percentOfDailyNeeds": 8.89
            },
            {
                "amount": 0.0,
                "name": "Vitamin A",
                "unit": "IU",
                "percentOfDailyNeeds": 0.0
            },
            {
                "amount": 0.0,
                "name": "Vitamin C",
                "unit": "mg",
                "percentOfDailyNeeds": 0.0
            },
            {
                "amount": 26.0,
                "name": "Net Carbohydrates",
                "unit": "g",
                "percentOfDailyNeeds": 9.45
            }
        ],
        "calories": 110.0,
        "fat": "5g",
        "caloricBreakdown": {
            "percentFat": 27.95,
            "percentCarbs": 67.08,
            "percentProtein": 4.97
        },
        "protein": "2g"
    },
    "description": "Vegetarian and craving corn bread? Miracle Maize Sweet Corn Bread & Muffin Mix, 18 oz might be just the product you are looking for. According to our research, this product contains no ingredients that you should avoid. This product contains 110 calories, 6 grams of fat, 2 grams of protein, and 27 grams of carbs per serving. This product has 8 ingredients (in our experience: the fewer ingredients, the better!).",
    "brand": "Miracle Maize",
    "importantBadges": [
        "no_artificial_flavors",
        "no_artificial_colors",
        "no_artificial_ingredients",
        "kosher",
        "nut_free",
        "peanut_free"
    ],
    "ingredientCount": 8,
    "aisle": "Bakery/Bread",
    "name": "corn bread",
    "generatedText": "Vegetarian and craving corn bread? Miracle Maize Sweet Corn Bread &amp; Muffin Mix, 18 oz might be just the product you are looking for. According to our research, this product contains no ingredients that you should avoid. This product contains 110 calories, 6 grams of fat, 2 grams of protein, and 27 grams of carbs per serving. This product has 8 ingredients (in our experience: the fewer ingredients, the better!).",
    "upc": "011126004155",
    "ingredientList": "Cornmeal, Wheat Flour, Sugar, Leavening (Sodium Bicarbonate, Sodium Aluminum Phosphate, Monocalcium Phosphate), Dextrose, Salt",
    "servings": {
        "number": 16.0,
        "unit": "tbsp",
        "size": 3.0
    },
    "title": "Miracle Maize Sweet Corn Bread &amp; Muffin Mix, 18 oz"
}