{
    "spoonacularScore": 87.5,
    "image": "https://spoonacular.com/productImages/141481-312x231.jpeg",
    "likes": 0,
    "images": [
        "https://spoonacular.com/productImages/141481-90x90.jpeg",
        "https://spoonacular.com/productImages/141481-312x231.jpeg",
        "https://spoonacular.com/productImages/141481-636x393.jpeg"
    ],
    "id": 55,
    "badges": [
        "egg_free",
        "peanut_free",
        "nut_free",
        "vegan",
        "soy_free",
        "msg_free",
        "no_artificial_colors",
        "no_artificial_flavors",
        "sugar_free",
        "vegetarian",
        "no_artificial_ingredients",
        "corn_free",
        "dairy_free",
        "gluten_free"
    ],
    "ingredients": [
        {
            "safety_level": null,
            "name": "coriander root",
            "description": null
        },
        {
            "safety_level": null,
            "name": "garlic",
            "description": null
        },
        {
            "safety_level": null,
            "name": "herbs",
            "description": null
        },
        {
            "safety_level": null,
            "name": "including red chili pepper",
            "description": null
        },
        {
            "safety_level": null,
            "name": "kaffir lime peel",
            "description": null
        },
        {
            "safety_level": null,
            "name": "lemongrass",
            "description": null
        },
        {
            "safety_level": null,
            "name": "mineral",
            "description": null
        },
        {
            "safety_level": null,
            "name": "onion",
            "description": null
        },
        {
            "safety_level": null,
            "name": "salt",
            "description": null
        },
        {
            "safety_level": null,
            "name": "shallot",
            "description": null
        },
        {
            "safety_level": "high",
            "name": "spices",
            "description": "\"Spice\" can refer to any number of spices. If you are allergic to a spice, you will need to call the manufacturer to find out which spices are included. Things like wheat and sugar <a href=\"http://www.foodlabels.com/q&a.htm#2013_oct\">have to be listed separately</a>, so \"spice\" is safe for gluten free diets."
        }
    ],
    "recipeConnections": [
        1,
        24,
        60
    ],
    "breadcrumbs": [
        "red curry paste",
        "curry paste",
        "spices",
        "ingredient"
    ],
    "price": 3.59,
    "imageType": "jpeg",
    "nutrition": {
        "carbs": "3g",
        "nutrients": [
            {
                "amount": 0.0,
                "name": "Calcium",
                "unit": "mg",
                "percentOfDailyNeeds": 0.0
            },
            {
                "amount": 3.0,
                "name": "Carbohydrates",
                "unit": "g",
                "percentOfDailyNeeds": 1.0
            },
            {
                "amount": 0.0,
                "name": "Cholesterol",
                "unit": "mg",
                "percentOfDailyNeeds": 0.0
            },
            {
                "amount": 20.0,
                "name": "Calories",
                "unit": "kcal",
                "percentOfDailyNeeds": 1.0
            },
            {
                "amount": 0.0,
                "name": "Fat",
                "unit": "g",
                "percentOfDailyNeeds": 0.0
            },
            {
                "amount": 0.0,
                "name": "Saturated Fat",
                "unit": "g",
                "percentOfDailyNeeds": 0.0
            },
            {
                "amount": 0.0,
                "name": "Trans Fat",
                "unit": "g",
                "percentOfDailyNeeds": 0.0
            },
            {
                "amount": 1.0,
                "name": "Fiber",
                "unit": "g",
                "percentOfDailyNeeds": 4.0
            },
            {
                "amount": 0.36,
                "name": "Iron",
                "unit": "mg",
                "percentOfDailyNeeds": 2.0
            },
            {
                "amount": 1.0,
                "name": "Protein",
                "unit": "g",
                "percentOfDailyNeeds": 2.0
            },
            {
                "amount": 350.0,
                "name": "Sodium",
                "unit": "mg",
                "percentOfDailyNeeds": 15.22
            },
            {
                "amount": 1.0,
                "name": "Sugar",
                "unit": "g",
                "percentOfDailyNeeds": 1.11
            },
            {
                "amount": 500.0,
                "name": "Vitamin A",
                "unit": "IU",
                "percentOfDailyNeeds": 10.0
            },
            {
                "amount": 0.0,
                "name": "Vitamin C",
                "unit": "mg",
                "percentOfDailyNeeds": 0.0
            },
            {
                "amount": 0.0,
                "name": "Vitamin D",
                "unit": "\u00b5g",
                "percentOfDailyNeeds": 0.0
            },
            {
                "amount": 1.0,
                "name": "Net Carbohydrates",
                "unit": "g",
                "percentOfDailyNeeds": 0.36
            }
        ],
        "calories": 20.0,
        "fat": "0g",
        "caloricBreakdown": {
            "percentFat": 0.0,
            "percentCarbs": 75.0,
            "percentProtein": 25.0
        },
        "protein": "1g"
    },
    "description": "Thai Kitchen Gluten Free Red Curry Paste, 4 Oz: This red curry paste is tremendous for anyone following a primal diet. This product contains 5 calories, 0 grams of fat, 0 grams of protein, and 1 grams of carbs per serving. This product has 8 ingredients (in our experience: the fewer ingredients, the better!) According to our research, this product contains no ingredients that you should avoid.",
    "brand": "Thai Kitchen",
    "importantBadges": [
        "no_artificial_flavors",
        "no_artificial_colors",
        "no_artificial_ingredients",
        "gluten_free",
        "vegetarian",
        "vegan"
    ],
    "ingredientCount": 8,
    "aisle": "Ethnic Foods",
    "name": "curry paste",
    "generatedText": "Thai Kitchen Gluten Free Red Curry Paste, 4 Oz: This red curry paste is tremendous for anyone following a primal diet. This product contains 5 calories, 0 grams of fat, 0 grams of protein, and 1 grams of carbs per serving. This product has 8 ingredients (in our experience: the fewer ingredients, the better!) According to our research, this product contains no ingredients that you should avoid.",
    "upc": "737628003006",
    "ingredientList": "Red Chili Pepper, Garlic, Lemongrass, Galangal (Thai Ginger), Salt, Shallot, Spices, Kaffir Lime",
    "servings": {
        "number": 8.0,
        "unit": "g",
        "size": 15.0
    },
    "title": "Thai Kitchen Gluten Free Red Curry Paste, 4 Oz"
}