{
    "spoonacularScore": 100.0,
    "image": "https://spoonacular.com/productImages/650487-312x231.jpeg",
    "likes": 0,
    "images": [
        "https://spoonacular.com/productImages/650487-90x90.jpeg",
        "https://spoonacular.com/productImages/650487-312x231.jpeg",
        "https://spoonacular.com/productImages/650487-636x393.jpeg"
    ],
    "id": 57,
    "badges": [
        "egg_free",
        "peanut_free",
        "primal",
        "nut_free",
        "vegan",
        "kosher",
        "soy_free",
        "msg_free",
        "no_artificial_colors",
        "no_artificial_flavors",
        "sugar_free",
        "vegetarian",
        "no_artificial_ingredients",
        "corn_free",
        "dairy_free",
        "gluten_free",
        "paleo"
    ],
    "ingredients": [],
    "recipeConnections": [],
    "breadcrumbs": [
        "dijon mustard",
        "mustard",
        "condiment",
        "menu item type"
    ],
    "price": 0.95,
    "imageType": "jpeg",
    "nutrition": {
        "carbs": "0g",
        "nutrients": [
            {
                "amount": 0.0,
                "name": "Carbohydrates",
                "unit": "g",
                "percentOfDailyNeeds": 0.0
            },
            {
                "amount": 10.0,
                "name": "Calories",
                "unit": "kcal",
                "percentOfDailyNeeds": 0.5
            },
            {
                "amount": 0.5,
                "name": "Fat",
                "unit": "g",
                "percentOfDailyNeeds": 0.77
            },
            {
                "amount": 0.0,
                "name": "Saturated Fat",
                "unit": "g",
                "percentOfDailyNeeds": 0.0
            },
            {
                "amount": 0.0,
                "name": "Trans Fat",
                "unit": "g",
                "percentOfDailyNeeds": 0.0
            },
            {
                "amount": 0.0,
                "name": "Protein",
                "unit": "g",
                "percentOfDailyNeeds": 0.0
            },
            {
                "amount": 130.0,
                "name": "Sodium",
                "unit": "mg",
                "percentOfDailyNeeds": 5.65
            },
            {
                "amount": 0.0,
                "name": "Net Carbohydrates",
                "unit": "g",
                "percentOfDailyNeeds": 0.0
            }
        ],
        "calories": 10.0,
        "fat": "0.5g",
        "caloricBreakdown": {
            "percentFat": 100.0,
            "percentCarbs": 0.0,
            "percentProtein": 0.0
        },
        "protein": "0g"
    },
    "description": "Thinking about having some dijon style mustard today? Dijon Mustard, Kosher - 7 oz is one choice; let's take a closer look. We recommend choosing products with short ingredient lists, as these tend to be less processed. This product has no ingredients. This product contains 10 calories, 0.5 grams of fat, 0 grams of protein, and 0 grams of carbs per serving. According to our research, this product contains no ingredients that you should avoid.",
    "brand": "Temeraire",
    "importantBadges": [
        "no_artificial_flavors",
        "no_artificial_colors",
        "no_artificial_ingredients",
        "kosher",
        "gluten_free",
        "nut_free"
    ],
    "ingredientCount": 0,
    "aisle": "Condiments",
    "name": "dijon mustard",
    "generatedText": "Thinking about having some dijon style mustard today? Dijon Mustard, Kosher - 7 oz is one choice; let's take a closer look. We recommend choosing products with short ingredient lists, as these tend to be less processed. This product has no ingredients. This product contains 10 calories, 0.5 grams of fat, 0 grams of protein, and 0 grams of carbs per serving. According to our research, this product contains no ingredients that you should avoid.",
    "upc": "077916019686",
    "ingredientList": "",
    "servings": {
        "number": 1.0,
        "unit": null,
        "size": null
    },
    "title": "Dijon Mustard, Kosher - 7 oz"
}