{
    "spoonacularScore": 100.0,
    "image": "https://spoonacular.com/productImages/50393-312x231.jpeg",
    "likes": 2,
    "images": [
        "https://spoonacular.com/productImages/50393-90x90.jpeg",
        "https://spoonacular.com/productImages/50393-312x231.jpeg",
        "https://spoonacular.com/productImages/50393-636x393.jpeg"
    ],
    "id": 76,
    "badges": [
        "egg_free",
        "peanut_free",
        "sulfite_free",
        "nut_free",
        "vegan",
        "no_preservatives",
        "soy_free",
        "msg_free",
        "no_artificial_colors",
        "no_artificial_flavors",
        "vegetarian",
        "no_artificial_ingredients",
        "no_additives",
        "corn_free",
        "dairy_free",
        "gluten_free"
    ],
    "ingredients": [
        {
            "safety_level": null,
            "name": "added sugar",
            "description": null
        },
        {
            "safety_level": null,
            "name": "additive",
            "description": null
        },
        {
            "safety_level": null,
            "name": "garlic",
            "description": null
        },
        {
            "safety_level": "high",
            "name": "ginger",
            "description": null
        },
        {
            "safety_level": null,
            "name": "green onion",
            "description": null
        },
        {
            "safety_level": null,
            "name": "hot pepper",
            "description": null
        },
        {
            "safety_level": null,
            "name": "mineral",
            "description": null
        },
        {
            "safety_level": null,
            "name": "nappa cabbage",
            "description": null
        },
        {
            "safety_level": null,
            "name": "nutrient",
            "description": null
        },
        {
            "safety_level": null,
            "name": "onion",
            "description": null
        },
        {
            "safety_level": "high",
            "name": "paprika",
            "description": null
        },
        {
            "safety_level": null,
            "name": "peppers",
            "description": null
        },
        {
            "safety_level": null,
            "name": "refined sweetener",
            "description": null
        },
        {
            "safety_level": null,
            "name": "salt",
            "description": null
        },
        {
            "safety_level": "high",
            "name": "spices",
            "description": "\"Spice\" can refer to any number of spices. If you are allergic to a spice, you will need to call the manufacturer to find out which spices are included. Things like wheat and sugar <a href=\"http://www.foodlabels.com/q&a.htm#2013_oct\">have to be listed separately</a>, so \"spice\" is safe for gluten free diets."
        },
        {
            "safety_level": null,
            "name": "sugar",
            "description": null
        },
        {
            "safety_level": null,
            "name": "sweetener",
            "description": null
        },
        {
            "safety_level": null,
            "name": "vegetable",
            "description": null
        }
    ],
    "recipeConnections": [],
    "breadcrumbs": [
        "cabbage",
        "vegetable",
        "ingredient"
    ],
    "price": 6.16,
    "imageType": "jpeg",
    "nutrition": {
        "carbs": "2g",
        "nutrients": [
            {
                "amount": 20.0,
                "name": "Calcium",
                "unit": "mg",
                "percentOfDailyNeeds": 2.0
            },
            {
                "amount": 2.0,
                "name": "Carbohydrates",
                "unit": "g",
                "percentOfDailyNeeds": 0.67
            },
            {
                "amount": 0.0,
                "name": "Cholesterol",
                "unit": "mg",
                "percentOfDailyNeeds": 0.0
            },
            {
                "amount": 15.0,
                "name": "Calories",
                "unit": "kcal",
                "percentOfDailyNeeds": 0.75
            },
            {
                "amount": 0.0,
                "name": "Fat",
                "unit": "g",
                "percentOfDailyNeeds": 0.0
            },
            {
                "amount": 0.0,
                "name": "Saturated Fat",
                "unit": "g",
                "percentOfDailyNeeds": 0.0
            },
            {
                "amount": 0.0,
                "name": "Trans Fat",
                "unit": "g",
                "percentOfDailyNeeds": 0.0
            },
            {
                "amount": 1.0,
                "name": "Fiber",
                "unit": "g",
                "percentOfDailyNeeds": 4.0
            },
            {
                "amount": 0.0,
                "name": "Iron",
                "unit": "mg",
                "percentOfDailyNeeds": 0.0
            },
            {
                "amount": 1.0,
                "name": "Protein",
                "unit": "g",
                "percentOfDailyNeeds": 2.0
            },
            {
                "amount": 240.0,
                "name": "Sodium",
                "unit": "mg",
                "percentOfDailyNeeds": 10.43
            },
            {
                "amount": 0.0,
                "name": "Sugar",
                "unit": "g",
                "percentOfDailyNeeds": 0.0
            },
            {
                "amount": 750.0,
                "name": "Vitamin A",
                "unit": "IU",
                "percentOfDailyNeeds": 15.0
            },
            {
                "amount": 3.3,
                "name": "Vitamin C",
                "unit": "mg",
                "percentOfDailyNeeds": 4.0
            },
            {
                "amount": 1.0,
                "name": "Net Carbohydrates",
                "unit": "g",
                "percentOfDailyNeeds": 0.36
            }
        ],
        "calories": 15.0,
        "fat": "0g",
        "caloricBreakdown": {
            "percentFat": 0.0,
            "percentCarbs": 66.67,
            "percentProtein": 33.33
        },
        "protein": "1g"
    },
    "description": "Cabbage, Korean Marinated, Spicy  A gluten free product. Low carb. No cholesterol. No MSG. No preservatives. America's No. 1 selling Kimchi. Fit For a King: King's Kimchi is a hand-crafted blend of fresh nappa cabbage, savory seasonings and meticulously selected spices. King's Kimchi is naturally fermented to bring out its full-bodied flavor and is a nutritious part of every Korean meal. Kimchi can be served as a side-dish or can easily enhance the flavor of everyday dishes such as hamburgers, tuna salads, and dips.",
    "brand": "King's",
    "importantBadges": [
        "no_additives",
        "no_preservatives",
        "no_artificial_flavors",
        "no_artificial_colors",
        "no_artificial_ingredients",
        "sulfite_free"
    ],
    "ingredientCount": 8,
    "aisle": "Produce",
    "name": "kimchi",
    "generatedText": null,
    "upc": "079519111033",
    "ingredientList": "Nappa Cabbage, Garlic, Green Onion, Hot Pepper, Sugar, Salt, Paprika, Ginger",
    "servings": {
        "number": 7.5,
        "unit": "G",
        "size": 56.0
    },
    "title": "King's Kimchi Korean Marinated Spicy Cabbage 14 oz. Jar"
}