{
    "spoonacularScore": 100.0,
    "image": "https://spoonacular.com/productImages/1980551-312x231.jpeg",
    "likes": 0,
    "images": [
        "https://spoonacular.com/productImages/1980551-90x90.jpeg",
        "https://spoonacular.com/productImages/1980551-312x231.jpeg",
        "https://spoonacular.com/productImages/1980551-636x393.jpeg"
    ],
    "id": 77,
    "badges": [
        "egg_free",
        "peanut_free",
        "primal",
        "sulfite_free",
        "nut_free",
        "vegan",
        "no_preservatives",
        "kosher",
        "soy_free",
        "msg_free",
        "no_artificial_colors",
        "sugar_free",
        "no_artificial_flavors",
        "vegetarian",
        "no_artificial_ingredients",
        "no_additives",
        "corn_free",
        "dairy_free",
        "paleo",
        "gluten_free"
    ],
    "ingredients": [],
    "recipeConnections": [
        5,
        11,
        25,
        26,
        67,
        68,
        88
    ],
    "breadcrumbs": [
        "kosher salt",
        "salt",
        "mineral"
    ],
    "price": 1.8,
    "imageType": "jpeg",
    "nutrition": {
        "caloricBreakdown": {
            "percentFat": 0.0,
            "percentCarbs": 0.0,
            "percentProtein": 0.0
        },
        "nutrients": [
            {
                "amount": 0.0,
                "name": "Net Carbohydrates",
                "unit": "g",
                "percentOfDailyNeeds": 0.0
            }
        ],
        "calories": null
    },
    "description": "Paleo and craving kosher salt? Kosher Salt - Diamond Crystal Kosher Salt 3 LB box Pack Of 1 might be just the product you are looking for. We recommend choosing products with short ingredient lists, as these tend to be less processed. This product has no ingredients. According to our research, this product contains no ingredients that you should avoid.",
    "brand": "Diamond Collection",
    "importantBadges": [
        "no_additives",
        "kosher",
        "gluten_free",
        "paleo",
        "primal"
    ],
    "ingredientCount": 0,
    "aisle": "Spices and Seasonings",
    "name": "kosher salt",
    "generatedText": "Paleo and craving kosher salt? Kosher Salt - Diamond Crystal Kosher Salt 3 LB box Pack Of 1 might be just the product you are looking for. We recommend choosing products with short ingredient lists, as these tend to be less processed. This product has no ingredients. According to our research, this product contains no ingredients that you should avoid.",
    "upc": "655881581355",
    "ingredientList": "",
    "servings": {
        "number": 1.0,
        "unit": null,
        "size": null
    },
    "title": "Kosher Salt - Diamond Crystal Kosher Salt "
}