{
    "spoonacularScore": 0.0,
    "image": "https://spoonacular.com/productImages/36335-312x231.jpeg",
    "likes": 0,
    "images": [
        "https://spoonacular.com/productImages/36335-90x90.jpeg",
        "https://spoonacular.com/productImages/36335-312x231.jpeg",
        "https://spoonacular.com/productImages/36335-636x393.jpeg"
    ],
    "id": 92,
    "badges": [
        "egg_free",
        "msg_free",
        "no_artificial_colors",
        "peanut_free",
        "no_artificial_flavors",
        "no_artificial_ingredients",
        "nut_free"
    ],
    "ingredients": [
        {
            "safety_level": null,
            "name": "acidity regulator",
            "description": null
        },
        {
            "safety_level": null,
            "name": "added sugar",
            "description": null
        },
        {
            "safety_level": null,
            "name": "additive",
            "description": null
        },
        {
            "safety_level": null,
            "name": "anticaking agent",
            "description": null
        },
        {
            "safety_level": null,
            "name": "anticaking agent",
            "description": null
        },
        {
            "safety_level": null,
            "name": "artificial",
            "description": null
        },
        {
            "safety_level": "medium",
            "name": "artificial flavor",
            "description": null
        },
        {
            "safety_level": null,
            "name": "artificial ingredient",
            "description": null
        },
        {
            "safety_level": null,
            "name": "artificial preservative",
            "description": null
        },
        {
            "safety_level": "medium",
            "name": "bht",
            "description": "It is hard to say whether BHT is safe, as different <a href=\"http://www.berkeleywellness.com/healthy-eating/food-safety/article/two-preservatives-avoid\">scientific studies</a> have had conflicting results. But since it is usually found in processed foods that you should probably avoid anyhow, it is easy to limit your BHT consumption."
        },
        {
            "safety_level": "medium",
            "name": "blue cheese",
            "description": null
        },
        {
            "safety_level": null,
            "name": "bulking agent",
            "description": null
        },
        {
            "safety_level": null,
            "name": "buttermilk",
            "description": null
        },
        {
            "safety_level": null,
            "name": "b vitamin",
            "description": null
        },
        {
            "safety_level": "high",
            "name": "calcium lactate",
            "description": null
        },
        {
            "safety_level": "high",
            "name": "calcium stearoyl-2-lactylate",
            "description": null
        },
        {
            "safety_level": null,
            "name": "canola oil",
            "description": null
        },
        {
            "safety_level": "high",
            "name": "caseinate",
            "description": null
        },
        {
            "safety_level": "medium",
            "name": "cheddar cheese",
            "description": null
        },
        {
            "safety_level": null,
            "name": "cheese",
            "description": null
        },
        {
            "safety_level": "high",
            "name": "cheese cultures",
            "description": null
        },
        {
            "safety_level": "high",
            "name": "citric acid",
            "description": null
        },
        {
            "safety_level": null,
            "name": "cooking fat",
            "description": null
        },
        {
            "safety_level": null,
            "name": "cooking oil",
            "description": null
        },
        {
            "safety_level": null,
            "name": "corn starch",
            "description": null
        },
        {
            "safety_level": null,
            "name": "corn syrup",
            "description": null
        },
        {
            "safety_level": null,
            "name": "corn starch",
            "description": null
        },
        {
            "safety_level": null,
            "name": "cream",
            "description": null
        },
        {
            "safety_level": "high",
            "name": "culture",
            "description": null
        },
        {
            "safety_level": "high",
            "name": "cultures",
            "description": null
        },
        {
            "safety_level": "high",
            "name": "dextrose",
            "description": null
        },
        {
            "safety_level": null,
            "name": "dietary fiber",
            "description": null
        },
        {
            "safety_level": null,
            "name": "diglycerides",
            "description": null
        },
        {
            "safety_level": null,
            "name": "dough conditioner",
            "description": null
        },
        {
            "safety_level": null,
            "name": "dried",
            "description": null
        },
        {
            "safety_level": null,
            "name": "drink",
            "description": null
        },
        {
            "safety_level": null,
            "name": "emulsifier",
            "description": null
        },
        {
            "safety_level": null,
            "name": "enriched flour",
            "description": null
        },
        {
            "safety_level": null,
            "name": "enzyme modified blue cheese",
            "description": null
        },
        {
            "safety_level": null,
            "name": "enzyme modified cheddar cheese",
            "description": null
        },
        {
            "safety_level": null,
            "name": "enzyme modified cream",
            "description": null
        },
        {
            "safety_level": "high",
            "name": "enzymes",
            "description": null
        },
        {
            "safety_level": null,
            "name": "fiber supplement",
            "description": null
        },
        {
            "safety_level": null,
            "name": "flavor enhancer",
            "description": null
        },
        {
            "safety_level": null,
            "name": "flour product",
            "description": null
        },
        {
            "safety_level": "high",
            "name": "folic acid",
            "description": null
        },
        {
            "safety_level": null,
            "name": "freshness preserved by sodium bisulfite",
            "description": null
        },
        {
            "safety_level": null,
            "name": "garlic",
            "description": null
        },
        {
            "safety_level": null,
            "name": "gluten free flour",
            "description": null
        },
        {
            "safety_level": null,
            "name": "iron",
            "description": null
        },
        {
            "safety_level": "high",
            "name": "lactic acid",
            "description": null
        },
        {
            "safety_level": null,
            "name": "lactose",
            "description": null
        },
        {
            "safety_level": "high",
            "name": "leavening",
            "description": null
        },
        {
            "safety_level": null,
            "name": "lecithin",
            "description": null
        },
        {
            "safety_level": "high",
            "name": "maltodextrin",
            "description": null
        },
        {
            "safety_level": null,
            "name": "menu item type",
            "description": null
        },
        {
            "safety_level": null,
            "name": "milk",
            "description": null
        },
        {
            "safety_level": null,
            "name": "milk",
            "description": null
        },
        {
            "safety_level": null,
            "name": "milk protein",
            "description": null
        },
        {
            "safety_level": null,
            "name": "mineral",
            "description": null
        },
        {
            "safety_level": "high",
            "name": "modified corn starch",
            "description": null
        },
        {
            "safety_level": "high",
            "name": "modified tapioca starch",
            "description": null
        },
        {
            "safety_level": "high",
            "name": "modified food starch",
            "description": null
        },
        {
            "safety_level": null,
            "name": "mono",
            "description": null
        },
        {
            "safety_level": "controversial",
            "name": "monosodium glutamate",
            "description": null
        },
        {
            "safety_level": null,
            "name": "natural",
            "description": null
        },
        {
            "safety_level": null,
            "name": "niacin",
            "description": null
        },
        {
            "safety_level": null,
            "name": "nonfat milk",
            "description": null
        },
        {
            "safety_level": null,
            "name": "non food item",
            "description": null
        },
        {
            "safety_level": null,
            "name": "nutrient",
            "description": null
        },
        {
            "safety_level": null,
            "name": "onion",
            "description": null
        },
        {
            "safety_level": "low",
            "name": "partially hydrogenated soybean oil",
            "description": null
        },
        {
            "safety_level": "low",
            "name": "partially hydrogenated vegetable oil",
            "description": null
        },
        {
            "safety_level": "medium",
            "name": "phosphate",
            "description": "The Environmental Working Group recommends limiting consumption of phosphate-based additives until more research has been done on their health effects."
        },
        {
            "safety_level": "medium",
            "name": "potassium phosphate",
            "description": null
        },
        {
            "safety_level": null,
            "name": "potatoes",
            "description": null
        },
        {
            "safety_level": null,
            "name": "preservative",
            "description": null
        },
        {
            "safety_level": "high",
            "name": "probiotic",
            "description": null
        },
        {
            "safety_level": null,
            "name": "protein",
            "description": null
        },
        {
            "safety_level": null,
            "name": "refined sweetener",
            "description": null
        },
        {
            "safety_level": "high",
            "name": "riboflavin",
            "description": null
        },
        {
            "safety_level": null,
            "name": "salt",
            "description": null
        },
        {
            "safety_level": null,
            "name": "salt",
            "description": null
        },
        {
            "safety_level": null,
            "name": "sea salt",
            "description": null
        },
        {
            "safety_level": "high",
            "name": "silicon dioxide",
            "description": null
        },
        {
            "safety_level": "high",
            "name": "sodium caseinate",
            "description": "Sodium caseinate is derived from milk and is therefore NOT suitable for vegans, even if it is used in so-called non-dairy products. It may also cause <a href=\"http://www.kidswithfoodallergies.org/resourcespre.php?id=37\">allergic reactions</a> in people allergic to milk, and may potentially cause problems in lactose intolerant individuals because it can contain <a href=\"http://www.fda.gov/forconsumers/consumerupdates/ucm094550.htm\">small amounts of lactose</a>."
        },
        {
            "safety_level": "medium",
            "name": "sodium phosphate",
            "description": null
        },
        {
            "safety_level": null,
            "name": "sour cream",
            "description": null
        },
        {
            "safety_level": null,
            "name": "soy flour",
            "description": null
        },
        {
            "safety_level": "high",
            "name": "soy lecithin",
            "description": "Soy lecithin is <a href=\"http://farrp.unl.edu/resources/gi-fas/opinion-and-summaries/soy-lecithin\">not a concern</a> for most people allergic to soy."
        },
        {
            "safety_level": null,
            "name": "soybean oil",
            "description": null
        },
        {
            "safety_level": null,
            "name": "stabilizer",
            "description": null
        },
        {
            "safety_level": null,
            "name": "starch",
            "description": null
        },
        {
            "safety_level": null,
            "name": "sugar",
            "description": null
        },
        {
            "safety_level": null,
            "name": "sunflower oil",
            "description": null
        },
        {
            "safety_level": null,
            "name": "supplement",
            "description": null
        },
        {
            "safety_level": null,
            "name": "sweetener",
            "description": null
        },
        {
            "safety_level": null,
            "name": "tapioca starch",
            "description": null
        },
        {
            "safety_level": null,
            "name": "thiamin",
            "description": null
        },
        {
            "safety_level": "high",
            "name": "thiamin mononitrate",
            "description": null
        },
        {
            "safety_level": null,
            "name": "thickener",
            "description": null
        },
        {
            "safety_level": null,
            "name": "vegetable oil",
            "description": null
        },
        {
            "safety_level": null,
            "name": "vitamin",
            "description": null
        },
        {
            "safety_level": null,
            "name": "wheat flour",
            "description": null
        },
        {
            "safety_level": "high",
            "name": "wheat starch",
            "description": "Wheat starch can be processed to remove enough of the gluten to make it gluten free (<a href=\"http://www.glutafin.co.uk/coeliac-students/codex-wheat-starch/\">legally speaking</a>) but it may be wise to avoid products with wheat starch unless they specifically state they are suitable for gluten free diets."
        },
        {
            "safety_level": null,
            "name": "wheat flour",
            "description": null
        },
        {
            "safety_level": "high",
            "name": "whey",
            "description": null
        },
        {
            "safety_level": "controversial",
            "name": "yeast extract",
            "description": null
        },
        {
            "safety_level": null,
            "name": "yellow lakes 5",
            "description": null
        }
    ],
    "recipeConnections": [],
    "breadcrumbs": [
        "instant potatoes flakes",
        "dried potatoes",
        "ingredient"
    ],
    "price": 1.6,
    "imageType": "jpeg",
    "nutrition": {
        "carbs": "17g",
        "nutrients": [
            {
                "amount": 0.0,
                "name": "Calcium",
                "unit": "mg",
                "percentOfDailyNeeds": 0.0
            },
            {
                "amount": 17.0,
                "name": "Carbohydrates",
                "unit": "g",
                "percentOfDailyNeeds": 5.67
            },
            {
                "amount": 0.0,
                "name": "Cholesterol",
                "unit": "mg",
                "percentOfDailyNeeds": 0.0
            },
            {
                "amount": 80.0,
                "name": "Calories",
                "unit": "kcal",
                "percentOfDailyNeeds": 4.0
            },
            {
                "amount": 1.0,
                "name": "Fat",
                "unit": "g",
                "percentOfDailyNeeds": 1.54
            },
            {
                "amount": 0.5,
                "name": "Saturated Fat",
                "unit": "g",
                "percentOfDailyNeeds": 3.13
            },
            {
                "amount": 0.5,
                "name": "Trans Fat",
                "unit": "g",
                "percentOfDailyNeeds": 5000.0
            },
            {
                "amount": 1.0,
                "name": "Fiber",
                "unit": "g",
                "percentOfDailyNeeds": 4.0
            },
            {
                "amount": 0.0,
                "name": "Iron",
                "unit": "mg",
                "percentOfDailyNeeds": 0.0
            },
            {
                "amount": 200.0,
                "name": "Potassium",
                "unit": "mg",
                "percentOfDailyNeeds": 5.71
            },
            {
                "amount": 2.0,
                "name": "Protein",
                "unit": "g",
                "percentOfDailyNeeds": 4.0
            },
            {
                "amount": 340.0,
                "name": "Sodium",
                "unit": "mg",
                "percentOfDailyNeeds": 14.78
            },
            {
                "amount": 0.0,
                "name": "Sugar",
                "unit": "g",
                "percentOfDailyNeeds": 0.0
            },
            {
                "amount": 0.0,
                "name": "Vitamin A",
                "unit": "IU",
                "percentOfDailyNeeds": 0.0
            },
            {
                "amount": 0.0,
                "name": "Vitamin C",
                "unit": "mg",
                "percentOfDailyNeeds": 0.0
            },
            {
                "amount": 16.0,
                "name": "Net Carbohydrates",
                "unit": "g",
                "percentOfDailyNeeds": 5.82
            }
        ],
        "calories": 80.0,
        "fat": "1g",
        "caloricBreakdown": {
            "percentFat": 10.59,
            "percentCarbs": 80.0,
            "percentProtein": 9.41
        },
        "protein": "2g"
    },
    "description": "100% American grown potatoes.Carbohydrate choices: 1.Try this great recipe idea, Cheesy Chorizo breakfast Casserole.Partially produced with genetic engineering.Learn more at ask.generalmills.com.100% Recycled Paperboard.how2recycle.com.For more recipe ideas or questions:Call: 1-800-754-3516. Mon.-Fri. 7:30 a.m.-5:30 p.m. CT.Visit: www.bettycrocker.com. General Mills.",
    "brand": "Betty Crocker",
    "importantBadges": [],
    "ingredientCount": 60,
    "aisle": "Pasta and Rice",
    "name": "potato flakes",
    "generatedText": null,
    "upc": "016000279216",
    "ingredientList": "Potatoes (Dried), Sea Salt, Modified Tapioca Starch, Enriched Flour (Wheat Flour, Niacin, Iron, Thiamin Mononitrate, Riboflavin, Folic Acid), Corn Starch, Maltodextrin, Sour Cream (Dried) (Cream, Skim Milk, Cultures), Modified Corn Starch, Cheddar Cheese (Dried) (Milk, Cheese Cultures, Salt, Enzymes), Onion (Dried), Dextrose, Potassium Phosphate, Partially Hydrogenated Soybean Oil, Natural and Artificial Flavor, Whey, Monosodium Glutamate, Corn Syrup (Dried), Mono and Diglycerides, Calcium Stearoyl-2-Lactylate, Garlic (Dried), Enzyme Modified Cheddar Cheese (Milk, Cheese Cultures, Salt, Enzymes), Lactic Acid, Wheat Starch, Soy Flour, Calcium Lactate, Enzyme Modified Cream, Salt, Sodium Phosphate, Silicon Dioxide (Anticaking Agent), Nonfat Milk, Yeast Extract, Sodium Caseinate, Color (Yellow Lakes 5 & 6, Artificial Color), Lactose, Blue Cheese (Dried) (Milk, Salt, Cheese Cultures, Enzymes), Citric Acid, Enzyme Modified Blue Cheese (Milk, Cheese Cultures, Salt, Enzymes), Buttermilk, Soy Lecithin. Freshness Preserved by Sodium Metabisulfite, BHT",
    "servings": {
        "number": 4.5,
        "unit": "g",
        "size": 23.0
    },
    "title": "Betty Crocker Cheesy Hash brown Potatoes, 3.7 oz Box"
}