{
    "spoonacularScore": 100.0,
    "image": "https://spoonacular.com/productImages/718017-312x231.png",
    "likes": 0,
    "images": [
        "https://spoonacular.com/productImages/718017-90x90.png",
        "https://spoonacular.com/productImages/718017-312x231.png",
        "https://spoonacular.com/productImages/718017-636x393.png"
    ],
    "id": 93,
    "badges": [
        "egg_free",
        "peanut_free",
        "sulfite_free",
        "nut_free",
        "vegan",
        "no_preservatives",
        "soy_free",
        "msg_free",
        "no_artificial_colors",
        "no_artificial_flavors",
        "sugar_free",
        "vegetarian",
        "no_artificial_ingredients",
        "no_additives",
        "corn_free",
        "dairy_free",
        "gluten_free"
    ],
    "ingredients": [
        {
            "safety_level": null,
            "name": "baking potato",
            "description": null
        },
        {
            "safety_level": null,
            "name": "salt",
            "description": null
        },
        {
            "safety_level": null,
            "name": "cooking fat",
            "description": null
        },
        {
            "safety_level": null,
            "name": "starchy potato",
            "description": null
        },
        {
            "safety_level": null,
            "name": "cooking oil",
            "description": null
        },
        {
            "safety_level": null,
            "name": "potato",
            "description": null
        },
        {
            "safety_level": null,
            "name": "mineral",
            "description": null
        },
        {
            "safety_level": null,
            "name": "vegetable oil",
            "description": null
        },
        {
            "safety_level": null,
            "name": "russet potatoes",
            "description": null
        },
        {
            "safety_level": null,
            "name": "sunflower oil",
            "description": null
        },
        {
            "safety_level": null,
            "name": "sea salt",
            "description": null
        }
    ],
    "recipeConnections": [
        18
    ],
    "breadcrumbs": [
        "russet potato",
        "baking potato",
        "potato",
        "ingredient"
    ],
    "price": 2.98,
    "imageType": "png",
    "nutrition": {
        "caloricBreakdown": {
            "percentFat": 0.0,
            "percentCarbs": 0.0,
            "percentProtein": 0.0
        },
        "nutrients": [
            {
                "amount": 0.0,
                "name": "Net Carbohydrates",
                "unit": "g",
                "percentOfDailyNeeds": 0.0
            }
        ],
        "calories": null
    },
    "description": "Carolina Kettle Russet Potato 5 ounce: This russet potatoes is spectacular for anyone who needs foods suitable for a vegan diet. We recommend choosing products with short ingredient lists, as these tend to be less processed. This product has 3 ingredients. According to our research, this product contains no ingredients that you should avoid.",
    "brand": "Carolina Kettle",
    "importantBadges": [
        "no_additives",
        "no_preservatives",
        "no_artificial_flavors",
        "no_artificial_colors",
        "no_artificial_ingredients",
        "sulfite_free"
    ],
    "ingredientCount": 3,
    "aisle": "Produce",
    "name": "potatoes",
    "generatedText": "Carolina Kettle Russet Potato 5 ounce: This russet potatoes is spectacular for anyone who needs foods suitable for a vegan diet. We recommend choosing products with short ingredient lists, as these tend to be less processed. This product has 3 ingredients. According to our research, this product contains no ingredients that you should avoid.",
    "upc": "856875006407",
    "ingredientList": "Russet Potatoes, Sunflower Oil, Sea Salt",
    "servings": {
        "number": 1.0,
        "unit": null,
        "size": null
    },
    "title": "Carolina Kettle Russet Potato 5 ounce"
}