{
    "spoonacularScore": 100.0,
    "image": "https://spoonacular.com/productImages/661025-312x231.jpeg",
    "likes": 0,
    "images": [
        "https://spoonacular.com/productImages/661025-90x90.jpeg",
        "https://spoonacular.com/productImages/661025-312x231.jpeg",
        "https://spoonacular.com/productImages/661025-636x393.jpeg"
    ],
    "id": 98,
    "badges": [
        "egg_free",
        "peanut_free",
        "sulfite_free",
        "nut_free",
        "vegan",
        "no_preservatives",
        "kosher",
        "soy_free",
        "msg_free",
        "gmo_free",
        "no_artificial_colors",
        "no_artificial_flavors",
        "sugar_free",
        "vegetarian",
        "no_artificial_ingredients",
        "no_additives",
        "corn_free",
        "dairy_free",
        "gluten_free"
    ],
    "ingredients": [
        {
            "safety_level": null,
            "name": "dried rosemary",
            "description": null
        },
        {
            "safety_level": null,
            "name": "dried herbs",
            "description": null
        },
        {
            "safety_level": null,
            "name": "herbs",
            "description": null
        },
        {
            "safety_level": null,
            "name": "rosemary",
            "description": null
        }
    ],
    "recipeConnections": [
        42,
        60
    ],
    "breadcrumbs": [
        "rosemary",
        "herbs",
        "ingredient"
    ],
    "price": 3.0,
    "imageType": "jpeg",
    "nutrition": {
        "caloricBreakdown": {
            "percentFat": 0.0,
            "percentCarbs": 0.0,
            "percentProtein": 0.0
        },
        "nutrients": [
            {
                "amount": 0.0,
                "name": "Net Carbohydrates",
                "unit": "g",
                "percentOfDailyNeeds": 0.0
            }
        ],
        "calories": null
    },
    "description": "Looking for a paleo rosemary leaf? Try: Rosemary - 16 oz.. We recommend choosing products with short ingredient lists, as these tend to be less processed. This product has 1 ingredient. According to our research, this product contains no ingredients that you should avoid.",
    "brand": "Spicejungle",
    "importantBadges": [
        "no_additives",
        "no_preservatives",
        "no_artificial_flavors",
        "no_artificial_colors",
        "no_artificial_ingredients",
        "gmo_free"
    ],
    "ingredientCount": 1,
    "aisle": "Produce",
    "name": "rosemary",
    "generatedText": "Looking for a paleo rosemary leaf? Try: Rosemary - 16 oz.. We recommend choosing products with short ingredient lists, as these tend to be less processed. This product has 1 ingredient. According to our research, this product contains no ingredients that you should avoid.",
    "upc": "842432110571",
    "ingredientList": "Dried rosemary",
    "servings": {
        "number": 1.0,
        "unit": null,
        "size": null
    },
    "title": "Rosemary"
}