{
    "spoonacularScore": 100.0,
    "image": "https://spoonacular.com/productImages/1242841-312x231.jpeg",
    "likes": 0,
    "images": [
        "https://spoonacular.com/productImages/1242841-90x90.jpeg",
        "https://spoonacular.com/productImages/1242841-312x231.jpeg",
        "https://spoonacular.com/productImages/1242841-636x393.jpeg"
    ],
    "id": 106,
    "badges": [
        "egg_free",
        "primal",
        "peanut_free",
        "sulfite_free",
        "nut_free",
        "vegan",
        "no_preservatives",
        "soy_free",
        "msg_free",
        "no_artificial_colors",
        "vegetarian",
        "sugar_free",
        "no_artificial_flavors",
        "no_artificial_ingredients",
        "no_additives",
        "corn_free",
        "gluten_free",
        "dairy_free",
        "paleo"
    ],
    "ingredients": [
        {
            "safety_level": null,
            "name": "papua new guinean vanilla beans",
            "description": null
        }
    ],
    "recipeConnections": [
        5,
        37,
        43,
        95
    ],
    "breadcrumbs": [
        "vanilla bean",
        "spices",
        "ingredient"
    ],
    "price": 15.0,
    "imageType": "jpeg",
    "nutrition": {
        "caloricBreakdown": {
            "percentFat": 0.0,
            "percentCarbs": 0.0,
            "percentProtein": 0.0
        },
        "nutrients": [
            {
                "amount": 0.0,
                "name": "Net Carbohydrates",
                "unit": "g",
                "percentOfDailyNeeds": 0.0
            }
        ],
        "calories": null
    },
    "description": "Larissa Veronica Vanilla Beans, Papua New Guinean, 8 oz, 2-Pack, Zin: 526417: This vanilla beans is awesome for anyone who needs foods suitable for a vegan diet. This product has 1 ingredient (in our experience: the fewer ingredients, the better!) According to our research, this product contains no ingredients that you should avoid.",
    "brand": "Larissa Veronica",
    "importantBadges": [
        "no_additives",
        "no_preservatives",
        "no_artificial_flavors",
        "no_artificial_colors",
        "no_artificial_ingredients",
        "sulfite_free"
    ],
    "ingredientCount": 1,
    "aisle": "Baking",
    "name": "vanilla bean",
    "generatedText": "Larissa Veronica Vanilla Beans, Papua New Guinean, 8 oz, 2-Pack, Zin: 526417: This vanilla beans is awesome for anyone who needs foods suitable for a vegan diet. This product has 1 ingredient (in our experience: the fewer ingredients, the better!) According to our research, this product contains no ingredients that you should avoid.",
    "upc": "064445264175",
    "ingredientList": "Papua New Guinean Vanilla Beans",
    "servings": {
        "number": 1.0,
        "unit": null,
        "size": null
    },
    "title": "Larissa Veronica Vanilla Beans, Papua New Guinean"
}