{
    "rating": 4.0,
    "culture": "Argentine",
    "display_phone": "(512) 382-1189",
    "id": 9,
    "is_closed": false,
    "review_count": 707,
    "coordinates": {
        "latitude": 30.26414,
        "longitude": -97.73044
    },
    "location": {
        "cross_streets": "",
        "city": "Austin",
        "display_address": [
            "1201 E 6th St",
            "Austin, TX 78702"
        ],
        "country": "US",
        "address2": "",
        "address3": "",
        "state": "TX",
        "address1": "1201 E 6th St",
        "zip_code": "78702"
    },
    "is_claimed": true,
    "recipe_connections": [
        {
            "id": "25",
            "name": "Chimichurri Skirt Steak with Grilled Asparagus"
        },
        {
            "id": "68",
            "name": "Pan Seared Lamb Loin With Chimichurri & Roasted Trio Squash Salad With Goat Cheese and Pinenuts"
        },
        {
            "id": "81",
            "name": "Shrimp Ceviche"
        }
    ],
    "description": "Rooted in our family's unique heritage & culture, our natural instinct is to share nothing but the very best food, values & traditions of Argentina. Good food can make the world a better place, which is why we are particular about the ingredients we make & sell. At Buenos Aires Caf\u00e9, we responsibly source our ingredients to ensure only the finest products are on your table. Curated with love and dedication, our wine list showcases our country's diverse regions and the beauty of our nation's most acclaimed grape: Malbec. Hand-crafted cocktails inspired by Argentina's love for bitter and sweets.",
    "transactions": [
        "delivery"
    ],
    "price": "$$",
    "hours": [
        {
            "hours_type": "REGULAR",
            "open": [
                {
                    "is_overnight": false,
                    "end": "2100",
                    "day": 0,
                    "start": "1200"
                },
                {
                    "is_overnight": false,
                    "end": "2100",
                    "day": 1,
                    "start": "1200"
                },
                {
                    "is_overnight": false,
                    "end": "2100",
                    "day": 2,
                    "start": "1200"
                },
                {
                    "is_overnight": false,
                    "end": "2200",
                    "day": 3,
                    "start": "1200"
                },
                {
                    "is_overnight": false,
                    "end": "2200",
                    "day": 4,
                    "start": "1200"
                },
                {
                    "is_overnight": false,
                    "end": "2200",
                    "day": 5,
                    "start": "1200"
                }
            ],
            "is_open_now": true
        }
    ],
    "phone": "+15123821189",
    "num_recipe_connections": 3,
    "name": "Buenos Aires Caf\u00e9 - Este",
    "photos": [
        "https://s3-media1.fl.yelpcdn.com/bphoto/xnF-QRf9nExOV_ifFx9Z8w/o.jpg",
        "https://s3-media2.fl.yelpcdn.com/bphoto/e_M6njpqFKKemBt3gQ4lew/o.jpg",
        "https://s3-media2.fl.yelpcdn.com/bphoto/c0w0UUVGa26nptV0dVOKCA/o.jpg"
    ],
    "url": "https://www.yelp.com/biz/buenos-aires-caf%C3%A9-este-austin-2?adjust_creative=CLvH_oejmW4isGEg-hCd2w&utm_campaign=yelp_api_v3&utm_medium=api_v3_business_lookup&utm_source=CLvH_oejmW4isGEg-hCd2w",
    "reviews": [
        {
            "rating": 4,
            "url": "https://www.yelp.com/biz/buenos-aires-caf%C3%A9-este-austin-2?adjust_creative=CLvH_oejmW4isGEg-hCd2w&hrid=0t1FdUeZMYL3jR2JcuGE8g&utm_campaign=yelp_api_v3&utm_medium=api_v3_business_reviews&utm_source=CLvH_oejmW4isGEg-hCd2w",
            "text": "Staff was wonderful! Food was delicious! The dessert was decadent!\n\nWe started off with some sangrias that were pretty standard and yummy. Next we did the...",
            "time_created": "2022-03-14 19:01:48",
            "user": {
                "image_url": "https://s3-media3.fl.yelpcdn.com/photo/Sosgk10C6_wPeeZjUcL_Jw/o.jpg",
                "id": "MF2UR6HSLKZtLJgPVrQSvg",
                "profile_url": "https://www.yelp.com/user_details?userid=MF2UR6HSLKZtLJgPVrQSvg",
                "name": "Desiree A."
            },
            "id": "0t1FdUeZMYL3jR2JcuGE8g"
        },
        {
            "rating": 5,
            "url": "https://www.yelp.com/biz/buenos-aires-caf%C3%A9-este-austin-2?adjust_creative=CLvH_oejmW4isGEg-hCd2w&hrid=blA1lf_ukdWUCwee4B6GHQ&utm_campaign=yelp_api_v3&utm_medium=api_v3_business_reviews&utm_source=CLvH_oejmW4isGEg-hCd2w",
            "text": "Absolutely love this place, I've never had a bad meal here.\n \nEmpanadas:\n\nPollo - 4/5\nVerdura - 5/5\nCebolla & Queso - 5/5\n\nAppetizers: \n\nCrudo - 5/5\n\nA La...",
            "time_created": "2022-03-04 14:34:32",
            "user": {
                "image_url": "https://s3-media3.fl.yelpcdn.com/photo/9H-qBqN2F3nwaVmBGqy7Xg/o.jpg",
                "id": "-6txC5Nm8Vvfoew1WpUsAg",
                "profile_url": "https://www.yelp.com/user_details?userid=-6txC5Nm8Vvfoew1WpUsAg",
                "name": "Kolby G."
            },
            "id": "blA1lf_ukdWUCwee4B6GHQ"
        },
        {
            "rating": 4,
            "url": "https://www.yelp.com/biz/buenos-aires-caf%C3%A9-este-austin-2?adjust_creative=CLvH_oejmW4isGEg-hCd2w&hrid=ssreqIzsy4BnQ1mWzwYm6g&utm_campaign=yelp_api_v3&utm_medium=api_v3_business_reviews&utm_source=CLvH_oejmW4isGEg-hCd2w",
            "text": "Friendly place, good food, nice atmosphere...\nAs you might guess, it's an Argentinian joint, and one that delivers at that.\nGreat empanadas, equally good...",
            "time_created": "2022-01-14 11:09:14",
            "user": {
                "image_url": "https://s3-media1.fl.yelpcdn.com/photo/nrZp0d7fqabFyRoqRhz9Vw/o.jpg",
                "id": "68R6fxL2MQMXeyP030qdvg",
                "profile_url": "https://www.yelp.com/user_details?userid=68R6fxL2MQMXeyP030qdvg",
                "name": "Mahesh P."
            },
            "id": "ssreqIzsy4BnQ1mWzwYm6g"
        }
    ],
    "alias": "buenos-aires-caf\u00e9-este-austin-2",
    "image_url": "https://s3-media1.fl.yelpcdn.com/bphoto/xnF-QRf9nExOV_ifFx9Z8w/o.jpg"
}