{
    "is_claimed": true,
    "rating": 4.5,
    "recipe_connections": [
        {
            "id": "9",
            "name": "Bulgogi"
        },
        {
            "id": "15",
            "name": "Chapchae"
        },
        {
            "id": "35",
            "name": "Dolsot Bibimbap"
        },
        {
            "id": "57",
            "name": "Kimbap"
        },
        {
            "id": "58",
            "name": "Korean Honey Citron Tea Cheesecake"
        }
    ],
    "review_count": 136,
    "name": "Jjim Korean Braised BBQ",
    "phone": "+17372024475",
    "url": "https://www.yelp.com/biz/jjim-korean-braised-bbq-austin?adjust_creative=CLvH_oejmW4isGEg-hCd2w&utm_campaign=yelp_api_v3&utm_medium=api_v3_business_lookup&utm_source=CLvH_oejmW4isGEg-hCd2w",
    "photos": [
        "https://s3-media2.fl.yelpcdn.com/bphoto/r0UlANTciEJ3yVUsnk_4mg/o.jpg",
        "https://s3-media2.fl.yelpcdn.com/bphoto/eeRPhCUnWGAYzcjXFhh1wA/o.jpg",
        "https://s3-media3.fl.yelpcdn.com/bphoto/SdQ9RMSg16irwMRD6Bfacg/o.jpg"
    ],
    "transactions": [
        "pickup",
        "delivery"
    ],
    "reviews": [
        {
            "rating": 5,
            "url": "https://www.yelp.com/biz/jjim-korean-braised-bbq-austin?adjust_creative=CLvH_oejmW4isGEg-hCd2w&hrid=5B7iliLNhFlfF4cVsG7Plg&utm_campaign=yelp_api_v3&utm_medium=api_v3_business_reviews&utm_source=CLvH_oejmW4isGEg-hCd2w",
            "text": "Excellency! I visited this restaurant last week with my friends and family this week and was deeply impressed by all the foods and service provided. For...",
            "time_created": "2022-02-19 11:31:40",
            "user": {
                "image_url": null,
                "id": "o8R3bsOpz5QaTuaAztTUTg",
                "profile_url": "https://www.yelp.com/user_details?userid=o8R3bsOpz5QaTuaAztTUTg",
                "name": "Andy M."
            },
            "id": "5B7iliLNhFlfF4cVsG7Plg"
        },
        {
            "rating": 5,
            "url": "https://www.yelp.com/biz/jjim-korean-braised-bbq-austin?adjust_creative=CLvH_oejmW4isGEg-hCd2w&hrid=o2H5jR0sOqOtlOHYPSvghQ&utm_campaign=yelp_api_v3&utm_medium=api_v3_business_reviews&utm_source=CLvH_oejmW4isGEg-hCd2w",
            "text": "Y'ALL! This place is GOOD!\n\nEverything we ordered was delicious, the drink was refreshing, and the art and ambiance are on point.\n\nLet's get into it- we...",
            "time_created": "2022-03-05 17:24:59",
            "user": {
                "image_url": "https://s3-media3.fl.yelpcdn.com/photo/puL1KZHauKTlkzgWYGOeCg/o.jpg",
                "id": "VBhLx8X1MlHtBm77n5BJsA",
                "profile_url": "https://www.yelp.com/user_details?userid=VBhLx8X1MlHtBm77n5BJsA",
                "name": "Kimi F."
            },
            "id": "o2H5jR0sOqOtlOHYPSvghQ"
        },
        {
            "rating": 4,
            "url": "https://www.yelp.com/biz/jjim-korean-braised-bbq-austin?adjust_creative=CLvH_oejmW4isGEg-hCd2w&hrid=AEmEwP5WQvhRiglFQPX28A&utm_campaign=yelp_api_v3&utm_medium=api_v3_business_reviews&utm_source=CLvH_oejmW4isGEg-hCd2w",
            "text": "i came here with my friend kimmie and you first order and pay at the register then get seated. we were served immediately and there was little to no...",
            "time_created": "2022-02-22 19:27:16",
            "user": {
                "image_url": "https://s3-media2.fl.yelpcdn.com/photo/-xK_Ofm90JQBa-ACPYb3tw/o.jpg",
                "id": "2ZsZKJqOblWxFktlbzhvDQ",
                "profile_url": "https://www.yelp.com/user_details?userid=2ZsZKJqOblWxFktlbzhvDQ",
                "name": "Lucy H."
            },
            "id": "AEmEwP5WQvhRiglFQPX28A"
        }
    ],
    "coordinates": {
        "latitude": 30.25576,
        "longitude": -97.76252
    },
    "hours": [
        {
            "hours_type": "REGULAR",
            "open": [
                {
                    "is_overnight": false,
                    "end": "1500",
                    "day": 1,
                    "start": "1200"
                },
                {
                    "is_overnight": false,
                    "end": "2100",
                    "day": 1,
                    "start": "1700"
                },
                {
                    "is_overnight": false,
                    "end": "1500",
                    "day": 2,
                    "start": "1200"
                },
                {
                    "is_overnight": false,
                    "end": "2100",
                    "day": 2,
                    "start": "1700"
                },
                {
                    "is_overnight": false,
                    "end": "1500",
                    "day": 3,
                    "start": "1200"
                },
                {
                    "is_overnight": false,
                    "end": "2100",
                    "day": 3,
                    "start": "1700"
                },
                {
                    "is_overnight": false,
                    "end": "1500",
                    "day": 4,
                    "start": "1200"
                },
                {
                    "is_overnight": false,
                    "end": "2200",
                    "day": 4,
                    "start": "1700"
                },
                {
                    "is_overnight": false,
                    "end": "1500",
                    "day": 5,
                    "start": "1200"
                },
                {
                    "is_overnight": false,
                    "end": "2200",
                    "day": 5,
                    "start": "1700"
                },
                {
                    "is_overnight": false,
                    "end": "1500",
                    "day": 6,
                    "start": "1200"
                },
                {
                    "is_overnight": false,
                    "end": "2100",
                    "day": 6,
                    "start": "1700"
                }
            ],
            "is_open_now": true
        }
    ],
    "alias": "jjim-korean-braised-bbq-austin",
    "image_url": "https://s3-media2.fl.yelpcdn.com/bphoto/r0UlANTciEJ3yVUsnk_4mg/o.jpg",
    "location": {
        "cross_streets": "",
        "city": "Austin",
        "display_address": [
            "1100 S Lamar Blvd",
            "Ste 2140",
            "Austin, TX 78704"
        ],
        "country": "US",
        "address2": "Ste 2140",
        "address3": "",
        "state": "TX",
        "address1": "1100 S Lamar Blvd",
        "zip_code": "78704"
    },
    "display_phone": "(737) 202-4475",
    "num_recipe_connections": 5,
    "culture": "Korean",
    "id": 18,
    "is_closed": false,
    "description": "Austin's exclusive Korean Barbecue Restaurant specializing in JJIM (braised barbecue) and soondooboo jigae (soft tofu soup). Enjoy this amazing cuisine in the comfort of a fun and lively atmosphere in a beautifully designed building. This quick/full service hybrid restaurant is a no-tipping restaurant suited for both the casual and date focused diners!"
}