{
    "is_claimed": true,
    "rating": 4.0,
    "recipe_connections": [
        {
            "id": "1",
            "name": "African Chicken Peanut Stew"
        },
        {
            "id": "2",
            "name": "African Kale & Yam Soup"
        },
        {
            "id": "54",
            "name": "Jollof Rice"
        }
    ],
    "review_count": 15,
    "name": "Lady T Kitchen African Restaurant",
    "phone": "+15127125716",
    "url": "https://www.yelp.com/biz/lady-t-kitchen-african-restaurant-pflugerville?adjust_creative=CLvH_oejmW4isGEg-hCd2w&utm_campaign=yelp_api_v3&utm_medium=api_v3_business_lookup&utm_source=CLvH_oejmW4isGEg-hCd2w",
    "photos": [
        "https://s3-media4.fl.yelpcdn.com/bphoto/0bOOKGj0uBOEndJhqqzSlQ/o.jpg",
        "https://s3-media2.fl.yelpcdn.com/bphoto/SFV2uhCyqvTQETbgUh5KMA/o.jpg",
        "https://s3-media2.fl.yelpcdn.com/bphoto/TkKVQlu8D6EHm2SJrFsMmQ/o.jpg"
    ],
    "transactions": [
        "pickup",
        "delivery"
    ],
    "reviews": [
        {
            "rating": 5,
            "url": "https://www.yelp.com/biz/lady-t-kitchen-african-restaurant-pflugerville?adjust_creative=CLvH_oejmW4isGEg-hCd2w&hrid=lj3o8Qc4mFL5nfJZ9e72Eg&utm_campaign=yelp_api_v3&utm_medium=api_v3_business_reviews&utm_source=CLvH_oejmW4isGEg-hCd2w",
            "text": "I recently heard of fufu and immediately searched online for \"fufu near me\". I landed on Lady T and I knew this would be the place! \n\nI phoned in an order...",
            "time_created": "2022-01-09 14:20:46",
            "user": {
                "image_url": "https://s3-media3.fl.yelpcdn.com/photo/jHF_AG-WdW_qBDxBXLjWQQ/o.jpg",
                "id": "qf9dI_UfA83Bltuw8fvsUg",
                "profile_url": "https://www.yelp.com/user_details?userid=qf9dI_UfA83Bltuw8fvsUg",
                "name": "Anjoli F."
            },
            "id": "lj3o8Qc4mFL5nfJZ9e72Eg"
        },
        {
            "rating": 1,
            "url": "https://www.yelp.com/biz/lady-t-kitchen-african-restaurant-pflugerville?adjust_creative=CLvH_oejmW4isGEg-hCd2w&hrid=R7PzY6fCWDC3Lh4u_Z9csg&utm_campaign=yelp_api_v3&utm_medium=api_v3_business_reviews&utm_source=CLvH_oejmW4isGEg-hCd2w",
            "text": "So as I pull up to the establishment I noticed these white cars coned off in front of the entry doors... I said to my wife , they better not be the owners...",
            "time_created": "2022-03-13 14:08:00",
            "user": {
                "image_url": "https://s3-media3.fl.yelpcdn.com/photo/2dNS5T1Jz_v9KkrktU7cPA/o.jpg",
                "id": "wFKSn2O2iVvJwBVhrSUFng",
                "profile_url": "https://www.yelp.com/user_details?userid=wFKSn2O2iVvJwBVhrSUFng",
                "name": "James M."
            },
            "id": "R7PzY6fCWDC3Lh4u_Z9csg"
        },
        {
            "rating": 5,
            "url": "https://www.yelp.com/biz/lady-t-kitchen-african-restaurant-pflugerville?adjust_creative=CLvH_oejmW4isGEg-hCd2w&hrid=TqVdpaL7aQKujx439-TT2A&utm_campaign=yelp_api_v3&utm_medium=api_v3_business_reviews&utm_source=CLvH_oejmW4isGEg-hCd2w",
            "text": "Food is delicious! Highly recommend to anyone. I Will most definitely return.  \nAnother plus is the owners were very kind and welcoming! So glad I found...",
            "time_created": "2022-03-15 14:45:30",
            "user": {
                "image_url": "https://s3-media2.fl.yelpcdn.com/photo/oN1WmF1DVXh9BGHgQ6KISA/o.jpg",
                "id": "3ryJwusxwbS0lldus97nXQ",
                "profile_url": "https://www.yelp.com/user_details?userid=3ryJwusxwbS0lldus97nXQ",
                "name": "Taylor R."
            },
            "id": "TqVdpaL7aQKujx439-TT2A"
        }
    ],
    "coordinates": {
        "latitude": 30.44583,
        "longitude": -97.65143
    },
    "hours": [
        {
            "hours_type": "REGULAR",
            "open": [
                {
                    "is_overnight": false,
                    "end": "2100",
                    "day": 0,
                    "start": "1100"
                },
                {
                    "is_overnight": false,
                    "end": "2100",
                    "day": 1,
                    "start": "1100"
                },
                {
                    "is_overnight": false,
                    "end": "2100",
                    "day": 2,
                    "start": "1100"
                },
                {
                    "is_overnight": false,
                    "end": "2100",
                    "day": 3,
                    "start": "1100"
                },
                {
                    "is_overnight": false,
                    "end": "2100",
                    "day": 4,
                    "start": "1100"
                },
                {
                    "is_overnight": false,
                    "end": "2100",
                    "day": 5,
                    "start": "1100"
                }
            ],
            "is_open_now": false
        }
    ],
    "alias": "lady-t-kitchen-african-restaurant-pflugerville",
    "image_url": "https://s3-media4.fl.yelpcdn.com/bphoto/0bOOKGj0uBOEndJhqqzSlQ/o.jpg",
    "location": {
        "cross_streets": "",
        "city": "Pflugerville",
        "display_address": [
            "15608 Spring Hill Ln",
            "Ste 102",
            "Pflugerville, TX 78660"
        ],
        "country": "US",
        "address2": "Ste 102",
        "address3": "",
        "state": "TX",
        "address1": "15608 Spring Hill Ln",
        "zip_code": "78660"
    },
    "display_phone": "(512) 712-5716",
    "num_recipe_connections": 3,
    "culture": "Nigerian",
    "id": 22,
    "is_closed": false,
    "description": "At Lady T. Kitchen we offer authentic Nigerian dishes in a relaxed and cool environment. The food is unequivocally African, you also have the choice of spicy or non spicy food. We are very proud to have been Best Nigerian Restaurant in Austin Texas."
}