{
    "rating": 4.5,
    "culture": "Belgian",
    "display_phone": "(512) 861-5044",
    "id": 24,
    "is_closed": false,
    "review_count": 104,
    "coordinates": {
        "latitude": 30.265719,
        "longitude": -97.7439904
    },
    "location": {
        "cross_streets": "",
        "city": "Austin",
        "display_address": [
            "308 Congress Ave",
            "Austin, TX 78701"
        ],
        "country": "US",
        "address2": "",
        "address3": null,
        "state": "TX",
        "address1": "308 Congress Ave",
        "zip_code": "78701"
    },
    "is_claimed": true,
    "recipe_connections": [
        {
            "id": "29",
            "name": "Corned Beef and Cabbage"
        },
        {
            "id": "30",
            "name": "Corned Beef And Cabbage With Irish Mustard Sauce"
        },
        {
            "id": "48",
            "name": "Guinness Braised Corned Beef and Cabbage"
        }
    ],
    "description": "24 Drafts, 90 Bottle types and Wines from around the world. Also beer & wine to-go! Come and enjoy the friendly atmosphere at Mort Subite Belgian Beer Bar in Austin, with European vibes in our Belgian pub, or sip on a drink from the patio. Our knowledgeable staff will walk you through the great options on tap and bottled beers available. We sell beer to go!",
    "transactions": [],
    "price": "$$",
    "hours": [
        {
            "hours_type": "REGULAR",
            "open": [
                {
                    "is_overnight": false,
                    "end": "2200",
                    "day": 0,
                    "start": "1500"
                },
                {
                    "is_overnight": false,
                    "end": "2200",
                    "day": 1,
                    "start": "1500"
                },
                {
                    "is_overnight": false,
                    "end": "2200",
                    "day": 2,
                    "start": "1500"
                },
                {
                    "is_overnight": false,
                    "end": "2200",
                    "day": 3,
                    "start": "1500"
                },
                {
                    "is_overnight": false,
                    "end": "2300",
                    "day": 4,
                    "start": "1300"
                },
                {
                    "is_overnight": false,
                    "end": "2300",
                    "day": 5,
                    "start": "1300"
                },
                {
                    "is_overnight": false,
                    "end": "1900",
                    "day": 6,
                    "start": "1300"
                }
            ],
            "is_open_now": true
        }
    ],
    "phone": "+15128615044",
    "num_recipe_connections": 3,
    "name": "Mort Subite",
    "photos": [
        "https://s3-media1.fl.yelpcdn.com/bphoto/tsQniQNdq8hxKgW4ipeYDA/o.jpg",
        "https://s3-media1.fl.yelpcdn.com/bphoto/mxZl8pmNZgveOYdZ-U2xOA/o.jpg",
        "https://s3-media3.fl.yelpcdn.com/bphoto/vPZ1eSylmmzC0RqB5opKhA/o.jpg"
    ],
    "url": "https://www.yelp.com/biz/mort-subite-austin?adjust_creative=CLvH_oejmW4isGEg-hCd2w&utm_campaign=yelp_api_v3&utm_medium=api_v3_business_lookup&utm_source=CLvH_oejmW4isGEg-hCd2w",
    "reviews": [
        {
            "rating": 5,
            "url": "https://www.yelp.com/biz/mort-subite-austin?adjust_creative=CLvH_oejmW4isGEg-hCd2w&hrid=1j3K7u4GbM5HSawVGdtyQw&utm_campaign=yelp_api_v3&utm_medium=api_v3_business_reviews&utm_source=CLvH_oejmW4isGEg-hCd2w",
            "text": "Tried two beers and settled with Tripel Karmeliet. Delicious. Sat outside. Cool vibe. 11/10 recommend.",
            "time_created": "2021-11-14 16:53:14",
            "user": {
                "image_url": "https://s3-media1.fl.yelpcdn.com/photo/7IhCfGUbYqvyZxO89DBfdA/o.jpg",
                "id": "h3gvu33m72hWHiwO8etfrw",
                "profile_url": "https://www.yelp.com/user_details?userid=h3gvu33m72hWHiwO8etfrw",
                "name": "Vanessa D."
            },
            "id": "1j3K7u4GbM5HSawVGdtyQw"
        },
        {
            "rating": 4,
            "url": "https://www.yelp.com/biz/mort-subite-austin?adjust_creative=CLvH_oejmW4isGEg-hCd2w&hrid=GbHTnqCF15oCNRDGvLJdqQ&utm_campaign=yelp_api_v3&utm_medium=api_v3_business_reviews&utm_source=CLvH_oejmW4isGEg-hCd2w",
            "text": "Found this place walking around Austin.  Great little find.  \nThe bar focuses on Belgian beers, and has an extensive selection.  Bartenders are friendly and...",
            "time_created": "2022-03-13 10:53:39",
            "user": {
                "image_url": "https://s3-media4.fl.yelpcdn.com/photo/XW0SGI6On454Ra-g-n9u9w/o.jpg",
                "id": "FZ3gJDMgqXGnFPxnNnf9ig",
                "profile_url": "https://www.yelp.com/user_details?userid=FZ3gJDMgqXGnFPxnNnf9ig",
                "name": "Cheryl K."
            },
            "id": "GbHTnqCF15oCNRDGvLJdqQ"
        },
        {
            "rating": 4,
            "url": "https://www.yelp.com/biz/mort-subite-austin?adjust_creative=CLvH_oejmW4isGEg-hCd2w&hrid=L1xciMZWhu3QSC8dpavQFQ&utm_campaign=yelp_api_v3&utm_medium=api_v3_business_reviews&utm_source=CLvH_oejmW4isGEg-hCd2w",
            "text": "Quite the find in Austin for just walking by and thinking of a beer.  Great stop and a super-gal bartender who was really knowledgeable of the beers.  Great...",
            "time_created": "2021-10-19 19:09:43",
            "user": {
                "image_url": "https://s3-media2.fl.yelpcdn.com/photo/n-L_2ySxHeE0GZs6r7E_gw/o.jpg",
                "id": "MxR8C0RvRhP08oRCK-8jSQ",
                "profile_url": "https://www.yelp.com/user_details?userid=MxR8C0RvRhP08oRCK-8jSQ",
                "name": "John F."
            },
            "id": "L1xciMZWhu3QSC8dpavQFQ"
        }
    ],
    "alias": "mort-subite-austin",
    "image_url": "https://s3-media1.fl.yelpcdn.com/bphoto/tsQniQNdq8hxKgW4ipeYDA/o.jpg"
}