{
    "rating": 5.0,
    "culture": "Dutch",
    "display_phone": "(512) 400-8906",
    "id": 33,
    "is_closed": false,
    "review_count": 18,
    "coordinates": {
        "latitude": 30.3032346,
        "longitude": -97.69894819999999
    },
    "location": {
        "cross_streets": "",
        "city": "Austin",
        "display_address": [
            "1801 E 51st St",
            "Ste 365-108",
            "Austin, TX 78723"
        ],
        "country": "US",
        "address2": "Ste 365-108",
        "address3": "",
        "state": "TX",
        "address1": "1801 E 51st St",
        "zip_code": "78723"
    },
    "is_claimed": true,
    "recipe_connections": [
        {
            "id": "29",
            "name": "Corned Beef and Cabbage"
        },
        {
            "id": "30",
            "name": "Corned Beef And Cabbage With Irish Mustard Sauce"
        },
        {
            "id": "48",
            "name": "Guinness Braised Corned Beef and Cabbage"
        }
    ],
    "description": "Get your Dutch Stroopwafel fix with us and be the closest to Holland you might ever get, without the jetlag. Enjoy the mouth watering experience of this non-classic classic Dutch tradition: The Stroopwafel!",
    "transactions": [],
    "price": "$$",
    "hours": [
        {
            "hours_type": "REGULAR",
            "open": [
                {
                    "is_overnight": false,
                    "end": "1600",
                    "day": 1,
                    "start": "0900"
                },
                {
                    "is_overnight": false,
                    "end": "1600",
                    "day": 2,
                    "start": "0900"
                },
                {
                    "is_overnight": false,
                    "end": "1600",
                    "day": 3,
                    "start": "0900"
                },
                {
                    "is_overnight": false,
                    "end": "1600",
                    "day": 4,
                    "start": "0900"
                },
                {
                    "is_overnight": false,
                    "end": "1600",
                    "day": 5,
                    "start": "0900"
                }
            ],
            "is_open_now": true
        }
    ],
    "phone": "+15124008906",
    "categories": [
        {
            "alias": "bakeries",
            "title": "Bakeries"
        }
    ],
    "num_recipe_connections": 3,
    "name": "The Stroop Club",
    "photos": [
        "https://s3-media2.fl.yelpcdn.com/bphoto/yCOXP1gAj3XZz5Cgic7Chw/o.jpg",
        "https://s3-media1.fl.yelpcdn.com/bphoto/1nxLli1f1zy26gBOPzvhvQ/o.jpg",
        "https://s3-media3.fl.yelpcdn.com/bphoto/xH5MtnZSpOIemPxmLAs_sQ/o.jpg"
    ],
    "url": "https://www.yelp.com/biz/the-stroop-club-austin-3?adjust_creative=CLvH_oejmW4isGEg-hCd2w&utm_campaign=yelp_api_v3&utm_medium=api_v3_business_lookup&utm_source=CLvH_oejmW4isGEg-hCd2w",
    "reviews": [
        {
            "rating": 5,
            "url": "https://www.yelp.com/biz/the-stroop-club-austin-3?adjust_creative=CLvH_oejmW4isGEg-hCd2w&hrid=1IDqX7vC4RmbsH14e2idtQ&utm_campaign=yelp_api_v3&utm_medium=api_v3_business_reviews&utm_source=CLvH_oejmW4isGEg-hCd2w",
            "text": "We recently had them come into our office as a fun little perk for the day and make fresh stroopwafels for our employees.\n\nWhat a fun treat! I need to track...",
            "time_created": "2019-04-29 10:34:58",
            "user": {
                "image_url": "https://s3-media2.fl.yelpcdn.com/photo/CGIcTqUN6OmUsfUKP6kA7w/o.jpg",
                "id": "YV2vDqhUKEiqQ2Nka5kv_w",
                "profile_url": "https://www.yelp.com/user_details?userid=YV2vDqhUKEiqQ2Nka5kv_w",
                "name": "Ashley B."
            },
            "id": "1IDqX7vC4RmbsH14e2idtQ"
        },
        {
            "rating": 5,
            "url": "https://www.yelp.com/biz/the-stroop-club-austin-3?adjust_creative=CLvH_oejmW4isGEg-hCd2w&hrid=65h1qm8gCyjPcmBg6VM0NQ&utm_campaign=yelp_api_v3&utm_medium=api_v3_business_reviews&utm_source=CLvH_oejmW4isGEg-hCd2w",
            "text": "We've had these waffles before and I thought they were delicious. I was excited to see that they are made and sold in Austin! I reached out to see if I...",
            "time_created": "2020-10-20 07:31:34",
            "user": {
                "image_url": "https://s3-media1.fl.yelpcdn.com/photo/F1l57y0UrZ1Em8coC2Vrww/o.jpg",
                "id": "quU3HXtbZzAy9IKOVrJBHA",
                "profile_url": "https://www.yelp.com/user_details?userid=quU3HXtbZzAy9IKOVrJBHA",
                "name": "Jessica P."
            },
            "id": "65h1qm8gCyjPcmBg6VM0NQ"
        },
        {
            "rating": 5,
            "url": "https://www.yelp.com/biz/the-stroop-club-austin-3?adjust_creative=CLvH_oejmW4isGEg-hCd2w&hrid=cfsAEmsonADYB2QLqi1Fzg&utm_campaign=yelp_api_v3&utm_medium=api_v3_business_reviews&utm_source=CLvH_oejmW4isGEg-hCd2w",
            "text": "I went to find this place at the farmers' market and it was no longer there apparently. Updating so others don't have to wander around begging for stroop...",
            "time_created": "2019-07-14 11:43:30",
            "user": {
                "image_url": "https://s3-media3.fl.yelpcdn.com/photo/VZiXqCvefvudB5nfBmko-g/o.jpg",
                "id": "jhZa2wBOYPOhQ1MboqZscQ",
                "profile_url": "https://www.yelp.com/user_details?userid=jhZa2wBOYPOhQ1MboqZscQ",
                "name": "Michael F."
            },
            "id": "cfsAEmsonADYB2QLqi1Fzg"
        }
    ],
    "alias": "the-stroop-club-austin-3",
    "image_url": "https://s3-media2.fl.yelpcdn.com/bphoto/yCOXP1gAj3XZz5Cgic7Chw/o.jpg",
    "messaging": {
        "url": "https://www.yelp.com/raq/5TzLR8NbJx5aImxzZUD74g?adjust_creative=CLvH_oejmW4isGEg-hCd2w&utm_campaign=yelp_api_v3&utm_medium=api_v3_business_lookup&utm_source=CLvH_oejmW4isGEg-hCd2w#popup%3Araq",
        "use_case_text": "Message the Business"
    }
}