{
    "rating": 5.0,
    "culture": "Greek",
    "display_phone": "(832) 328-5494",
    "id": 77,
    "is_closed": false,
    "review_count": 317,
    "coordinates": {
        "latitude": 29.87978584962278,
        "longitude": -95.61306612933065
    },
    "location": {
        "cross_streets": "",
        "city": "Houston",
        "display_address": [
            "13250 Fm 529",
            "Ste A",
            "Houston, TX 77041"
        ],
        "country": "US",
        "address2": "Ste A",
        "address3": null,
        "state": "TX",
        "address1": "13250 Fm 529",
        "zip_code": "77041"
    },
    "is_claimed": true,
    "recipe_connections": [
        {
            "id": "46",
            "name": "Greek Chicken Kebabs"
        },
        {
            "id": "62",
            "name": "Lemon Feta Greek Yogurt Dip"
        },
        {
            "id": "100",
            "name": "White Chocolate Raspberry Brie Cups"
        }
    ],
    "description": "We are so excited to finally open, even in our modified capacity, and are able to serve you. We are adding new items to our To Go/Delivery menu regularly, please check back often for your favorites to be added. We look forward to welcoming you to dine in with our full menu, hopefully sooner rather than later. We are very grateful to be a part of such a welcoming community.",
    "transactions": [],
    "price": "$$",
    "hours": [
        {
            "hours_type": "REGULAR",
            "open": [
                {
                    "is_overnight": false,
                    "end": "2100",
                    "day": 0,
                    "start": "1100"
                },
                {
                    "is_overnight": false,
                    "end": "2100",
                    "day": 1,
                    "start": "1100"
                },
                {
                    "is_overnight": false,
                    "end": "2100",
                    "day": 2,
                    "start": "1100"
                },
                {
                    "is_overnight": false,
                    "end": "2100",
                    "day": 3,
                    "start": "1100"
                },
                {
                    "is_overnight": false,
                    "end": "2100",
                    "day": 4,
                    "start": "1100"
                },
                {
                    "is_overnight": false,
                    "end": "2100",
                    "day": 5,
                    "start": "1100"
                },
                {
                    "is_overnight": false,
                    "end": "2000",
                    "day": 6,
                    "start": "1100"
                }
            ],
            "is_open_now": false
        }
    ],
    "phone": "+18323285494",
    "num_recipe_connections": 3,
    "name": "Athena\u2019s Greek Kitchen",
    "photos": [
        "https://s3-media4.fl.yelpcdn.com/bphoto/H0TZCAwDc41UVmakDIY93g/o.jpg",
        "https://s3-media3.fl.yelpcdn.com/bphoto/1VPRrwFITZUMQDfVfZQIWA/o.jpg",
        "https://s3-media1.fl.yelpcdn.com/bphoto/zsBgTucaKb8rAHbyCCqrIg/o.jpg"
    ],
    "url": "https://www.yelp.com/biz/athena-s-greek-kitchen-houston?adjust_creative=CLvH_oejmW4isGEg-hCd2w&utm_campaign=yelp_api_v3&utm_medium=api_v3_business_lookup&utm_source=CLvH_oejmW4isGEg-hCd2w",
    "reviews": [
        {
            "rating": 5,
            "url": "https://www.yelp.com/biz/athena-s-greek-kitchen-houston?adjust_creative=CLvH_oejmW4isGEg-hCd2w&hrid=y8N17iiN0fTfccYTq9FORQ&utm_campaign=yelp_api_v3&utm_medium=api_v3_business_reviews&utm_source=CLvH_oejmW4isGEg-hCd2w",
            "text": "We've dined at Athena's several times now and we're never disappointed.  We've tried maybe half the menu items and plan to try them all eventually.  It's...",
            "time_created": "2022-01-29 17:02:16",
            "user": {
                "image_url": "https://s3-media1.fl.yelpcdn.com/photo/ZX3lxBzYzHbQDKrdaj3ECQ/o.jpg",
                "id": "3nzvAuAMeifucUoMW02jOw",
                "profile_url": "https://www.yelp.com/user_details?userid=3nzvAuAMeifucUoMW02jOw",
                "name": "Brandon C."
            },
            "id": "y8N17iiN0fTfccYTq9FORQ"
        },
        {
            "rating": 5,
            "url": "https://www.yelp.com/biz/athena-s-greek-kitchen-houston?adjust_creative=CLvH_oejmW4isGEg-hCd2w&hrid=ueS-hRCualVeJkYDjE1A5A&utm_campaign=yelp_api_v3&utm_medium=api_v3_business_reviews&utm_source=CLvH_oejmW4isGEg-hCd2w",
            "text": "We love Athena's. Maria and her staff are wonderful. The food, service, and ambience are fabulous. We had a large group that was taken care of like family....",
            "time_created": "2022-02-25 19:56:44",
            "user": {
                "image_url": null,
                "id": "707wKraaETc27lEIcwvETQ",
                "profile_url": "https://www.yelp.com/user_details?userid=707wKraaETc27lEIcwvETQ",
                "name": "Thomas S."
            },
            "id": "ueS-hRCualVeJkYDjE1A5A"
        },
        {
            "rating": 5,
            "url": "https://www.yelp.com/biz/athena-s-greek-kitchen-houston?adjust_creative=CLvH_oejmW4isGEg-hCd2w&hrid=R41H5BvmGEPz45_xMv35Tw&utm_campaign=yelp_api_v3&utm_medium=api_v3_business_reviews&utm_source=CLvH_oejmW4isGEg-hCd2w",
            "text": "I rarely post comments but the food was so good I just had to. Every bite busts with authentic flavor. Arguably the best Greek food in town!!!",
            "time_created": "2022-02-19 06:17:21",
            "user": {
                "image_url": "https://s3-media1.fl.yelpcdn.com/photo/UM8yRtiHYQE6o7glCy99yQ/o.jpg",
                "id": "fumN3HqWfBFmPRk3ydehxg",
                "profile_url": "https://www.yelp.com/user_details?userid=fumN3HqWfBFmPRk3ydehxg",
                "name": "Eric J."
            },
            "id": "R41H5BvmGEPz45_xMv35Tw"
        }
    ],
    "alias": "athena-s-greek-kitchen-houston",
    "image_url": "https://s3-media4.fl.yelpcdn.com/bphoto/H0TZCAwDc41UVmakDIY93g/o.jpg",
    "messaging": {
        "url": "https://www.yelp.com/raq/xTrGnggZYu0ia41G6SmUwA?adjust_creative=CLvH_oejmW4isGEg-hCd2w&utm_campaign=yelp_api_v3&utm_medium=api_v3_business_lookup&utm_source=CLvH_oejmW4isGEg-hCd2w#popup%3Araq",
        "use_case_text": "Message the Business"
    }
}