{
    "rating": 5.0,
    "culture": "Italian",
    "display_phone": "(713) 528-1329",
    "id": 83,
    "is_closed": false,
    "review_count": 292,
    "coordinates": {
        "latitude": 29.73823,
        "longitude": -95.41208
    },
    "location": {
        "cross_streets": "",
        "city": "Houston",
        "display_address": [
            "2129 W Alabama St",
            "Houston, TX 77098"
        ],
        "country": "US",
        "address2": "",
        "address3": "",
        "state": "TX",
        "address1": "2129 W Alabama St",
        "zip_code": "77098"
    },
    "is_claimed": true,
    "recipe_connections": [
        {
            "id": "21",
            "name": "Chicken Farfalle with Low Fat Alfredo Sauce"
        },
        {
            "id": "50",
            "name": "Italian Biscotti"
        },
        {
            "id": "61",
            "name": "Lasagna"
        },
        {
            "id": "71",
            "name": "Plantain Pizza"
        },
        {
            "id": "75",
            "name": "Radicchio and Prosciutto Crostini Topped with Sweet Syrupy Sapa"
        },
        {
            "id": "94",
            "name": "Turkey Tomato Cheese Pizza"
        },
        {
            "id": "95",
            "name": "Vanilla Panna Cotta with Chocolate Ganache"
        }
    ],
    "description": "Fabio Milano Owner, Since 1979 started the art of fresh pasta at Marco\u2019s Pasta. He establised Milano\u2019s Fresh Pasta and Fabio\u2019s Italian Bar And Grill, which preserved the italian flavors inspiration by producing long and stuffed pasta, sauces, and desserts. Now, he continues the legacy at Fabio\u2019s Artisan Fresh Pasta. Fabio\u2019s pasta dishes are ready in 3-5 minutes for \u201cPasta al Dente\u201d Fabio\u2019s Artisan Fresh Pasta is perfect for family lunch or diner, or catered for your next corporate meeting or social event.",
    "transactions": [],
    "price": "$$",
    "hours": [
        {
            "hours_type": "REGULAR",
            "open": [
                {
                    "is_overnight": false,
                    "end": "1900",
                    "day": 0,
                    "start": "0800"
                },
                {
                    "is_overnight": false,
                    "end": "1900",
                    "day": 1,
                    "start": "0800"
                },
                {
                    "is_overnight": false,
                    "end": "1900",
                    "day": 2,
                    "start": "0800"
                },
                {
                    "is_overnight": false,
                    "end": "1900",
                    "day": 3,
                    "start": "0800"
                },
                {
                    "is_overnight": false,
                    "end": "1900",
                    "day": 4,
                    "start": "0800"
                },
                {
                    "is_overnight": false,
                    "end": "1900",
                    "day": 5,
                    "start": "0800"
                }
            ],
            "is_open_now": false
        }
    ],
    "phone": "+17135281329",
    "num_recipe_connections": 7,
    "name": "Fabio's Artisan Pasta",
    "photos": [
        "https://s3-media4.fl.yelpcdn.com/bphoto/UL5j4JwdiZWek6ho0gFl5w/o.jpg",
        "https://s3-media3.fl.yelpcdn.com/bphoto/id2AT7450eZ1b0OR9geb0A/o.jpg",
        "https://s3-media3.fl.yelpcdn.com/bphoto/IiJm88W8XRaEJ07hhAKi7w/o.jpg"
    ],
    "url": "https://www.yelp.com/biz/fabios-artisan-pasta-houston?adjust_creative=CLvH_oejmW4isGEg-hCd2w&utm_campaign=yelp_api_v3&utm_medium=api_v3_business_lookup&utm_source=CLvH_oejmW4isGEg-hCd2w",
    "reviews": [
        {
            "rating": 5,
            "url": "https://www.yelp.com/biz/fabios-artisan-pasta-houston?adjust_creative=CLvH_oejmW4isGEg-hCd2w&hrid=pbgX-oKtpqU08FExsW_78A&utm_campaign=yelp_api_v3&utm_medium=api_v3_business_reviews&utm_source=CLvH_oejmW4isGEg-hCd2w",
            "text": "Those 5 stars aren't a lie!\n\nFresh pasta and sauces available. All you need to do is purchase additional protein of your choice elsewhere to make the meal...",
            "time_created": "2021-11-30 20:56:05",
            "user": {
                "image_url": "https://s3-media1.fl.yelpcdn.com/photo/K5vjiKWx5lXYic-NnCSECQ/o.jpg",
                "id": "mx2pQ_YGO8yiT5PUA-zyGA",
                "profile_url": "https://www.yelp.com/user_details?userid=mx2pQ_YGO8yiT5PUA-zyGA",
                "name": "Sophie C."
            },
            "id": "pbgX-oKtpqU08FExsW_78A"
        },
        {
            "rating": 5,
            "url": "https://www.yelp.com/biz/fabios-artisan-pasta-houston?adjust_creative=CLvH_oejmW4isGEg-hCd2w&hrid=WaqkGOKz96b5GI14BGBBuQ&utm_campaign=yelp_api_v3&utm_medium=api_v3_business_reviews&utm_source=CLvH_oejmW4isGEg-hCd2w",
            "text": "THE PASTA IS SPECTACULAR \nyou can literally cook it, boil water, and eat it alone. \nWhen you have this pasta, you will NOT want to go back to your boxed/...",
            "time_created": "2021-11-21 19:45:30",
            "user": {
                "image_url": "https://s3-media2.fl.yelpcdn.com/photo/TW1ujFTKTv-ABpMG4o5Tmw/o.jpg",
                "id": "hVrDeRbsLEHN9DHAChMvNg",
                "profile_url": "https://www.yelp.com/user_details?userid=hVrDeRbsLEHN9DHAChMvNg",
                "name": "Aryani N."
            },
            "id": "WaqkGOKz96b5GI14BGBBuQ"
        },
        {
            "rating": 3,
            "url": "https://www.yelp.com/biz/fabios-artisan-pasta-houston?adjust_creative=CLvH_oejmW4isGEg-hCd2w&hrid=tmh1hL6-mExfqXiDpsc-ZA&utm_campaign=yelp_api_v3&utm_medium=api_v3_business_reviews&utm_source=CLvH_oejmW4isGEg-hCd2w",
            "text": "I'm a little conflicted about this place. I thought the pasta we took home was delicious! The instructions were easy to follow and the Rosa sauce was...",
            "time_created": "2022-01-26 20:43:38",
            "user": {
                "image_url": "https://s3-media4.fl.yelpcdn.com/photo/J0Skyi7T7t-WZ9G5zk5xgg/o.jpg",
                "id": "HY-qaB8EEuTgqa0PdymFBg",
                "profile_url": "https://www.yelp.com/user_details?userid=HY-qaB8EEuTgqa0PdymFBg",
                "name": "Cielo M."
            },
            "id": "tmh1hL6-mExfqXiDpsc-ZA"
        }
    ],
    "alias": "fabios-artisan-pasta-houston",
    "image_url": "https://s3-media4.fl.yelpcdn.com/bphoto/UL5j4JwdiZWek6ho0gFl5w/o.jpg"
}