{
    "rating": 4.0,
    "culture": "Puerto Rican",
    "display_phone": "(713) 528-4708",
    "id": 106,
    "is_closed": false,
    "review_count": 121,
    "coordinates": {
        "latitude": 29.74833,
        "longitude": -95.38934
    },
    "location": {
        "cross_streets": "",
        "city": "Houston",
        "display_address": [
            "712 1/2 Fairview St",
            "Houston, TX 77006"
        ],
        "country": "US",
        "address2": "",
        "address3": "",
        "state": "TX",
        "address1": "712 1/2 Fairview St",
        "zip_code": "77006"
    },
    "is_claimed": true,
    "recipe_connections": [
        {
            "id": "28",
            "name": "Conch Fritters"
        },
        {
            "id": "33",
            "name": "Cuban Roast Pork (Lechon Asado)"
        },
        {
            "id": "53",
            "name": "Jerk chicken"
        },
        {
            "id": "66",
            "name": "Mofongo with Shrimp (Mashed Green Plantains with Shrimp)"
        }
    ],
    "description": "Tex-Chick specializes in authentic puerto rican cusine, we bring the flavors from the island to you. We invite you to visit & discover the puerto rican food experience.",
    "transactions": [
        "pickup",
        "delivery"
    ],
    "price": "$$",
    "hours": [
        {
            "hours_type": "REGULAR",
            "open": [
                {
                    "is_overnight": false,
                    "end": "1700",
                    "day": 1,
                    "start": "1100"
                },
                {
                    "is_overnight": false,
                    "end": "1700",
                    "day": 2,
                    "start": "1100"
                },
                {
                    "is_overnight": false,
                    "end": "1700",
                    "day": 3,
                    "start": "1100"
                },
                {
                    "is_overnight": false,
                    "end": "1900",
                    "day": 4,
                    "start": "1100"
                },
                {
                    "is_overnight": false,
                    "end": "1900",
                    "day": 5,
                    "start": "1100"
                },
                {
                    "is_overnight": false,
                    "end": "1700",
                    "day": 6,
                    "start": "1100"
                }
            ],
            "is_open_now": false
        }
    ],
    "phone": "+17135284708",
    "num_recipe_connections": 4,
    "name": "Tex Chick",
    "photos": [
        "https://s3-media1.fl.yelpcdn.com/bphoto/bhJ07Yvsg9_udfARvZW-Qg/o.jpg",
        "https://s3-media2.fl.yelpcdn.com/bphoto/9pxT2lBpJVir0k0VFEBbaQ/o.jpg",
        "https://s3-media2.fl.yelpcdn.com/bphoto/qAD7B9kb2t-JEw1vhZ9MvA/o.jpg"
    ],
    "url": "https://www.yelp.com/biz/tex-chick-houston-2?adjust_creative=CLvH_oejmW4isGEg-hCd2w&utm_campaign=yelp_api_v3&utm_medium=api_v3_business_lookup&utm_source=CLvH_oejmW4isGEg-hCd2w",
    "reviews": [
        {
            "rating": 5,
            "url": "https://www.yelp.com/biz/tex-chick-houston-2?adjust_creative=CLvH_oejmW4isGEg-hCd2w&hrid=63ZIYUXMPvwRdaq6ACTOpA&utm_campaign=yelp_api_v3&utm_medium=api_v3_business_reviews&utm_source=CLvH_oejmW4isGEg-hCd2w",
            "text": "Great family owned home cooking. Loved how accommodating and convenient they were. Vegan friendly!",
            "time_created": "2022-03-18 19:35:30",
            "user": {
                "image_url": "https://s3-media2.fl.yelpcdn.com/photo/gIsPeM-XWhNzgifoMEoxwQ/o.jpg",
                "id": "jC9IUMg0COoAwrc1j8sKTw",
                "profile_url": "https://www.yelp.com/user_details?userid=jC9IUMg0COoAwrc1j8sKTw",
                "name": "Liz O."
            },
            "id": "63ZIYUXMPvwRdaq6ACTOpA"
        },
        {
            "rating": 5,
            "url": "https://www.yelp.com/biz/tex-chick-houston-2?adjust_creative=CLvH_oejmW4isGEg-hCd2w&hrid=o0B5DA6irP1piJ-tmIML5Q&utm_campaign=yelp_api_v3&utm_medium=api_v3_business_reviews&utm_source=CLvH_oejmW4isGEg-hCd2w",
            "text": "This restaurant is literally a whole in the wall, but it is so good. I am not Puerto Rican so I can not say if it is authentic, but being my second time...",
            "time_created": "2021-07-18 21:04:46",
            "user": {
                "image_url": "https://s3-media3.fl.yelpcdn.com/photo/InnZBiJlQ115STAC8sNh1g/o.jpg",
                "id": "RyEELRkR_Ms2DkkOftJkcA",
                "profile_url": "https://www.yelp.com/user_details?userid=RyEELRkR_Ms2DkkOftJkcA",
                "name": "Rene F."
            },
            "id": "o0B5DA6irP1piJ-tmIML5Q"
        },
        {
            "rating": 5,
            "url": "https://www.yelp.com/biz/tex-chick-houston-2?adjust_creative=CLvH_oejmW4isGEg-hCd2w&hrid=rNTtFPY5CBNdkRpGztd71Q&utm_campaign=yelp_api_v3&utm_medium=api_v3_business_reviews&utm_source=CLvH_oejmW4isGEg-hCd2w",
            "text": "The BEST trifongo I have tried since leaving the island!!! They have a new customer for sure in me! Super sweet folks.",
            "time_created": "2021-04-23 14:25:35",
            "user": {
                "image_url": "https://s3-media2.fl.yelpcdn.com/photo/v7kq5jE7zMzRlTaDYXXJow/o.jpg",
                "id": "B08FnpM7wHIxeWlnXjmXLA",
                "profile_url": "https://www.yelp.com/user_details?userid=B08FnpM7wHIxeWlnXjmXLA",
                "name": "Glenda F."
            },
            "id": "rNTtFPY5CBNdkRpGztd71Q"
        }
    ],
    "alias": "tex-chick-houston-2",
    "image_url": "https://s3-media1.fl.yelpcdn.com/bphoto/bhJ07Yvsg9_udfARvZW-Qg/o.jpg"
}