{
    "recipes": [
        {
            "rating": 4, 
            "sourceName": "Pink When", 
            "cuisines": "Mediterranean", 
            "image": "https://spoonacular.com/recipeImages/715538-556x370.jpg", 
            "cheap": false, 
            "gaps": "no", 
            "creditsText": "Jen West", 
            "cookingMinutes": 30, 
            "id": 7, 
            "veryPopular": false, 
            "lowFodmap": false, 
            "title": "Bruschetta Style Pork & Pasta", 
            "diets": [], 
            "preparationMinutes": 5, 
            "pricePerServing": 145.24, 
            "extendedIngredients": [
                {
                    "aisle": "Pasta and Rice", 
                    "name": "bow tie pasta", 
                    "nameClean": "farfalle", 
                    "image": "farfalle.png", 
                    "measures": {
                        "metric": {
                            "unitLong": "milliliters", 
                            "unitShort": "ml", 
                            "amount": 709.764
                        }, 
                        "us": {
                            "unitLong": "cups", 
                            "unitShort": "cups", 
                            "amount": 3.0
                        }
                    }, 
                    "id": 10120420, 
                    "amount": 3.0, 
                    "meta": [], 
                    "consistency": "solid", 
                    "originalName": "bow tie pasta", 
                    "original": "3 cups bow tie pasta", 
                    "unit": "cups"
                }, 
                {
                    "aisle": "Cheese", 
                    "name": "parmigiano reggiano", 
                    "nameClean": "parmesan", 
                    "image": "parmesan.jpg", 
                    "measures": {
                        "metric": {
                            "unitLong": "milliliters", 
                            "unitShort": "ml", 
                            "amount": 118.294
                        }, 
                        "us": {
                            "unitLong": "cups", 
                            "unitShort": "cups", 
                            "amount": 0.5
                        }
                    }, 
                    "id": 1033, 
                    "amount": 0.5, 
                    "meta": [], 
                    "consistency": "solid", 
                    "originalName": "Parmigiano Reggiano", 
                    "original": "\u00bd cup Parmigiano Reggiano", 
                    "unit": "cup"
                }, 
                {
                    "aisle": "Pasta and Rice", 
                    "name": "pasta", 
                    "nameClean": "pasta", 
                    "image": "fusilli.jpg", 
                    "measures": {
                        "metric": {
                            "unitLong": "servings", 
                            "unitShort": "servings", 
                            "amount": 5.0
                        }, 
                        "us": {
                            "unitLong": "servings", 
                            "unitShort": "servings", 
                            "amount": 5.0
                        }
                    }, 
                    "id": 20420, 
                    "amount": 5.0, 
                    "meta": [
                        "kraft"
                    ], 
                    "consistency": "solid", 
                    "originalName": "Kraft Recipe Makers Chicken Bruschetta Pasta", 
                    "original": "Kraft Recipe Makers Chicken Bruschetta Pasta", 
                    "unit": "servings"
                }, 
                {
                    "aisle": "Meat", 
                    "name": "pork chops", 
                    "nameClean": "pork chops", 
                    "image": "pork-chops.jpg", 
                    "measures": {
                        "metric": {
                            "unitLong": "grams", 
                            "unitShort": "g", 
                            "amount": 453.592
                        }, 
                        "us": {
                            "unitLong": "pound", 
                            "unitShort": "lb", 
                            "amount": 1.0
                        }
                    }, 
                    "id": 10010062, 
                    "amount": 1.0, 
                    "meta": [], 
                    "consistency": "solid", 
                    "originalName": "pork chops", 
                    "original": "1-1/2 lb. pork chops", 
                    "unit": "lb"
                }
            ], 
            "healthScore": 20.0, 
            "imageType": "jpg", 
            "spoonacularScore": 90.0, 
            "sourceUrl": "http://www.pinkwhen.com/make-dinner-tonight/", 
            "glutenFree": false, 
            "vegan": false, 
            "veryHealthy": false, 
            "weightWatcherSmartPoints": 13, 
            "analyzedInstructions": [
                {
                    "steps": [
                        {
                            "equipment": [
                                {
                                    "image": "pan.png", 
                                    "id": 404645, 
                                    "name": "frying pan", 
                                    "localizedName": "frying pan"
                                }
                            ], 
                            "step": "wash and rinse pork chops and place into the skillet.cut them into bite sized pieces and add half of the Basil Garlic simmer sauce.boil your water and start working on cooking your bow-tie pasta.when you have finished with boiling and draining your pasta, add it to the pork along with the rest of the Basil Garlic Simmering Sauce, mixing lightly.Next you will top with the Chunky Bruschetta Finishing Sauce, cover with Parmesan, and cover. Cooking on low heat 2 to 3 minutes or until heated through.", 
                            "length": {
                                "number": 2, 
                                "unit": "minutes"
                            }, 
                            "number": 1, 
                            "ingredients": [
                                {
                                    "image": "farfalle.png", 
                                    "id": 10120420, 
                                    "name": "farfalle", 
                                    "localizedName": "farfalle"
                                }, 
                                {
                                    "image": "pork-chops.jpg", 
                                    "id": 10010062, 
                                    "name": "pork chops", 
                                    "localizedName": "pork chops"
                                }, 
                                {
                                    "image": "parmesan.jpg", 
                                    "id": 1033, 
                                    "name": "parmesan", 
                                    "localizedName": "parmesan"
                                }, 
                                {
                                    "image": "garlic.png", 
                                    "id": 11215, 
                                    "name": "garlic", 
                                    "localizedName": "garlic"
                                }, 
                                {
                                    "image": "basil.jpg", 
                                    "id": 2044, 
                                    "name": "basil", 
                                    "localizedName": "basil"
                                }, 
                                {
                                    "image": "fusilli.jpg", 
                                    "id": 20420, 
                                    "name": "pasta", 
                                    "localizedName": "pasta"
                                }, 
                                {
                                    "image": "", 
                                    "id": 0, 
                                    "name": "sauce", 
                                    "localizedName": "sauce"
                                }, 
                                {
                                    "image": "water.png", 
                                    "id": 14412, 
                                    "name": "water", 
                                    "localizedName": "water"
                                }, 
                                {
                                    "image": "pork-tenderloin-raw.png", 
                                    "id": 10010219, 
                                    "name": "pork", 
                                    "localizedName": "pork"
                                }
                            ]
                        }
                    ], 
                    "name": ""
                }
            ], 
            "aggregateLikes": 163, 
            "instructions": "wash and rinse pork chops and place into the skillet.cut them into bite sized pieces and add half of the Basil Garlic simmer sauce.boil your water and start working on cooking your bow-tie pasta.when you have finished with boiling and draining your pasta, add it to the pork along with the rest of the Basil Garlic Simmering Sauce, mixing lightly.Next you will top with the Chunky Bruschetta Finishing Sauce, cover with Parmesan, and cover. Cooking on low heat 2 to 3 minutes or until heated through.", 
            "spoonacularSourceUrl": "https://spoonacular.com/what-to-make-for-dinner-tonight-bruschetta-style-pork-pasta-715538", 
            "dishTypes": "main course", 
            "occasions": [], 
            "vegetarian": false, 
            "originalId": null, 
            "summary": "You can never have too many main course recipes, so give What to make for dinner tonight?? Bruschetta Style Pork & Pastan a try. For $1.45 per serving, this recipe covers 22% of your daily requirements of vitamins and minerals. This recipe makes 5 servings with 521 calories, 35g of protein, and 10g of fat each. 163 people have tried and liked this recipe. If you have bow tie pasta, pork chops, recipe makers chicken bruschetta pasta, and a few other ingredients on hand, you can make it. To use up the pasta you could follow this main course with the Chocolate Dessert Pasta as a dessert. This recipe is typical of Mediterranean cuisine. From preparation to the plate, this recipe takes around 35 minutes. All things considered, we decided this recipe deserves a spoonacular score of 90%. This score is awesome. Try Dinner Tonight: Grilled Romesco-Style Pork, Dinner Tonight: Chickpea Bruschetta, and Dinner Tonight: Pasta with Pork Loin, Chinese Eggplant, Baby Bok Choy, and Spicy Miso Sauce for similar recipes.", 
            "readyInMinutes": 35, 
            "servings": 5, 
            "sustainable": false, 
            "dairyFree": false
        }
    ]
}