{
    "recipes": [
        {
            "rating": 4, 
            "sourceName": "Foodista", 
            "cuisines": "American", 
            "image": "https://spoonacular.com/recipeImages/636552-556x370.jpg", 
            "cheap": false, 
            "gaps": "no", 
            "creditsText": "Foodista.com \u2013 The Cooking Encyclopedia Everyone Can Edit", 
            "id": 11, 
            "veryPopular": false, 
            "lowFodmap": false, 
            "title": "Buttermilk Cornbread and Sage Stuffing", 
            "diets": [], 
            "pricePerServing": 126.51, 
            "extendedIngredients": [
                {
                    "aisle": "Pasta and Rice", 
                    "name": "bread crumbs", 
                    "nameClean": "breadcrumbs", 
                    "image": "breadcrumbs.jpg", 
                    "measures": {
                        "metric": {
                            "unitLong": "liters", 
                            "unitShort": "l", 
                            "amount": 1.893
                        }, 
                        "us": {
                            "unitLong": "cups", 
                            "unitShort": "cups", 
                            "amount": 8.0
                        }
                    }, 
                    "id": 18079, 
                    "amount": 8.0, 
                    "meta": [
                        "fresh", 
                        "white"
                    ], 
                    "consistency": "solid", 
                    "originalName": "coarse fresh white bread crumbs, crusts removed", 
                    "original": "8 cups coarse fresh white bread crumbs, crusts removed", 
                    "unit": "cups"
                }, 
                {
                    "aisle": "Bakery/Bread", 
                    "name": "corn bread", 
                    "nameClean": "cornbread", 
                    "image": "cornbread.jpg", 
                    "measures": {
                        "metric": {
                            "unitLong": "milliliters", 
                            "unitShort": "ml", 
                            "amount": 946.352
                        }, 
                        "us": {
                            "unitLong": "cups", 
                            "unitShort": "cups", 
                            "amount": 4.0
                        }
                    }, 
                    "id": 18023, 
                    "amount": 4.0, 
                    "meta": [
                        "crumbled"
                    ], 
                    "consistency": "solid", 
                    "originalName": "buttermilk corn bread, coarsely crumbled", 
                    "original": "4 cups buttermilk corn bread, coarsely crumbled", 
                    "unit": "cups"
                }, 
                {
                    "aisle": "Produce;Spices and Seasonings", 
                    "name": "fresh flat-leaf parsley", 
                    "nameClean": "parsley", 
                    "image": "parsley.jpg", 
                    "measures": {
                        "metric": {
                            "unitLong": "milliliters", 
                            "unitShort": "ml", 
                            "amount": 59.147
                        }, 
                        "us": {
                            "unitLong": "cups", 
                            "unitShort": "cups", 
                            "amount": 0.25
                        }
                    }, 
                    "id": 11297, 
                    "amount": 0.25, 
                    "meta": [
                        "fresh", 
                        "finely chopped"
                    ], 
                    "consistency": "solid", 
                    "originalName": "fresh flat-leaf parsley, finely chopped", 
                    "original": "1/4 cup fresh flat-leaf parsley, finely chopped", 
                    "unit": "cup"
                }, 
                {
                    "aisle": "Produce", 
                    "name": "fresh sage", 
                    "nameClean": "sage", 
                    "image": "fresh-sage.png", 
                    "measures": {
                        "metric": {
                            "unitLong": "Tbsps", 
                            "unitShort": "Tbsps", 
                            "amount": 3.0
                        }, 
                        "us": {
                            "unitLong": "Tbsps", 
                            "unitShort": "Tbsps", 
                            "amount": 3.0
                        }
                    }, 
                    "id": 99226, 
                    "amount": 3.0, 
                    "meta": [
                        "fresh", 
                        "finely chopped"
                    ], 
                    "consistency": "solid", 
                    "originalName": "fresh sage, finely chopped", 
                    "original": "3 tablespoons fresh sage, finely chopped", 
                    "unit": "tablespoons"
                }, 
                {
                    "aisle": "Spices and Seasonings", 
                    "name": "kosher salt", 
                    "nameClean": "kosher salt", 
                    "image": "salt.jpg", 
                    "measures": {
                        "metric": {
                            "unitLong": "teaspoon", 
                            "unitShort": "tsp", 
                            "amount": 1.0
                        }, 
                        "us": {
                            "unitLong": "teaspoon", 
                            "unitShort": "tsp", 
                            "amount": 1.0
                        }
                    }, 
                    "id": 1082047, 
                    "amount": 1.0, 
                    "meta": [], 
                    "consistency": "solid", 
                    "originalName": "kosher salt", 
                    "original": "1 teaspoon kosher salt", 
                    "unit": "teaspoon"
                }, 
                {
                    "aisle": "Spices and Seasonings", 
                    "name": "black pepper", 
                    "nameClean": "black pepper", 
                    "image": "pepper.jpg", 
                    "measures": {
                        "metric": {
                            "unitLong": "teaspoons", 
                            "unitShort": "tsps", 
                            "amount": 0.5
                        }, 
                        "us": {
                            "unitLong": "teaspoons", 
                            "unitShort": "tsps", 
                            "amount": 0.5
                        }
                    }, 
                    "id": 1002030, 
                    "amount": 0.5, 
                    "meta": [
                        "black", 
                        "freshly ground"
                    ], 
                    "consistency": "solid", 
                    "originalName": "freshly ground black pepper", 
                    "original": "1/2 teaspoon freshly ground black pepper", 
                    "unit": "teaspoon"
                }, 
                {
                    "aisle": "Milk, Eggs, Other Dairy", 
                    "name": "unsalted butter", 
                    "nameClean": "unsalted butter", 
                    "image": "butter-sliced.jpg", 
                    "measures": {
                        "metric": {
                            "unitLong": "milliliters", 
                            "unitShort": "ml", 
                            "amount": 236.588
                        }, 
                        "us": {
                            "unitLong": "cup", 
                            "unitShort": "cup", 
                            "amount": 1.0
                        }
                    }, 
                    "id": 1145, 
                    "amount": 1.0, 
                    "meta": [
                        "unsalted"
                    ], 
                    "consistency": "solid", 
                    "originalName": "unsalted butter", 
                    "original": "1 cup unsalted butter", 
                    "unit": "cup"
                }, 
                {
                    "aisle": "Produce", 
                    "name": "yellow onions", 
                    "nameClean": "yellow onion", 
                    "image": "brown-onion.png", 
                    "measures": {
                        "metric": {
                            "unitLong": "milliliters", 
                            "unitShort": "ml", 
                            "amount": 354.882
                        }, 
                        "us": {
                            "unitLong": "cups", 
                            "unitShort": "cups", 
                            "amount": 1.5
                        }
                    }, 
                    "id": 10511282, 
                    "amount": 1.5, 
                    "meta": [
                        "yellow", 
                        "finely chopped"
                    ], 
                    "consistency": "solid", 
                    "originalName": "medium yellow onions, finely chopped", 
                    "original": "2 medium yellow onions, finely chopped (1 1/2 cups)", 
                    "unit": "cups"
                }, 
                {
                    "aisle": "Meat", 
                    "name": "turkey liver", 
                    "nameClean": "turkey liver", 
                    "image": "chicken-liver.jpg", 
                    "measures": {
                        "metric": {
                            "unitLong": "", 
                            "unitShort": "", 
                            "amount": 1.0
                        }, 
                        "us": {
                            "unitLong": "", 
                            "unitShort": "", 
                            "amount": 1.0
                        }
                    }, 
                    "id": 5177, 
                    "amount": 1.0, 
                    "meta": [
                        "trimmed", 
                        "finely chopped"
                    ], 
                    "consistency": "solid", 
                    "originalName": "turkey liver, trimmed and finely chopped", 
                    "original": "1 turkey liver, trimmed and finely chopped", 
                    "unit": ""
                }, 
                {
                    "aisle": "Produce", 
                    "name": "celery", 
                    "nameClean": "celery", 
                    "image": "celery.jpg", 
                    "measures": {
                        "metric": {
                            "unitLong": "milliliters", 
                            "unitShort": "ml", 
                            "amount": 236.588
                        }, 
                        "us": {
                            "unitLong": "cup", 
                            "unitShort": "cup", 
                            "amount": 1.0
                        }
                    }, 
                    "id": 11143, 
                    "amount": 1.0, 
                    "meta": [
                        "finely chopped"
                    ], 
                    "consistency": "solid", 
                    "originalName": "celery, finely chopped", 
                    "original": "1 cup celery, finely chopped", 
                    "unit": "cup"
                }, 
                {
                    "aisle": "Milk, Eggs, Other Dairy", 
                    "name": "eggs", 
                    "nameClean": "egg", 
                    "image": "egg.png", 
                    "measures": {
                        "metric": {
                            "unitLong": "larges", 
                            "unitShort": "large", 
                            "amount": 2.0
                        }, 
                        "us": {
                            "unitLong": "larges", 
                            "unitShort": "large", 
                            "amount": 2.0
                        }
                    }, 
                    "id": 1123, 
                    "amount": 2.0, 
                    "meta": [
                        "lightly beaten"
                    ], 
                    "consistency": "solid", 
                    "originalName": "eggs, lightly beaten", 
                    "original": "2 large eggs, lightly beaten", 
                    "unit": "large"
                }, 
                {
                    "aisle": "Canned and Jarred", 
                    "name": "chicken broth", 
                    "nameClean": "chicken broth", 
                    "image": "chicken-broth.png", 
                    "measures": {
                        "metric": {
                            "unitLong": "milliliters", 
                            "unitShort": "ml", 
                            "amount": 236.588
                        }, 
                        "us": {
                            "unitLong": "cup", 
                            "unitShort": "cup", 
                            "amount": 1.0
                        }
                    }, 
                    "id": 6194, 
                    "amount": 1.0, 
                    "meta": [], 
                    "consistency": "liquid", 
                    "originalName": "turkey giblet stock or chicken broth", 
                    "original": "1 cup turkey giblet stock or chicken broth", 
                    "unit": "cup"
                }, 
                {
                    "aisle": "Milk, Eggs, Other Dairy", 
                    "name": "heavy cream", 
                    "nameClean": "cream", 
                    "image": "fluid-cream.jpg", 
                    "measures": {
                        "metric": {
                            "unitLong": "milliliters", 
                            "unitShort": "ml", 
                            "amount": 118.294
                        }, 
                        "us": {
                            "unitLong": "cups", 
                            "unitShort": "cups", 
                            "amount": 0.5
                        }
                    }, 
                    "id": 1053, 
                    "amount": 0.5, 
                    "meta": [], 
                    "consistency": "liquid", 
                    "originalName": "heavy cream", 
                    "original": "1/2 cup heavy cream", 
                    "unit": "cup"
                }
            ], 
            "healthScore": 23.0, 
            "imageType": "jpg", 
            "spoonacularScore": 70.0, 
            "sourceUrl": "https://www.foodista.com/recipe/LF56ZJ6Z/buttermilk-cornbread-and-sage-stuffing", 
            "glutenFree": false, 
            "vegan": false, 
            "veryHealthy": false, 
            "weightWatcherSmartPoints": 24, 
            "analyzedInstructions": [
                {
                    "steps": [
                        {
                            "equipment": [
                                {
                                    "id": 404784, 
                                    "image": "oven.jpg", 
                                    "name": "oven", 
                                    "temperature": {
                                        "number": 325.0, 
                                        "unit": "Fahrenheit"
                                    }, 
                                    "localizedName": "oven"
                                }
                            ], 
                            "step": "Preheat oven to 325F.", 
                            "number": 1, 
                            "ingredients": []
                        }, 
                        {
                            "equipment": [
                                {
                                    "image": "roasting-pan.jpg", 
                                    "id": 404646, 
                                    "name": "baking pan", 
                                    "localizedName": "baking pan"
                                }, 
                                {
                                    "image": "oven.jpg", 
                                    "id": 404784, 
                                    "name": "oven", 
                                    "localizedName": "oven"
                                }, 
                                {
                                    "image": "bowl.jpg", 
                                    "id": 404783, 
                                    "name": "bowl", 
                                    "localizedName": "bowl"
                                }
                            ], 
                            "step": "Spread all bread crumbs in a shallow baking pan and bake until dry, about 15 minutes total. Cool crumbs in pan, then transfer to a large bowl and stir in parsley, sage, salt, and pepper.", 
                            "length": {
                                "number": 15, 
                                "unit": "minutes"
                            }, 
                            "number": 2, 
                            "ingredients": [
                                {
                                    "image": "breadcrumbs.jpg", 
                                    "id": 18079, 
                                    "name": "breadcrumbs", 
                                    "localizedName": "breadcrumbs"
                                }, 
                                {
                                    "image": "parsley.jpg", 
                                    "id": 11297, 
                                    "name": "parsley", 
                                    "localizedName": "parsley"
                                }, 
                                {
                                    "image": "pepper.jpg", 
                                    "id": 1002030, 
                                    "name": "pepper", 
                                    "localizedName": "pepper"
                                }, 
                                {
                                    "image": "", 
                                    "id": 0, 
                                    "name": "spread", 
                                    "localizedName": "spread"
                                }, 
                                {
                                    "image": "fresh-sage.png", 
                                    "id": 99226, 
                                    "name": "sage", 
                                    "localizedName": "sage"
                                }, 
                                {
                                    "image": "salt.jpg", 
                                    "id": 2047, 
                                    "name": "salt", 
                                    "localizedName": "salt"
                                }
                            ]
                        }, 
                        {
                            "equipment": [
                                {
                                    "image": "pan.png", 
                                    "id": 404645, 
                                    "name": "frying pan", 
                                    "localizedName": "frying pan"
                                }
                            ], 
                            "step": "Melt butter in a large heavy skillet over moderate heat.", 
                            "number": 3, 
                            "ingredients": [
                                {
                                    "image": "butter-sliced.jpg", 
                                    "id": 1001, 
                                    "name": "butter", 
                                    "localizedName": "butter"
                                }
                            ]
                        }, 
                        {
                            "equipment": [], 
                            "step": "Add onions and liver and cook, stirring occasionally, until onions are softened, 8 to 10 minutes.", 
                            "length": {
                                "number": 8, 
                                "unit": "minutes"
                            }, 
                            "number": 4, 
                            "ingredients": [
                                {
                                    "image": "brown-onion.png", 
                                    "id": 11282, 
                                    "name": "onion", 
                                    "localizedName": "onion"
                                }, 
                                {
                                    "image": "liver.jpg", 
                                    "id": 13325, 
                                    "name": "liver", 
                                    "localizedName": "liver"
                                }
                            ]
                        }, 
                        {
                            "equipment": [], 
                            "step": "Add celery and cook, stirring occasionally, 5 minutes.", 
                            "length": {
                                "number": 5, 
                                "unit": "minutes"
                            }, 
                            "number": 5, 
                            "ingredients": [
                                {
                                    "image": "celery.jpg", 
                                    "id": 11143, 
                                    "name": "celery", 
                                    "localizedName": "celery"
                                }
                            ]
                        }, 
                        {
                            "equipment": [
                                {
                                    "image": "bowl.jpg", 
                                    "id": 404783, 
                                    "name": "bowl", 
                                    "localizedName": "bowl"
                                }
                            ], 
                            "step": "Transfer to bowl with crumbs and toss well.", 
                            "number": 6, 
                            "ingredients": []
                        }, 
                        {
                            "equipment": [], 
                            "step": "Add eggs, stock, and cream and toss well.", 
                            "number": 7, 
                            "ingredients": [
                                {
                                    "image": "fluid-cream.jpg", 
                                    "id": 1053, 
                                    "name": "cream", 
                                    "localizedName": "cream"
                                }, 
                                {
                                    "image": "chicken-broth.png", 
                                    "id": 1006615, 
                                    "name": "stock", 
                                    "localizedName": "stock"
                                }, 
                                {
                                    "image": "egg.png", 
                                    "id": 1123, 
                                    "name": "egg", 
                                    "localizedName": "egg"
                                }
                            ]
                        }, 
                        {
                            "equipment": [
                                {
                                    "image": "roasting-pan.jpg", 
                                    "id": 404646, 
                                    "name": "baking pan", 
                                    "localizedName": "baking pan"
                                }
                            ], 
                            "step": "Transfer stuffing to a buttered 2 1/2- to 3-quart shallow baking dish.", 
                            "number": 8, 
                            "ingredients": [
                                {
                                    "image": "stuffing-mix.png", 
                                    "id": 18082, 
                                    "name": "stuffing", 
                                    "localizedName": "stuffing"
                                }
                            ]
                        }, 
                        {
                            "equipment": [
                                {
                                    "image": "oven.jpg", 
                                    "id": 404784, 
                                    "name": "oven", 
                                    "localizedName": "oven"
                                }
                            ], 
                            "step": "Bake, covered, in middle of oven 30 minutes, then uncover and bake until browned, about 30 minutes more.", 
                            "length": {
                                "number": 60, 
                                "unit": "minutes"
                            }, 
                            "number": 9, 
                            "ingredients": []
                        }
                    ], 
                    "name": ""
                }
            ], 
            "aggregateLikes": 7, 
            "instructions": "Preheat oven to 325F.\nSpread all bread crumbs in a shallow baking pan and bake until dry, about 15 minutes total. Cool crumbs in pan, then transfer to a large bowl and stir in parsley, sage, salt, and pepper.\nMelt butter in a large heavy skillet over moderate heat. Add onions and liver and cook, stirring occasionally, until onions are softened, 8 to 10 minutes. Add celery and cook, stirring occasionally, 5 minutes. Transfer to bowl with crumbs and toss well. Add eggs, stock, and cream and toss well.\nTransfer stuffing to a buttered 2 1/2- to 3-quart shallow baking dish. Bake, covered, in middle of oven 30 minutes, then uncover and bake until browned, about 30 minutes more.", 
            "license": "CC BY 3.0", 
            "dishTypes": "side dish", 
            "occasions": [
                "thanksgiving"
            ], 
            "vegetarian": false, 
            "spoonacularSourceUrl": "https://spoonacular.com/buttermilk-cornbread-and-sage-stuffing-636552", 
            "originalId": null, 
            "summary": "Buttermilk Cornbread and Sage Stuffing is a Southern recipe that serves 10. One serving contains 669 calories, 17g of protein, and 32g of fat. For $1.27 per serving, this recipe covers 31% of your daily requirements of vitamins and minerals. If you have kosher salt, sage, eggs, and a few other ingredients on hand, you can make it. This recipe is liked by 7 foodies and cooks. From preparation to the plate, this recipe takes approximately approximately 45 minutes. It will be a hit at your Thanksgiving event. It works well as a side dish. It is brought to you by Foodista. All things considered, we decided this recipe deserves a spoonacular score of 70%. This score is solid. Similar recipes include Sage and Cornbread Stuffing, Sausage, Sage & Cornbread Stuffing, and Cornbread Apple and Sage Stuffing.", 
            "readyInMinutes": 45, 
            "servings": 10, 
            "sustainable": false, 
            "dairyFree": false
        }
    ]
}