{
    "recipes": [
        {
            "rating": 5, 
            "sourceName": "Foodista", 
            "cuisines": "Spanish", 
            "image": "https://spoonacular.com/recipeImages/641911-556x370.jpg", 
            "cheap": false, 
            "gaps": "no", 
            "creditsText": "Foodista.com \u2013 The Cooking Encyclopedia Everyone Can Edit", 
            "id": 19, 
            "veryPopular": false, 
            "lowFodmap": false, 
            "title": "Chicken, Kielbasa and Shrimp Paella", 
            "diets": [
                "gluten free", 
                "dairy free"
            ], 
            "pricePerServing": 238.13, 
            "extendedIngredients": [
                {
                    "aisle": "Meat", 
                    "name": "chicken breast", 
                    "nameClean": "chicken breast", 
                    "image": "chicken-breasts.png", 
                    "measures": {
                        "metric": {
                            "unitLong": "grams", 
                            "unitShort": "g", 
                            "amount": 283.495
                        }, 
                        "us": {
                            "unitLong": "ounces", 
                            "unitShort": "oz", 
                            "amount": 10.0
                        }
                    }, 
                    "id": 5062, 
                    "amount": 10.0, 
                    "meta": [
                        "refrigerated", 
                        "fully-cooked", 
                        "()"
                    ], 
                    "consistency": "solid", 
                    "originalName": "package (about refrigerated fully-cooked chicken breast strips (about 1 3/4 cups)", 
                    "original": "1 package (about 10 ounces) refrigerated fully-cooked chicken breast strips (about 1 3/4 cups)", 
                    "unit": "ounces"
                }, 
                {
                    "aisle": "Canned and Jarred", 
                    "name": "chicken stock", 
                    "nameClean": "chicken stock", 
                    "image": "chicken-broth.png", 
                    "measures": {
                        "metric": {
                            "unitLong": "milliliters", 
                            "unitShort": "ml", 
                            "amount": 946.352
                        }, 
                        "us": {
                            "unitLong": "cups", 
                            "unitShort": "cups", 
                            "amount": 4.0
                        }
                    }, 
                    "id": 6172, 
                    "amount": 4.0, 
                    "meta": [
                        "swanson\u00ae"
                    ], 
                    "consistency": "liquid", 
                    "originalName": "Swanson\u00ae Chicken Broth or Swanson\u00ae Chicken Stock, heated", 
                    "original": "4 cups Swanson\u00ae Chicken Broth or Swanson\u00ae Chicken Stock, heated", 
                    "unit": "cups"
                }, 
                {
                    "aisle": "Spices and Seasonings", 
                    "name": "ground turmeric", 
                    "nameClean": "turmeric", 
                    "image": "turmeric.jpg", 
                    "measures": {
                        "metric": {
                            "unitLong": "teaspoon", 
                            "unitShort": "tsp", 
                            "amount": 1.0
                        }, 
                        "us": {
                            "unitLong": "teaspoon", 
                            "unitShort": "tsp", 
                            "amount": 1.0
                        }
                    }, 
                    "id": 2043, 
                    "amount": 1.0, 
                    "meta": [], 
                    "consistency": "solid", 
                    "originalName": "ground turmeric", 
                    "original": "1 teaspoon ground turmeric", 
                    "unit": "teaspoon"
                }, 
                {
                    "aisle": "Pasta and Rice;Ethnic Foods", 
                    "name": "picante sauce", 
                    "nameClean": "picante sauce", 
                    "image": "salsa.jpg", 
                    "measures": {
                        "metric": {
                            "unitLong": "milliliters", 
                            "unitShort": "ml", 
                            "amount": 236.588
                        }, 
                        "us": {
                            "unitLong": "cup", 
                            "unitShort": "cup", 
                            "amount": 1.0
                        }
                    }, 
                    "id": 1006164, 
                    "amount": 1.0, 
                    "meta": [
                        "pace\u00ae"
                    ], 
                    "consistency": "solid", 
                    "originalName": "Pace\u00ae Picante Sauce", 
                    "original": "1 cup Pace\u00ae Picante Sauce", 
                    "unit": "cup"
                }, 
                {
                    "aisle": "Pasta and Rice", 
                    "name": "rice", 
                    "nameClean": "rice", 
                    "image": "uncooked-white-rice.png", 
                    "measures": {
                        "metric": {
                            "unitLong": "milliliters", 
                            "unitShort": "ml", 
                            "amount": 473.176
                        }, 
                        "us": {
                            "unitLong": "cups", 
                            "unitShort": "cups", 
                            "amount": 2.0
                        }
                    }, 
                    "id": 20444, 
                    "amount": 2.0, 
                    "meta": [
                        "long-grain", 
                        "white", 
                        "uncooked"
                    ], 
                    "consistency": "solid", 
                    "originalName": "uncooked regular long-grain white rice", 
                    "original": "2 cups uncooked regular long-grain white rice", 
                    "unit": "cups"
                }, 
                {
                    "aisle": "Seafood", 
                    "name": "shrimp", 
                    "nameClean": "shrimp", 
                    "image": "shrimp.png", 
                    "measures": {
                        "metric": {
                            "unitLong": "grams", 
                            "unitShort": "g", 
                            "amount": 340.194
                        }, 
                        "us": {
                            "unitLong": "pounds", 
                            "unitShort": "lb", 
                            "amount": 0.75
                        }
                    }, 
                    "id": 15270, 
                    "amount": 0.75, 
                    "meta": [
                        "frozen", 
                        "thawed", 
                        "deveined", 
                        "cooked", 
                        "peeled"
                    ], 
                    "consistency": "solid", 
                    "originalName": "frozen peeled, deveined, cooked shrimp, thawed", 
                    "original": "3/4 pound small frozen peeled, deveined, cooked shrimp, thawed", 
                    "unit": "pound"
                }, 
                {
                    "aisle": "Meat", 
                    "name": "turkey kielbasa", 
                    "nameClean": "turkey kielbasa", 
                    "image": "smoked-sausage.png", 
                    "measures": {
                        "metric": {
                            "unitLong": "grams", 
                            "unitShort": "g", 
                            "amount": 453.592
                        }, 
                        "us": {
                            "unitLong": "ounces", 
                            "unitShort": "oz", 
                            "amount": 16.0
                        }
                    }, 
                    "id": 7929, 
                    "amount": 16.0, 
                    "meta": [
                        "sliced"
                    ], 
                    "consistency": "solid", 
                    "originalName": "package turkey kielbasa, sliced", 
                    "original": "1 package (16 ounces) turkey kielbasa, sliced", 
                    "unit": "ounces"
                }, 
                {
                    "aisle": null, 
                    "name": "vegetable oil", 
                    "nameClean": null, 
                    "image": null, 
                    "measures": {
                        "metric": {
                            "unitLong": "Tbsp", 
                            "unitShort": "Tbsp", 
                            "amount": 1.0
                        }, 
                        "us": {
                            "unitLong": "Tbsp", 
                            "unitShort": "Tbsp", 
                            "amount": 1.0
                        }
                    }, 
                    "id": 4513, 
                    "amount": 1.0, 
                    "meta": [], 
                    "consistency": null, 
                    "originalName": "vegetable oil", 
                    "original": "1 tablespoon vegetable oil", 
                    "unit": "tablespoon"
                }
            ], 
            "healthScore": 16.0, 
            "imageType": "jpg", 
            "spoonacularScore": 69.0, 
            "sourceUrl": "http://www.foodista.com/recipe/JYKRF2ZZ/easy-chicken-kielbasa-and-shrimp-paella", 
            "glutenFree": true, 
            "vegan": false, 
            "veryHealthy": false, 
            "weightWatcherSmartPoints": 11, 
            "analyzedInstructions": [
                {
                    "steps": [
                        {
                            "equipment": [
                                {
                                    "image": "pan.png", 
                                    "id": 404645, 
                                    "name": "frying pan", 
                                    "localizedName": "frying pan"
                                }
                            ], 
                            "step": "Heat the oil in a 12-inch skillet over medium heat.", 
                            "number": 1, 
                            "ingredients": [
                                {
                                    "image": "vegetable-oil.jpg", 
                                    "id": 4582, 
                                    "name": "cooking oil", 
                                    "localizedName": "cooking oil"
                                }
                            ]
                        }, 
                        {
                            "equipment": [
                                {
                                    "image": "pan.png", 
                                    "id": 404645, 
                                    "name": "frying pan", 
                                    "localizedName": "frying pan"
                                }
                            ], 
                            "step": "Add the rice and cook for 30 seconds, stirring constantly. Stir the broth, picante sauce and turmeric in the skillet and heat to a boil. Reduce the heat to low. Cover and cook for 15 minutes.Stir the kielbasa, shrimp and chicken in the skillet. Cover and cook for 5 minutes or until the rice is tender.", 
                            "length": {
                                "number": 20, 
                                "unit": "minutes"
                            }, 
                            "number": 2, 
                            "ingredients": [
                                {
                                    "image": "salsa.jpg", 
                                    "id": 1006164, 
                                    "name": "picante sauce", 
                                    "localizedName": "picante sauce"
                                }, 
                                {
                                    "image": "smoked-sausage.png", 
                                    "id": 7059, 
                                    "name": "kielbasa", 
                                    "localizedName": "kielbasa"
                                }, 
                                {
                                    "image": "turmeric.jpg", 
                                    "id": 2043, 
                                    "name": "turmeric", 
                                    "localizedName": "turmeric"
                                }, 
                                {
                                    "image": "whole-chicken.jpg", 
                                    "id": 5006, 
                                    "name": "whole chicken", 
                                    "localizedName": "whole chicken"
                                }, 
                                {
                                    "image": "shrimp.png", 
                                    "id": 15270, 
                                    "name": "shrimp", 
                                    "localizedName": "shrimp"
                                }, 
                                {
                                    "image": "chicken-broth.png", 
                                    "id": 1006615, 
                                    "name": "broth", 
                                    "localizedName": "broth"
                                }, 
                                {
                                    "image": "uncooked-white-rice.png", 
                                    "id": 20444, 
                                    "name": "rice", 
                                    "localizedName": "rice"
                                }
                            ]
                        }
                    ], 
                    "name": ""
                }
            ], 
            "aggregateLikes": 19, 
            "instructions": "Heat the oil in a 12-inch skillet over medium heat. Add the rice and cook for 30 seconds, stirring constantly. Stir the broth, picante sauce and turmeric in the skillet and heat to a boil. Reduce the heat to low. Cover and cook for 15 minutes.Stir the kielbasa, shrimp and chicken in the skillet. Cover and cook for 5 minutes or until the rice is tender.", 
            "license": "CC BY 3.0", 
            "dishTypes": "main course", 
            "occasions": [], 
            "vegetarian": false, 
            "spoonacularSourceUrl": "https://spoonacular.com/easy-chicken-kielbasa-and-shrimp-paella-641911", 
            "originalId": null, 
            "summary": "You can never have too many main course recipes, so give Easy Chicken, Kielbasan and Shrimp Paellan a try. This gluten free, dairy free, and fodmap friendly recipe serves 8 and costs $2.38 per serving. One serving contains 408 calories, 34g of protein, and 10g of fat. This recipe is typical of European cuisine. If you have picante sauce, chicken breast strips, ground turmeric, and a few other ingredients on hand, you can make it. 19 people have tried and liked this recipe. From preparation to the plate, this recipe takes about 45 minutes. All things considered, we decided this recipe deserves a spoonacular score of 63%. This score is solid. Try Easy Shrimp and Chicken Paella, Shrimp and Scallop Easy Paella, and Chicken and Shrimp Paella for similar recipes.", 
            "readyInMinutes": 45, 
            "servings": 8, 
            "sustainable": false, 
            "dairyFree": true
        }
    ]
}