{
    "recipes": [
        {
            "rating": 5, 
            "sourceName": "Foodista", 
            "cuisines": "British", 
            "image": "https://spoonacular.com/recipeImages/642413-556x370.jpg", 
            "cheap": false, 
            "gaps": "no", 
            "creditsText": "Foodista.com \u2013 The Cooking Encyclopedia Everyone Can Edit", 
            "id": 39, 
            "veryPopular": false, 
            "lowFodmap": false, 
            "title": "English Berry Trifle", 
            "diets": [
                "gluten free"
            ], 
            "pricePerServing": 111.37, 
            "extendedIngredients": [
                {
                    "aisle": "Milk, Eggs, Other Dairy", 
                    "name": "eggs", 
                    "nameClean": "egg", 
                    "image": "egg.png", 
                    "measures": {
                        "metric": {
                            "unitLong": "larges", 
                            "unitShort": "large", 
                            "amount": 4.0
                        }, 
                        "us": {
                            "unitLong": "larges", 
                            "unitShort": "large", 
                            "amount": 4.0
                        }
                    }, 
                    "id": 1123, 
                    "amount": 4.0, 
                    "meta": [], 
                    "consistency": "solid", 
                    "originalName": "eggs", 
                    "original": "4 large eggs", 
                    "unit": "large"
                }, 
                {
                    "aisle": "Produce", 
                    "name": "lemon juice", 
                    "nameClean": "lemon juice", 
                    "image": "lemon-juice.jpg", 
                    "measures": {
                        "metric": {
                            "unitLong": "milliliters", 
                            "unitShort": "ml", 
                            "amount": 78.863
                        }, 
                        "us": {
                            "unitLong": "cups", 
                            "unitShort": "cups", 
                            "amount": 0.333
                        }
                    }, 
                    "id": 9152, 
                    "amount": 0.3333333333333333, 
                    "meta": [
                        "fresh"
                    ], 
                    "consistency": "liquid", 
                    "originalName": "fresh lemon juice", 
                    "original": "1/3 cup fresh lemon juice", 
                    "unit": "cup"
                }, 
                {
                    "aisle": "Produce", 
                    "name": "lemon peel", 
                    "nameClean": "lemon peel", 
                    "image": "zest-lemon.jpg", 
                    "measures": {
                        "metric": {
                            "unitLong": "Tbsp", 
                            "unitShort": "Tbsp", 
                            "amount": 1.0
                        }, 
                        "us": {
                            "unitLong": "Tbsp", 
                            "unitShort": "Tbsp", 
                            "amount": 1.0
                        }
                    }, 
                    "id": 9156, 
                    "amount": 1.0, 
                    "meta": [
                        "grated"
                    ], 
                    "consistency": "solid", 
                    "originalName": "grated lemon peel", 
                    "original": "1 tablespoon grated lemon peel", 
                    "unit": "tablespoon"
                }, 
                {
                    "aisle": "Bakery/Bread", 
                    "name": "pound cake", 
                    "nameClean": "pound cake", 
                    "image": "pound-cake.jpg", 
                    "measures": {
                        "metric": {
                            "unitLong": "grams", 
                            "unitShort": "g", 
                            "amount": 453.592
                        }, 
                        "us": {
                            "unitLong": "ounces", 
                            "unitShort": "oz", 
                            "amount": 16.0
                        }
                    }, 
                    "id": 18133, 
                    "amount": 16.0, 
                    "meta": [], 
                    "consistency": "solid", 
                    "originalName": "pound cake", 
                    "original": "1 16-ounce pound cake", 
                    "unit": "ounce"
                }, 
                {
                    "aisle": "Alcoholic Beverages", 
                    "name": "sherry", 
                    "nameClean": "sherry", 
                    "image": "dry-sherry.png", 
                    "measures": {
                        "metric": {
                            "unitLong": "milliliters", 
                            "unitShort": "ml", 
                            "amount": 59.147
                        }, 
                        "us": {
                            "unitLong": "cups", 
                            "unitShort": "cups", 
                            "amount": 0.25
                        }
                    }, 
                    "id": 10214106, 
                    "amount": 0.25, 
                    "meta": [
                        "sweet", 
                        "to taste", 
                        "(or )"
                    ], 
                    "consistency": "liquid", 
                    "originalName": "(or to taste) Sweet Sherry or Port", 
                    "original": "1/4 cup (or to taste) Sweet Sherry or Port", 
                    "unit": "cup"
                }, 
                {
                    "aisle": "Produce", 
                    "name": "strawberries", 
                    "nameClean": "strawberries", 
                    "image": "strawberries.png", 
                    "measures": {
                        "metric": {
                            "unitLong": "pints", 
                            "unitShort": "pts", 
                            "amount": 2.0
                        }, 
                        "us": {
                            "unitLong": "pints", 
                            "unitShort": "pts", 
                            "amount": 2.0
                        }
                    }, 
                    "id": 9316, 
                    "amount": 2.0, 
                    "meta": [
                        "fresh"
                    ], 
                    "consistency": "solid", 
                    "originalName": "fresh strawberries", 
                    "original": "2 pints fresh strawberries", 
                    "unit": "pints"
                }, 
                {
                    "aisle": "Nut butters, Jams, and Honey", 
                    "name": "strawberry preserves", 
                    "nameClean": "strawberry jam", 
                    "image": "strawberry-jam.png", 
                    "measures": {
                        "metric": {
                            "unitLong": "milliliters", 
                            "unitShort": "ml", 
                            "amount": 59.147
                        }, 
                        "us": {
                            "unitLong": "cups", 
                            "unitShort": "cups", 
                            "amount": 0.25
                        }
                    }, 
                    "id": 10819297, 
                    "amount": 0.25, 
                    "meta": [], 
                    "consistency": "solid", 
                    "originalName": "strawberry preserves", 
                    "original": "1/4 cup strawberry preserves", 
                    "unit": "cup"
                }, 
                {
                    "aisle": "Milk, Eggs, Other Dairy", 
                    "name": "unsalted butter", 
                    "nameClean": "unsalted butter", 
                    "image": "butter-sliced.jpg", 
                    "measures": {
                        "metric": {
                            "unitLong": "milliliters", 
                            "unitShort": "ml", 
                            "amount": 118.294
                        }, 
                        "us": {
                            "unitLong": "cups", 
                            "unitShort": "cups", 
                            "amount": 0.5
                        }
                    }, 
                    "id": 1145, 
                    "amount": 0.5, 
                    "meta": [
                        "unsalted", 
                        "room temperature", 
                        "(1 stick)"
                    ], 
                    "consistency": "solid", 
                    "originalName": "(1 stick) unsalted butter, room temperature", 
                    "original": "1/2 cup (1 stick) unsalted butter, room temperature", 
                    "unit": "cup"
                }, 
                {
                    "aisle": "Milk, Eggs, Other Dairy", 
                    "name": "whipped cream", 
                    "nameClean": "whipped cream", 
                    "image": "whipped-cream.jpg", 
                    "measures": {
                        "metric": {
                            "unitLong": "milliliters", 
                            "unitShort": "ml", 
                            "amount": 473.176
                        }, 
                        "us": {
                            "unitLong": "cups", 
                            "unitShort": "cups", 
                            "amount": 2.0
                        }
                    }, 
                    "id": 1054, 
                    "amount": 2.0, 
                    "meta": [
                        "chilled"
                    ], 
                    "consistency": "solid", 
                    "originalName": "whipped cream, chilled", 
                    "original": "2 cups whipped cream, chilled", 
                    "unit": "cups"
                }
            ], 
            "healthScore": 2.0, 
            "imageType": "jpg", 
            "spoonacularScore": 24.0, 
            "sourceUrl": "http://www.foodista.com/recipe/4WVZZX8K/english-berry-trifle", 
            "glutenFree": true, 
            "vegan": false, 
            "veryHealthy": false, 
            "weightWatcherSmartPoints": 12, 
            "analyzedInstructions": [
                {
                    "steps": [
                        {
                            "equipment": [
                                {
                                    "image": "sauce-pan.jpg", 
                                    "id": 404669, 
                                    "name": "sauce pan", 
                                    "localizedName": "sauce pan"
                                }, 
                                {
                                    "image": "whisk.png", 
                                    "id": 404661, 
                                    "name": "whisk", 
                                    "localizedName": "whisk"
                                }
                            ], 
                            "step": "Whisk eggs, sugar, and lemon juice in heavy medium saucepan to blend.", 
                            "number": 1, 
                            "ingredients": [
                                {
                                    "image": "lemon-juice.jpg", 
                                    "id": 9152, 
                                    "name": "lemon juice", 
                                    "localizedName": "lemon juice"
                                }, 
                                {
                                    "image": "sugar-in-bowl.png", 
                                    "id": 19335, 
                                    "name": "sugar", 
                                    "localizedName": "sugar"
                                }, 
                                {
                                    "image": "egg.png", 
                                    "id": 1123, 
                                    "name": "egg", 
                                    "localizedName": "egg"
                                }
                            ]
                        }, 
                        {
                            "equipment": [], 
                            "step": "Add butter and lemon peel. Stir over medium heat until curd thickens to pudding consistency, about 10 minutes.", 
                            "length": {
                                "number": 10, 
                                "unit": "minutes"
                            }, 
                            "number": 2, 
                            "ingredients": [
                                {
                                    "image": "zest-lemon.jpg", 
                                    "id": 9156, 
                                    "name": "lemon peel", 
                                    "localizedName": "lemon peel"
                                }, 
                                {
                                    "image": "butter-sliced.jpg", 
                                    "id": 1001, 
                                    "name": "butter", 
                                    "localizedName": "butter"
                                }
                            ]
                        }
                    ], 
                    "name": "For curd"
                }, 
                {
                    "steps": [
                        {
                            "equipment": [
                                {
                                    "image": "bowl.jpg", 
                                    "id": 404783, 
                                    "name": "bowl", 
                                    "localizedName": "bowl"
                                }
                            ], 
                            "step": "Combine 2 pints strawberries and 1/4 cup sugar in bowl. Mash berries coarsely with fork.", 
                            "number": 1, 
                            "ingredients": [
                                {
                                    "image": "strawberries.png", 
                                    "id": 9316, 
                                    "name": "strawberries", 
                                    "localizedName": "strawberries"
                                }, 
                                {
                                    "image": "berries-mixed.jpg", 
                                    "id": 1009054, 
                                    "name": "berries", 
                                    "localizedName": "berries"
                                }, 
                                {
                                    "image": "sugar-in-bowl.png", 
                                    "id": 19335, 
                                    "name": "sugar", 
                                    "localizedName": "sugar"
                                }
                            ]
                        }, 
                        {
                            "equipment": [], 
                            "step": "Let stand until juices form, stirring occasionally, about 30 minutes.", 
                            "length": {
                                "number": 30, 
                                "unit": "minutes"
                            }, 
                            "number": 2, 
                            "ingredients": []
                        }, 
                        {
                            "equipment": [], 
                            "step": "Cut cake crosswise into 8 pieces.", 
                            "number": 3, 
                            "ingredients": []
                        }, 
                        {
                            "equipment": [
                                {
                                    "image": "bowl.jpg", 
                                    "id": 404783, 
                                    "name": "bowl", 
                                    "localizedName": "bowl"
                                }
                            ], 
                            "step": "Cut each piece into 3 strips. Line bottom of 3-quart trifle bowl with 8 cake strips, trimming to fit.", 
                            "number": 4, 
                            "ingredients": []
                        }, 
                        {
                            "equipment": [
                                {
                                    "image": "bowl.jpg", 
                                    "id": 404783, 
                                    "name": "bowl", 
                                    "localizedName": "bowl"
                                }
                            ], 
                            "step": "Drizzle with 3 tablespoons Sherry or Port; spread with a thin layer of preserves, then spread 2/3 cup curd, then half of mashed berries. Repeat layering. Top with remaining cake, alcohol, preserves, and curd. Cover; chill (preferably overnight).Beat cream and 3 tablespoons sugar in bowl until peaks form; spread over trifle. Mound remaining berries in center.", 
                            "number": 5, 
                            "ingredients": [
                                {
                                    "image": "strawberry-jam.png", 
                                    "id": 19297, 
                                    "name": "preserves", 
                                    "localizedName": "preserves"
                                }, 
                                {
                                    "image": "rum-dark.jpg", 
                                    "id": 14037, 
                                    "name": "alcohol", 
                                    "localizedName": "alcohol"
                                }, 
                                {
                                    "image": "berries-mixed.jpg", 
                                    "id": 1009054, 
                                    "name": "berries", 
                                    "localizedName": "berries"
                                }, 
                                {
                                    "image": "dry-sherry.png", 
                                    "id": 10214106, 
                                    "name": "sherry", 
                                    "localizedName": "sherry"
                                }, 
                                {
                                    "image": "", 
                                    "id": 0, 
                                    "name": "spread", 
                                    "localizedName": "spread"
                                }, 
                                {
                                    "image": "fluid-cream.jpg", 
                                    "id": 1053, 
                                    "name": "cream", 
                                    "localizedName": "cream"
                                }, 
                                {
                                    "image": "sugar-in-bowl.png", 
                                    "id": 19335, 
                                    "name": "sugar", 
                                    "localizedName": "sugar"
                                }, 
                                {
                                    "image": "port.jpg", 
                                    "id": 10114057, 
                                    "name": "port", 
                                    "localizedName": "port"
                                }
                            ]
                        }
                    ], 
                    "name": "Transfer to small bowl. Press plastic wrap onto surface of curd. Chill until cold, at least 4 hours. (Can be made 3 days ahead.)For fruit and topping"
                }
            ], 
            "aggregateLikes": 9, 
            "instructions": "For curd: Whisk eggs, sugar, and lemon juice in heavy medium saucepan to blend. Add butter and lemon peel. Stir over medium heat until curd thickens to pudding consistency, about 10 minutes. Transfer to small bowl. Press plastic wrap onto surface of curd. Chill until cold, at least 4 hours. (Can be made 3 days ahead.)For fruit and topping: Combine 2 pints strawberries and 1/4 cup sugar in bowl. Mash berries coarsely with fork. Let stand until juices form, stirring occasionally, about 30 minutes.Cut cake crosswise into 8 pieces. Cut each piece into 3 strips. Line bottom of 3-quart trifle bowl with 8 cake strips, trimming to fit. Drizzle with 3 tablespoons Sherry or Port; spread with a thin layer of preserves, then spread 2/3 cup curd, then half of mashed berries. Repeat layering. Top with remaining cake, alcohol, preserves, and curd. Cover; chill (preferably overnight).Beat cream and 3 tablespoons sugar in bowl until peaks form; spread over trifle. Mound remaining berries in center.", 
            "license": "CC BY 3.0", 
            "dishTypes": "appetizer", 
            "occasions": [], 
            "vegetarian": false, 
            "spoonacularSourceUrl": "https://spoonacular.com/english-berry-trifle-642413", 
            "originalId": null, 
            "summary": "The recipe English Berry Trifle could satisfy your Scottish craving in roughly 5 hours and 50 minutes. One serving contains 266 calories, 4g of protein, and 9g of fat. For $1.1 per serving, this recipe covers 7% of your daily requirements of vitamins and minerals. This recipe is liked by 9 foodies and cooks. It is a good option if you're following a gluten free diet. If you have sugar, lemon juice, sherry, and a few other ingredients on hand, you can make it. Not a lot of people really liked this dessert. All things considered, we decided this recipe deserves a spoonacular score of 24%. This score is not so awesome. Try English Trifle to Die For, English Trifle, and Old English Trifle for similar recipes.", 
            "readyInMinutes": 350, 
            "servings": 16, 
            "sustainable": false, 
            "dairyFree": false
        }
    ]
}