{
    "recipes": [
        {
            "rating": 4, 
            "sourceName": "Foodista", 
            "cuisines": "French", 
            "image": "https://spoonacular.com/recipeImages/639597-556x370.jpg", 
            "cheap": false, 
            "gaps": "no", 
            "creditsText": "Foodista.com \u2013 The Cooking Encyclopedia Everyone Can Edit", 
            "id": 40, 
            "veryPopular": false, 
            "lowFodmap": false, 
            "title": "French Onion Soup", 
            "diets": [], 
            "pricePerServing": 293.89, 
            "extendedIngredients": [
                {
                    "aisle": "Milk, Eggs, Other Dairy", 
                    "name": "salted butter", 
                    "nameClean": "salted butter", 
                    "image": "butter.jpg", 
                    "measures": {
                        "metric": {
                            "unitLong": "milliliters", 
                            "unitShort": "ml", 
                            "amount": 59.147
                        }, 
                        "us": {
                            "unitLong": "cups", 
                            "unitShort": "cups", 
                            "amount": 0.25
                        }
                    }, 
                    "id": 1001001, 
                    "amount": 0.25, 
                    "meta": [
                        "salted"
                    ], 
                    "consistency": "solid", 
                    "originalName": "salted butter", 
                    "original": "\u00bc cup salted butter", 
                    "unit": "cup"
                }, 
                {
                    "aisle": "Produce", 
                    "name": "yellow onions", 
                    "nameClean": "yellow onion", 
                    "image": "brown-onion.png", 
                    "measures": {
                        "metric": {
                            "unitLong": "", 
                            "unitShort": "", 
                            "amount": 4.0
                        }, 
                        "us": {
                            "unitLong": "", 
                            "unitShort": "", 
                            "amount": 4.0
                        }
                    }, 
                    "id": 10511282, 
                    "amount": 4.0, 
                    "meta": [
                        "yellow", 
                        "finely sliced"
                    ], 
                    "consistency": "solid", 
                    "originalName": "yellow onions, finely sliced", 
                    "original": "4-6 yellow onions, finely sliced", 
                    "unit": ""
                }, 
                {
                    "aisle": "Baking", 
                    "name": "flour", 
                    "nameClean": "wheat flour", 
                    "image": "flour.png", 
                    "measures": {
                        "metric": {
                            "unitLong": "teaspoons", 
                            "unitShort": "tsps", 
                            "amount": 0.25
                        }, 
                        "us": {
                            "unitLong": "teaspoons", 
                            "unitShort": "tsps", 
                            "amount": 0.25
                        }
                    }, 
                    "id": 20081, 
                    "amount": 0.25, 
                    "meta": [], 
                    "consistency": "solid", 
                    "originalName": "flour", 
                    "original": "\u00bc Tsp. flour", 
                    "unit": "Tsp"
                }, 
                {
                    "aisle": "Alcoholic Beverages", 
                    "name": "sherry", 
                    "nameClean": "sherry", 
                    "image": "dry-sherry.png", 
                    "measures": {
                        "metric": {
                            "unitLong": "milliliters", 
                            "unitShort": "ml", 
                            "amount": 118.294
                        }, 
                        "us": {
                            "unitLong": "cups", 
                            "unitShort": "cups", 
                            "amount": 0.5
                        }
                    }, 
                    "id": 10214106, 
                    "amount": 0.5, 
                    "meta": [], 
                    "consistency": "liquid", 
                    "originalName": "sherry", 
                    "original": "\u00bd cup sherry", 
                    "unit": "cup"
                }, 
                {
                    "aisle": "Canned and Jarred", 
                    "name": "beef broth", 
                    "nameClean": "beef broth", 
                    "image": "beef-broth.png", 
                    "measures": {
                        "metric": {
                            "unitLong": "liters", 
                            "unitShort": "l", 
                            "amount": 1.183
                        }, 
                        "us": {
                            "unitLong": "cups", 
                            "unitShort": "cups", 
                            "amount": 5.0
                        }
                    }, 
                    "id": 6008, 
                    "amount": 5.0, 
                    "meta": [], 
                    "consistency": "liquid", 
                    "originalName": "beef broth", 
                    "original": "5 cups beef broth", 
                    "unit": "cups"
                }, 
                {
                    "aisle": "Produce;Spices and Seasonings", 
                    "name": "fresh thyme", 
                    "nameClean": "thyme", 
                    "image": "thyme.jpg", 
                    "measures": {
                        "metric": {
                            "unitLong": "sprigs", 
                            "unitShort": "sprigs", 
                            "amount": 3.0
                        }, 
                        "us": {
                            "unitLong": "sprigs", 
                            "unitShort": "sprigs", 
                            "amount": 3.0
                        }
                    }, 
                    "id": 2049, 
                    "amount": 3.0, 
                    "meta": [
                        "fresh"
                    ], 
                    "consistency": "solid", 
                    "originalName": "fresh thyme", 
                    "original": "3 sprigs fresh thyme", 
                    "unit": "sprigs"
                }, 
                {
                    "aisle": "Produce;Spices and Seasonings", 
                    "name": "fresh parsley", 
                    "nameClean": "parsley", 
                    "image": "parsley.jpg", 
                    "measures": {
                        "metric": {
                            "unitLong": "sprigs", 
                            "unitShort": "sprigs", 
                            "amount": 3.0
                        }, 
                        "us": {
                            "unitLong": "sprigs", 
                            "unitShort": "sprigs", 
                            "amount": 3.0
                        }
                    }, 
                    "id": 11297, 
                    "amount": 3.0, 
                    "meta": [
                        "fresh"
                    ], 
                    "consistency": "solid", 
                    "originalName": "fresh parsley", 
                    "original": "3 sprigs fresh parsley", 
                    "unit": "sprigs"
                }, 
                {
                    "aisle": "Spices and Seasonings", 
                    "name": "bay leaf", 
                    "nameClean": "bay leaves", 
                    "image": "bay-leaves.jpg", 
                    "measures": {
                        "metric": {
                            "unitLong": "", 
                            "unitShort": "", 
                            "amount": 1.0
                        }, 
                        "us": {
                            "unitLong": "", 
                            "unitShort": "", 
                            "amount": 1.0
                        }
                    }, 
                    "id": 2004, 
                    "amount": 1.0, 
                    "meta": [], 
                    "consistency": "solid", 
                    "originalName": "bay leaf", 
                    "original": "1 bay leaf", 
                    "unit": ""
                }, 
                {
                    "aisle": "Spices and Seasonings", 
                    "name": "salt and pepper", 
                    "nameClean": "salt and pepper", 
                    "image": "salt-and-pepper.jpg", 
                    "measures": {
                        "metric": {
                            "unitLong": "serving", 
                            "unitShort": "serving", 
                            "amount": 1.0
                        }, 
                        "us": {
                            "unitLong": "serving", 
                            "unitShort": "serving", 
                            "amount": 1.0
                        }
                    }, 
                    "id": 1102047, 
                    "amount": 1.0, 
                    "meta": [
                        "to taste"
                    ], 
                    "consistency": "solid", 
                    "originalName": "salt and pepper to taste", 
                    "original": "salt and pepper to taste", 
                    "unit": "serving"
                }, 
                {
                    "aisle": "Bakery/Bread", 
                    "name": "baguette", 
                    "nameClean": "thin baguette", 
                    "image": "half-baguette.jpg", 
                    "measures": {
                        "metric": {
                            "unitLong": "slices", 
                            "unitShort": "slice", 
                            "amount": 4.0
                        }, 
                        "us": {
                            "unitLong": "slices", 
                            "unitShort": "slice", 
                            "amount": 4.0
                        }
                    }, 
                    "id": 18033, 
                    "amount": 4.0, 
                    "meta": [
                        "french"
                    ], 
                    "consistency": "solid", 
                    "originalName": "a crusty French baguette", 
                    "original": "4 slices of a crusty French baguette", 
                    "unit": "slices"
                }, 
                {
                    "aisle": "Cheese", 
                    "name": "gruyere cheese", 
                    "nameClean": "gruyere", 
                    "image": "gruyere.jpg", 
                    "measures": {
                        "metric": {
                            "unitLong": "milliliters", 
                            "unitShort": "ml", 
                            "amount": 236.588
                        }, 
                        "us": {
                            "unitLong": "cup", 
                            "unitShort": "cup", 
                            "amount": 1.0
                        }
                    }, 
                    "id": 1023, 
                    "amount": 1.0, 
                    "meta": [
                        "shredded"
                    ], 
                    "consistency": "solid", 
                    "originalName": "gruyere cheese, shredded", 
                    "original": "1 cup gruyere cheese, shredded", 
                    "unit": "cup"
                }
            ], 
            "healthScore": 6.0, 
            "imageType": "jpg", 
            "spoonacularScore": 41.0, 
            "sourceUrl": "https://www.foodista.com/recipe/YJ4JZ8ZP/classic-french-onion-soup", 
            "glutenFree": false, 
            "vegan": false, 
            "veryHealthy": false, 
            "weightWatcherSmartPoints": 15, 
            "analyzedInstructions": [
                {
                    "steps": [
                        {
                            "equipment": [
                                {
                                    "image": "oven.jpg", 
                                    "id": 404784, 
                                    "name": "oven", 
                                    "localizedName": "oven"
                                }
                            ], 
                            "step": "Preheat oven to 400", 
                            "number": 1, 
                            "ingredients": []
                        }, 
                        {
                            "equipment": [
                                {
                                    "image": "dutch-oven.jpg", 
                                    "id": 404667, 
                                    "name": "dutch oven", 
                                    "localizedName": "dutch oven"
                                }
                            ], 
                            "step": "In a large Dutch oven, melt butter over medium heat.", 
                            "number": 2, 
                            "ingredients": [
                                {
                                    "image": "butter-sliced.jpg", 
                                    "id": 1001, 
                                    "name": "butter", 
                                    "localizedName": "butter"
                                }
                            ]
                        }, 
                        {
                            "equipment": [
                                {
                                    "image": "stock-pot.jpg", 
                                    "id": 404752, 
                                    "name": "pot", 
                                    "localizedName": "pot"
                                }
                            ], 
                            "step": "Add onions to the pot and sprinkle with flour. Reduce heat to medium low and cook for 45 minutes stirring occasionally. If the onions are cooking too quickly, reduce heat.", 
                            "length": {
                                "number": 45, 
                                "unit": "minutes"
                            }, 
                            "number": 3, 
                            "ingredients": [
                                {
                                    "image": "brown-onion.png", 
                                    "id": 11282, 
                                    "name": "onion", 
                                    "localizedName": "onion"
                                }, 
                                {
                                    "image": "flour.png", 
                                    "id": 20081, 
                                    "name": "all purpose flour", 
                                    "localizedName": "all purpose flour"
                                }
                            ]
                        }, 
                        {
                            "equipment": [
                                {
                                    "image": "pan.png", 
                                    "id": 404645, 
                                    "name": "frying pan", 
                                    "localizedName": "frying pan"
                                }
                            ], 
                            "step": "When the onions are tender and golden in colour, de-glaze the pan with sherry.", 
                            "number": 4, 
                            "ingredients": [
                                {
                                    "image": "brown-onion.png", 
                                    "id": 11282, 
                                    "name": "onion", 
                                    "localizedName": "onion"
                                }, 
                                {
                                    "image": "dry-sherry.png", 
                                    "id": 10214106, 
                                    "name": "sherry", 
                                    "localizedName": "sherry"
                                }, 
                                {
                                    "image": "", 
                                    "id": 0, 
                                    "name": "glaze", 
                                    "localizedName": "glaze"
                                }
                            ]
                        }, 
                        {
                            "equipment": [
                                {
                                    "image": "stock-pot.jpg", 
                                    "id": 404752, 
                                    "name": "pot", 
                                    "localizedName": "pot"
                                }
                            ], 
                            "step": "Pour beef broth into the pot and bring to a boil over medium heat.", 
                            "number": 5, 
                            "ingredients": [
                                {
                                    "image": "beef-broth.png", 
                                    "id": 6008, 
                                    "name": "beef broth", 
                                    "localizedName": "beef broth"
                                }
                            ]
                        }, 
                        {
                            "equipment": [], 
                            "step": "Add herbs, salt and pepper to taste.", 
                            "number": 6, 
                            "ingredients": [
                                {
                                    "image": "salt-and-pepper.jpg", 
                                    "id": 1102047, 
                                    "name": "salt and pepper", 
                                    "localizedName": "salt and pepper"
                                }, 
                                {
                                    "image": "mixed-fresh-herbs.jpg", 
                                    "id": 1002044, 
                                    "name": "herbs", 
                                    "localizedName": "herbs"
                                }
                            ]
                        }, 
                        {
                            "equipment": [], 
                            "step": "Reduce heat and simmer for 15 minutes.", 
                            "length": {
                                "number": 15, 
                                "unit": "minutes"
                            }, 
                            "number": 7, 
                            "ingredients": []
                        }, 
                        {
                            "equipment": [
                                {
                                    "image": "baking-sheet.jpg", 
                                    "id": 404727, 
                                    "name": "baking sheet", 
                                    "localizedName": "baking sheet"
                                }, 
                                {
                                    "image": "oven.jpg", 
                                    "id": 404784, 
                                    "name": "oven", 
                                    "localizedName": "oven"
                                }
                            ], 
                            "step": "Spray a cookie sheet with cooking spray. Butter slices of French bread and bake in the oven for 5-10 minutes until very dry. Set aside.", 
                            "length": {
                                "number": 10, 
                                "unit": "minutes"
                            }, 
                            "number": 8, 
                            "ingredients": [
                                {
                                    "image": "cooking-spray.png", 
                                    "id": 4679, 
                                    "name": "cooking spray", 
                                    "localizedName": "cooking spray"
                                }, 
                                {
                                    "image": "crusty-bread.jpg", 
                                    "id": 18029, 
                                    "name": "french bread", 
                                    "localizedName": "french bread"
                                }, 
                                {
                                    "image": "butter-sliced.jpg", 
                                    "id": 1001, 
                                    "name": "butter", 
                                    "localizedName": "butter"
                                }, 
                                {
                                    "image": "shortbread-cookies.jpg", 
                                    "id": 10118192, 
                                    "name": "cookies", 
                                    "localizedName": "cookies"
                                }
                            ]
                        }, 
                        {
                            "equipment": [], 
                            "step": "Remove herb stalks and bay leaf.", 
                            "number": 9, 
                            "ingredients": [
                                {
                                    "image": "bay-leaves.jpg", 
                                    "id": 2004, 
                                    "name": "bay leaves", 
                                    "localizedName": "bay leaves"
                                }
                            ]
                        }, 
                        {
                            "equipment": [
                                {
                                    "image": "ramekin.jpg", 
                                    "id": 404781, 
                                    "name": "ramekin", 
                                    "localizedName": "ramekin"
                                }, 
                                {
                                    "image": "ladle.jpg", 
                                    "id": 404630, 
                                    "name": "ladle", 
                                    "localizedName": "ladle"
                                }, 
                                {
                                    "image": "oven.jpg", 
                                    "id": 404784, 
                                    "name": "oven", 
                                    "localizedName": "oven"
                                }
                            ], 
                            "step": "Ladle soup portions into four oven safe ramekins. Top with crusty French bread and sprinkle with cheese.", 
                            "number": 10, 
                            "ingredients": [
                                {
                                    "image": "crusty-bread.jpg", 
                                    "id": 18029, 
                                    "name": "french bread", 
                                    "localizedName": "french bread"
                                }, 
                                {
                                    "image": "cheddar-cheese.png", 
                                    "id": 1041009, 
                                    "name": "cheese", 
                                    "localizedName": "cheese"
                                }, 
                                {
                                    "image": "", 
                                    "id": 0, 
                                    "name": "soup", 
                                    "localizedName": "soup"
                                }
                            ]
                        }, 
                        {
                            "equipment": [
                                {
                                    "image": "baking-sheet.jpg", 
                                    "id": 404727, 
                                    "name": "baking sheet", 
                                    "localizedName": "baking sheet"
                                }, 
                                {
                                    "image": "oven.jpg", 
                                    "id": 404784, 
                                    "name": "oven", 
                                    "localizedName": "oven"
                                }, 
                                {
                                    "image": "ramekin.jpg", 
                                    "id": 404781, 
                                    "name": "ramekin", 
                                    "localizedName": "ramekin"
                                }
                            ], 
                            "step": "Place ramekins on a cookie sheet and bake uncovered at 400 for 5-10 minutes until cheese is bubbling. Broil for one minute more to brown the top.", 
                            "length": {
                                "number": 11, 
                                "unit": "minutes"
                            }, 
                            "number": 11, 
                            "ingredients": [
                                {
                                    "image": "cheddar-cheese.png", 
                                    "id": 1041009, 
                                    "name": "cheese", 
                                    "localizedName": "cheese"
                                }, 
                                {
                                    "image": "shortbread-cookies.jpg", 
                                    "id": 10118192, 
                                    "name": "cookies", 
                                    "localizedName": "cookies"
                                }
                            ]
                        }, 
                        {
                            "equipment": [], 
                            "step": "Serve warm.", 
                            "number": 12, 
                            "ingredients": []
                        }, 
                        {
                            "equipment": [], 
                            "step": "Serves 4", 
                            "number": 13, 
                            "ingredients": []
                        }
                    ], 
                    "name": ""
                }
            ], 
            "aggregateLikes": 19, 
            "instructions": "Preheat oven to 400\nIn a large Dutch oven, melt butter over medium heat.\nAdd onions to the pot and sprinkle with flour. Reduce heat to medium low and cook for 45 minutes stirring occasionally. If the onions are cooking too quickly, reduce heat.\nWhen the onions are tender and golden in colour, de-glaze the pan with sherry.\nPour beef broth into the pot and bring to a boil over medium heat. Add herbs, salt and pepper to taste.\nReduce heat and simmer for 15 minutes.\nSpray a cookie sheet with cooking spray. Butter slices of French bread and bake in the oven for 5-10 minutes until very dry. Set aside.\nRemove herb stalks and bay leaf.\nLadle soup portions into four oven safe ramekins. Top with crusty French bread and sprinkle with cheese. Place ramekins on a cookie sheet and bake uncovered at 400 for 5-10 minutes until cheese is bubbling. Broil for one minute more to brown the top.\nServe warm.\nServes 4", 
            "license": "CC BY 3.0", 
            "dishTypes": "soup", 
            "occasions": [
                "fall", 
                "winter"
            ], 
            "vegetarian": false, 
            "spoonacularSourceUrl": "https://spoonacular.com/classic-french-onion-soup-639597", 
            "originalId": null, 
            "summary": "If you want to add more Mediterranean recipes to your collection, Classic French Onion Soup might be a recipe you should try. For $2.94 per serving, you get a main course that serves 4. One portion of this dish contains approximately 18g of protein, 24g of fat, and a total of 416 calories. 19 people were impressed by this recipe. If you have salt and pepper, parsley, flour, and a few other ingredients on hand, you can make it. It will be a hit at your Autumn event. It is brought to you by Foodista. From preparation to the plate, this recipe takes around around 45 minutes. Taking all factors into account, this recipe earns a spoonacular score of 39%, which is rather bad. If you like this recipe, you might also like recipes such as Le Cafe Ile St. Louis Onion Soup Gratinee \u2013 this is a new take on the classic French Onion Soup, Classic French Onion Soup, and Classic French Onion Soup.", 
            "readyInMinutes": 45, 
            "servings": 4, 
            "sustainable": false, 
            "dairyFree": false
        }
    ]
}