{
    "rating": 4, 
    "sourceName": "Cooking Classy", 
    "cuisines": "Greek", 
    "image": "https://spoonacular.com/recipeImages/893017-556x370.jpg", 
    "cheap": false, 
    "gaps": "no", 
    "creditsText": "Cooking Classy", 
    "cookingMinutes": 20, 
    "id": 46, 
    "veryPopular": true, 
    "lowFodmap": false, 
    "title": "Greek Chicken Kebabs", 
    "diets": [
        "gluten free", 
        "dairy free", 
        "paleolithic", 
        "primal"
    ], 
    "preparationMinutes": 30, 
    "pricePerServing": 84.74, 
    "extendedIngredients": [
        {
            "aisle": "Meat", 
            "name": "bonless chicken breasts", 
            "nameClean": "chicken breast", 
            "image": "chicken-breasts.png", 
            "measures": {
                "metric": {
                    "unitLong": "grams", 
                    "unitShort": "g", 
                    "amount": 340.194
                }, 
                "us": {
                    "unitLong": "pounds", 
                    "unitShort": "lb", 
                    "amount": 0.75
                }
            }, 
            "id": 5062, 
            "amount": 0.75, 
            "meta": [
                "diced", 
                "skinless"
            ], 
            "consistency": "solid", 
            "originalName": "bonless skinless chicken breasts , diced into 1 1/4-inch cubes", 
            "original": "1 3/4 lbs bonless skinless chicken breasts , diced into 1 1/4-inch cubes", 
            "unit": "lbs"
        }, 
        {
            "aisle": "Oil, Vinegar, Salad Dressing", 
            "name": "tbsp olive oil", 
            "nameClean": "olive oil", 
            "image": "olive-oil.jpg", 
            "measures": {
                "metric": {
                    "unitLong": "milliliters", 
                    "unitShort": "ml", 
                    "amount": 59.147
                }, 
                "us": {
                    "unitLong": "cups", 
                    "unitShort": "cups", 
                    "amount": 0.25
                }
            }, 
            "id": 4053, 
            "amount": 0.25, 
            "meta": [
                "divided", 
                "plus more for grill"
            ], 
            "consistency": "liquid", 
            "originalName": "2 Tbsp olive oil , divided, plus more for grill", 
            "original": "1/4 cup + 2 Tbsp olive oil , divided, plus more for grill", 
            "unit": "cup"
        }, 
        {
            "aisle": "Produce", 
            "name": "lemon juice", 
            "nameClean": "lemon juice", 
            "image": "lemon-juice.jpg", 
            "measures": {
                "metric": {
                    "unitLong": "Tbsps", 
                    "unitShort": "Tbsps", 
                    "amount": 3.0
                }, 
                "us": {
                    "unitLong": "Tbsps", 
                    "unitShort": "Tbsps", 
                    "amount": 3.0
                }
            }, 
            "id": 9152, 
            "amount": 3.0, 
            "meta": [
                "fresh"
            ], 
            "consistency": "liquid", 
            "originalName": "fresh lemon juice", 
            "original": "3 Tbsp fresh lemon juice", 
            "unit": "Tbsp"
        }, 
        {
            "aisle": "Oil, Vinegar, Salad Dressing", 
            "name": "red wine vinegar", 
            "nameClean": "red wine vinegar", 
            "image": "red-wine-vinegar.jpg", 
            "measures": {
                "metric": {
                    "unitLong": "Tbsp", 
                    "unitShort": "Tbsp", 
                    "amount": 1.0
                }, 
                "us": {
                    "unitLong": "Tbsp", 
                    "unitShort": "Tbsp", 
                    "amount": 1.0
                }
            }, 
            "id": 1022068, 
            "amount": 1.0, 
            "meta": [], 
            "consistency": "liquid", 
            "originalName": "red wine vinegar", 
            "original": "1 Tbsp red wine vinegar", 
            "unit": "Tbsp"
        }, 
        {
            "aisle": "Produce", 
            "name": "garlic", 
            "nameClean": "garlic", 
            "image": "garlic.png", 
            "measures": {
                "metric": {
                    "unitLong": "cloves", 
                    "unitShort": "cloves", 
                    "amount": 3.0
                }, 
                "us": {
                    "unitLong": "cloves", 
                    "unitShort": "cloves", 
                    "amount": 3.0
                }
            }, 
            "id": 11215, 
            "amount": 3.0, 
            "meta": [
                "minced"
            ], 
            "consistency": "solid", 
            "originalName": "garlic , minced", 
            "original": "3 cloves garlic , minced", 
            "unit": "cloves"
        }, 
        {
            "aisle": "Produce;Spices and Seasonings", 
            "name": "oregano", 
            "nameClean": "oregano", 
            "image": "oregano.jpg", 
            "measures": {
                "metric": {
                    "unitLong": "teaspoons", 
                    "unitShort": "tsps", 
                    "amount": 2.5
                }, 
                "us": {
                    "unitLong": "teaspoons", 
                    "unitShort": "tsps", 
                    "amount": 2.5
                }
            }, 
            "id": 2027, 
            "amount": 2.5, 
            "meta": [
                "dried", 
                "divided"
            ], 
            "consistency": "solid", 
            "originalName": "dried oregano, divided", 
            "original": "2 1/2 tsp dried oregano, divided", 
            "unit": "tsp"
        }, 
        {
            "aisle": "Spices and Seasonings", 
            "name": "basil", 
            "nameClean": "dried basil", 
            "image": "basil.jpg", 
            "measures": {
                "metric": {
                    "unitLong": "teaspoons", 
                    "unitShort": "tsps", 
                    "amount": 1.5
                }, 
                "us": {
                    "unitLong": "teaspoons", 
                    "unitShort": "tsps", 
                    "amount": 1.5
                }
            }, 
            "id": 2003, 
            "amount": 1.5, 
            "meta": [
                "dried", 
                "divided"
            ], 
            "consistency": "solid", 
            "originalName": "dried basil, divided", 
            "original": "1 1/2 tsp dried basil, divided", 
            "unit": "tsp"
        }, 
        {
            "aisle": "Spices and Seasonings", 
            "name": "thyme", 
            "nameClean": "dried thyme", 
            "image": "thyme.jpg", 
            "measures": {
                "metric": {
                    "unitLong": "teaspoons", 
                    "unitShort": "tsps", 
                    "amount": 0.5
                }, 
                "us": {
                    "unitLong": "teaspoons", 
                    "unitShort": "tsps", 
                    "amount": 0.5
                }
            }, 
            "id": 2042, 
            "amount": 0.5, 
            "meta": [
                "dried"
            ], 
            "consistency": "solid", 
            "originalName": "dried thyme", 
            "original": "1/2 tsp dried thyme", 
            "unit": "tsp"
        }, 
        {
            "aisle": "Spices and Seasonings", 
            "name": "ground coriander", 
            "nameClean": "ground coriander", 
            "image": "ground-coriander.jpg", 
            "measures": {
                "metric": {
                    "unitLong": "teaspoons", 
                    "unitShort": "tsps", 
                    "amount": 0.5
                }, 
                "us": {
                    "unitLong": "teaspoons", 
                    "unitShort": "tsps", 
                    "amount": 0.5
                }
            }, 
            "id": 1002013, 
            "amount": 0.5, 
            "meta": [], 
            "consistency": "solid", 
            "originalName": "ground coriander", 
            "original": "1/2 tsp ground coriander", 
            "unit": "tsp"
        }, 
        {
            "aisle": "Spices and Seasonings", 
            "name": "salt and pepper", 
            "nameClean": "black pepper", 
            "image": "pepper.jpg", 
            "measures": {
                "metric": {
                    "unitLong": "serving", 
                    "unitShort": "serving", 
                    "amount": 1.0
                }, 
                "us": {
                    "unitLong": "serving", 
                    "unitShort": "serving", 
                    "amount": 1.0
                }
            }, 
            "id": 1002030, 
            "amount": 1.0, 
            "meta": [
                "black", 
                "freshly ground"
            ], 
            "consistency": "solid", 
            "originalName": "Salt and freshly ground black pepper", 
            "original": "Salt and freshly ground black pepper", 
            "unit": "serving"
        }, 
        {
            "aisle": "Produce", 
            "name": "bell peppers", 
            "nameClean": "red pepper", 
            "image": "red-pepper.jpg", 
            "measures": {
                "metric": {
                    "unitLong": "larges", 
                    "unitShort": "large", 
                    "amount": 2.0
                }, 
                "us": {
                    "unitLong": "larges", 
                    "unitShort": "large", 
                    "amount": 2.0
                }
            }, 
            "id": 11821, 
            "amount": 2.0, 
            "meta": [
                "diced", 
                "red"
            ], 
            "consistency": "solid", 
            "originalName": "red bell peppers , diced into 1 1/4-inch pieces", 
            "original": "2 large red bell peppers , diced into 1 1/4-inch pieces", 
            "unit": "large"
        }, 
        {
            "aisle": "Produce", 
            "name": "zucchini", 
            "nameClean": "zucchini", 
            "image": "zucchini.jpg", 
            "measures": {
                "metric": {
                    "unitLong": "smalls", 
                    "unitShort": "small", 
                    "amount": 3.0
                }, 
                "us": {
                    "unitLong": "smalls", 
                    "unitShort": "small", 
                    "amount": 3.0
                }
            }, 
            "id": 11477, 
            "amount": 3.0, 
            "meta": [
                "sliced into rounds slightly under 1/", 
                "(nearly 1 lb)"
            ], 
            "consistency": "solid", 
            "originalName": "zucchini (nearly 1 lb), sliced into rounds slightly under 1/2-inch thick", 
            "original": "3 small zucchini (nearly 1 lb), sliced into rounds slightly under 1/2-inch thick", 
            "unit": "small"
        }, 
        {
            "aisle": "Produce", 
            "name": "onion", 
            "nameClean": "red onion", 
            "image": "red-onion.png", 
            "measures": {
                "metric": {
                    "unitLong": "large", 
                    "unitShort": "large", 
                    "amount": 1.0
                }, 
                "us": {
                    "unitLong": "large", 
                    "unitShort": "large", 
                    "amount": 1.0
                }
            }, 
            "id": 10011282, 
            "amount": 1.0, 
            "meta": [
                "diced", 
                "red"
            ], 
            "consistency": "solid", 
            "originalName": "red onion , diced into 1 1/4-inch wedges", 
            "original": "1 large red onion , diced into 1 1/4-inch wedges", 
            "unit": "large"
        }
    ], 
    "healthScore": 15.0, 
    "imageType": "jpg", 
    "spoonacularScore": 91.0, 
    "sourceUrl": "https://www.cookingclassy.com/greek-chicken-kebabs-with-tzatziki-sauce/", 
    "glutenFree": true, 
    "vegan": false, 
    "veryHealthy": false, 
    "weightWatcherSmartPoints": 2, 
    "analyzedInstructions": [
        {
            "steps": [
                {
                    "equipment": [
                        {
                            "image": "whisk.png", 
                            "id": 404661, 
                            "name": "whisk", 
                            "localizedName": "whisk"
                        }, 
                        {
                            "image": "bowl.jpg", 
                            "id": 404783, 
                            "name": "bowl", 
                            "localizedName": "bowl"
                        }
                    ], 
                    "step": "In a bowl whisk together 1/4 cup olive oil, lemon juice, vinegar, garlic, 2 tsp oregano, 1 tsp basil, the thyme, coriander and season with salt and pepper to taste (I used 3/4 tsp salt 1/4 tsp pepper).\u00a0", 
                    "number": 1, 
                    "ingredients": [
                        {
                            "image": "salt-and-pepper.jpg", 
                            "id": 1102047, 
                            "name": "salt and pepper", 
                            "localizedName": "salt and pepper"
                        }, 
                        {
                            "image": "lemon-juice.jpg", 
                            "id": 9152, 
                            "name": "lemon juice", 
                            "localizedName": "lemon juice"
                        }, 
                        {
                            "image": "ground-coriander.jpg", 
                            "id": 1012013, 
                            "name": "coriander", 
                            "localizedName": "coriander"
                        }, 
                        {
                            "image": "olive-oil.jpg", 
                            "id": 4053, 
                            "name": "olive oil", 
                            "localizedName": "olive oil"
                        }, 
                        {
                            "image": "oregano.jpg", 
                            "id": 2027, 
                            "name": "oregano", 
                            "localizedName": "oregano"
                        }, 
                        {
                            "image": "vinegar-(white).jpg", 
                            "id": 2053, 
                            "name": "vinegar", 
                            "localizedName": "vinegar"
                        }, 
                        {
                            "image": "garlic.png", 
                            "id": 11215, 
                            "name": "garlic", 
                            "localizedName": "garlic"
                        }, 
                        {
                            "image": "pepper.jpg", 
                            "id": 1002030, 
                            "name": "pepper", 
                            "localizedName": "pepper"
                        }, 
                        {
                            "image": "basil.jpg", 
                            "id": 2044, 
                            "name": "basil", 
                            "localizedName": "basil"
                        }, 
                        {
                            "image": "thyme.jpg", 
                            "id": 2049, 
                            "name": "thyme", 
                            "localizedName": "thyme"
                        }, 
                        {
                            "image": "salt.jpg", 
                            "id": 2047, 
                            "name": "salt", 
                            "localizedName": "salt"
                        }
                    ]
                }, 
                {
                    "equipment": [
                        {
                            "image": "wooden-skewers.jpg", 
                            "id": 405601, 
                            "name": "wooden skewers", 
                            "localizedName": "wooden skewers"
                        }
                    ], 
                    "step": "Place chicken in a gallon size resealable bag, pour olive oil mixture over chicken and press chicken into marinade. Seal bag and refrigerate 45 minutes to 2 hours (no longer than 2 hours or the chicken will start to get mealy because of the acidic ingredients). If using wooden skewers soak them in water for 30 minutes.", 
                    "length": {
                        "number": 315, 
                        "unit": "minutes"
                    }, 
                    "number": 2, 
                    "ingredients": [
                        {
                            "image": "olive-oil.jpg", 
                            "id": 4053, 
                            "name": "olive oil", 
                            "localizedName": "olive oil"
                        }, 
                        {
                            "image": "seasoning.png", 
                            "id": 0, 
                            "name": "marinade", 
                            "localizedName": "marinade"
                        }, 
                        {
                            "image": "whole-chicken.jpg", 
                            "id": 5006, 
                            "name": "whole chicken", 
                            "localizedName": "whole chicken"
                        }, 
                        {
                            "image": "water.png", 
                            "id": 14412, 
                            "name": "water", 
                            "localizedName": "water"
                        }
                    ]
                }, 
                {
                    "equipment": [
                        {
                            "image": "cutting-board.jpg", 
                            "id": 404716, 
                            "name": "cutting board", 
                            "localizedName": "cutting board"
                        }
                    ], 
                    "step": "Drizzle and toss veggies with 2 Tbsp of the olive oil (I just left them on the cutting board and tossed them) and season with remaining 1/2 tsp oregano, 1/2 tsp basil and salt to taste.", 
                    "number": 3, 
                    "ingredients": [
                        {
                            "image": "olive-oil.jpg", 
                            "id": 4053, 
                            "name": "olive oil", 
                            "localizedName": "olive oil"
                        }, 
                        {
                            "image": "oregano.jpg", 
                            "id": 2027, 
                            "name": "oregano", 
                            "localizedName": "oregano"
                        }, 
                        {
                            "image": "basil.jpg", 
                            "id": 2044, 
                            "name": "basil", 
                            "localizedName": "basil"
                        }, 
                        {
                            "image": "salt.jpg", 
                            "id": 2047, 
                            "name": "salt", 
                            "localizedName": "salt"
                        }
                    ]
                }, 
                {
                    "equipment": [
                        {
                            "image": "wooden-skewers.jpg", 
                            "id": 3065, 
                            "name": "skewers", 
                            "localizedName": "skewers"
                        }, 
                        {
                            "image": "grill.jpg", 
                            "id": 404706, 
                            "name": "grill", 
                            "localizedName": "grill"
                        }
                    ], 
                    "step": "Preheat a grill over medium-high heat. Thread a red bell pepper, red onion, zucchini, 2 chicken pieces on to skewer and repeat twice.", 
                    "number": 4, 
                    "ingredients": [
                        {
                            "image": "red-pepper.jpg", 
                            "id": 11821, 
                            "name": "red pepper", 
                            "localizedName": "red pepper"
                        }, 
                        {
                            "image": "chicken-parts.jpg", 
                            "id": 1005006, 
                            "name": "chicken pieces", 
                            "localizedName": "chicken pieces"
                        }, 
                        {
                            "image": "red-onion.png", 
                            "id": 10011282, 
                            "name": "red onion", 
                            "localizedName": "red onion"
                        }, 
                        {
                            "image": "zucchini.jpg", 
                            "id": 11477, 
                            "name": "zucchini", 
                            "localizedName": "zucchini"
                        }
                    ]
                }, 
                {
                    "equipment": [
                        {
                            "image": "wooden-skewers.jpg", 
                            "id": 3065, 
                            "name": "skewers", 
                            "localizedName": "skewers"
                        }, 
                        {
                            "image": "grill.jpg", 
                            "id": 404706, 
                            "name": "grill", 
                            "localizedName": "grill"
                        }
                    ], 
                    "step": "Brush grill lightly with olive oil, place skewers on grill and grill until chicken registers 165\u00b0F (73\u00b0C) in center, about 8 - 12 minutes, rotating once halfway through cooking.", 
                    "length": {
                        "number": 12, 
                        "unit": "minutes"
                    }, 
                    "number": 5, 
                    "ingredients": [
                        {
                            "image": "olive-oil.jpg", 
                            "id": 4053, 
                            "name": "olive oil", 
                            "localizedName": "olive oil"
                        }, 
                        {
                            "image": "whole-chicken.jpg", 
                            "id": 5006, 
                            "name": "whole chicken", 
                            "localizedName": "whole chicken"
                        }
                    ]
                }, 
                {
                    "equipment": [], 
                    "step": "Garnish with parsley, serve warm with tzatziki sauce.", 
                    "number": 6, 
                    "ingredients": [
                        {
                            "image": "raita-or-tzaziki.png", 
                            "id": 93777, 
                            "name": "tzatziki", 
                            "localizedName": "tzatziki"
                        }, 
                        {
                            "image": "parsley.jpg", 
                            "id": 11297, 
                            "name": "parsley", 
                            "localizedName": "parsley"
                        }
                    ]
                }
            ], 
            "name": "For the kebabs"
        }
    ], 
    "winePairing": {}, 
    "aggregateLikes": 16094, 
    "instructions": "Instructions\n\nFor the kebabs:\n\nIn a bowl whisk together 1/4 cup olive oil, lemon juice, vinegar, garlic, 2 tsp oregano, 1 tsp basil, the thyme, coriander and season with salt and pepper to taste (I used 3/4 tsp salt 1/4 tsp pepper).\u00a0\n\nPlace chicken in a gallon size resealable bag, pour olive oil mixture over chicken and press chicken into marinade. Seal bag and refrigerate 45 minutes to 2 hours (no longer than 2 hours or the chicken will start to get mealy because of the acidic ingredients). If using wooden skewers soak them in water for 30 minutes.\n\nDrizzle and toss veggies with 2 Tbsp of the olive oil (I just left them on the cutting board and tossed them) and season with remaining 1/2 tsp oregano, 1/2 tsp basil and salt to taste.\n\nPreheat a grill over medium-high heat. Thread a red bell pepper, red onion, zucchini, 2 chicken pieces on to skewer and repeat twice.\n\nBrush grill lightly with olive oil, place skewers on grill and grill until chicken registers 165\u00b0F (73\u00b0C) in center, about 8 - 12 minutes, rotating once halfway through cooking. Garnish with parsley, serve warm with tzatziki sauce.", 
    "dishTypes": "appetizer", 
    "occasions": [], 
    "vegetarian": false, 
    "originalId": null, 
    "summary": "Greek Chicken Kebabs requires approximately 50 minutes from start to finish. One portion of this dish contains about 9g of protein, 7g of fat, and a total of 123 calories. This recipe serves 9 and costs 85 cents per serving. It works well as a cheap hor d'oeuvre. It is brought to you by Cooking Classy. 16094 people have made this recipe and would make it again. If you have onion, oregano, salt and pepper, and a few other ingredients on hand, you can make it. Several people really liked this Mediterranean dish. It is a good option if you're following a gluten free, dairy free, paleolithic, and primal diet. Taking all factors into account, this recipe earns a spoonacular score of 0%, which is improvable. Greek Chicken Kebabs, Greek Chicken Kebabs, and Greek Chicken Kebabs are very similar to this recipe.", 
    "readyInMinutes": 50, 
    "servings": 9, 
    "sustainable": false, 
    "dairyFree": true
}