{
    "recipes": [
        {
            "rating": 4, 
            "sourceName": "Foodista", 
            "cuisines": "Vietnamese", 
            "image": "https://spoonacular.com/recipeImages/645634-556x370.jpg", 
            "cheap": false, 
            "gaps": "no", 
            "creditsText": "Foodista.com \u2013 The Cooking Encyclopedia Everyone Can Edit", 
            "id": 47, 
            "veryPopular": false, 
            "lowFodmap": false, 
            "title": "Grilled Chicken Banh Mi", 
            "diets": [
                "dairy free"
            ], 
            "pricePerServing": 259.63, 
            "extendedIngredients": [
                {
                    "aisle": "Ethnic Foods", 
                    "name": "fish sauce", 
                    "nameClean": "fish sauce", 
                    "image": "asian-fish-sauce.jpg", 
                    "measures": {
                        "metric": {
                            "unitLong": "milliliters", 
                            "unitShort": "ml", 
                            "amount": 118.294
                        }, 
                        "us": {
                            "unitLong": "cups", 
                            "unitShort": "cups", 
                            "amount": 0.5
                        }
                    }, 
                    "id": 6179, 
                    "amount": 0.5, 
                    "meta": [], 
                    "consistency": "liquid", 
                    "originalName": "fish sauce", 
                    "original": "1/2 cup fish sauce", 
                    "unit": "cup"
                }, 
                {
                    "aisle": "Produce", 
                    "name": "lime juice", 
                    "nameClean": "lime juice", 
                    "image": "lime-juice.png", 
                    "measures": {
                        "metric": {
                            "unitLong": "milliliters", 
                            "unitShort": "ml", 
                            "amount": 118.294
                        }, 
                        "us": {
                            "unitLong": "cups", 
                            "unitShort": "cups", 
                            "amount": 0.5
                        }
                    }, 
                    "id": 9160, 
                    "amount": 0.5, 
                    "meta": [], 
                    "consistency": "liquid", 
                    "originalName": "lime juice", 
                    "original": "1/2 cup lime juice", 
                    "unit": "cup"
                }, 
                {
                    "aisle": "Baking", 
                    "name": "sugar", 
                    "nameClean": "sugar", 
                    "image": "sugar-in-bowl.png", 
                    "measures": {
                        "metric": {
                            "unitLong": "milliliters", 
                            "unitShort": "ml", 
                            "amount": 59.147
                        }, 
                        "us": {
                            "unitLong": "cups", 
                            "unitShort": "cups", 
                            "amount": 0.25
                        }
                    }, 
                    "id": 19335, 
                    "amount": 0.25, 
                    "meta": [], 
                    "consistency": "solid", 
                    "originalName": "sugar", 
                    "original": "1/4 cup sugar", 
                    "unit": "cup"
                }, 
                {
                    "aisle": "Produce", 
                    "name": "garlic", 
                    "nameClean": "garlic", 
                    "image": "garlic.png", 
                    "measures": {
                        "metric": {
                            "unitLong": "cloves", 
                            "unitShort": "cloves", 
                            "amount": 4.0
                        }, 
                        "us": {
                            "unitLong": "cloves", 
                            "unitShort": "cloves", 
                            "amount": 4.0
                        }
                    }, 
                    "id": 11215, 
                    "amount": 4.0, 
                    "meta": [
                        "minced"
                    ], 
                    "consistency": "solid", 
                    "originalName": "garlic, minced", 
                    "original": "4 cloves garlic, minced", 
                    "unit": "cloves"
                }, 
                {
                    "aisle": "Meat", 
                    "name": "skinless boneless chicken breasts", 
                    "nameClean": "boneless skinless chicken breast", 
                    "image": "chicken-breasts.png", 
                    "measures": {
                        "metric": {
                            "unitLong": "grams", 
                            "unitShort": "g", 
                            "amount": 566.99
                        }, 
                        "us": {
                            "unitLong": "pounds", 
                            "unitShort": "lb", 
                            "amount": 1.25
                        }
                    }, 
                    "id": 1055062, 
                    "amount": 1.25, 
                    "meta": [
                        "boneless", 
                        "skinless"
                    ], 
                    "consistency": "solid", 
                    "originalName": "boneless, skinless chicken breasts", 
                    "original": "1 1/4 pounds boneless, skinless chicken breasts", 
                    "unit": "pounds"
                }, 
                {
                    "aisle": "Beverages", 
                    "name": "water", 
                    "nameClean": "water", 
                    "image": "water.png", 
                    "measures": {
                        "metric": {
                            "unitLong": "milliliters", 
                            "unitShort": "ml", 
                            "amount": 59.147
                        }, 
                        "us": {
                            "unitLong": "cups", 
                            "unitShort": "cups", 
                            "amount": 0.25
                        }
                    }, 
                    "id": 14412, 
                    "amount": 0.25, 
                    "meta": [
                        "hot"
                    ], 
                    "consistency": "liquid", 
                    "originalName": "hot tap water", 
                    "original": "1/4 cup hot tap water", 
                    "unit": "cup"
                }, 
                {
                    "aisle": "Ethnic Foods;Oil, Vinegar, Salad Dressing", 
                    "name": "rice vinegar", 
                    "nameClean": "rice vinegar", 
                    "image": "rice-vinegar.png", 
                    "measures": {
                        "metric": {
                            "unitLong": "milliliters", 
                            "unitShort": "ml", 
                            "amount": 59.147
                        }, 
                        "us": {
                            "unitLong": "cups", 
                            "unitShort": "cups", 
                            "amount": 0.25
                        }
                    }, 
                    "id": 1022053, 
                    "amount": 0.25, 
                    "meta": [], 
                    "consistency": "liquid", 
                    "originalName": "rice vinegar", 
                    "original": "1/4 cup rice vinegar", 
                    "unit": "cup"
                }, 
                {
                    "aisle": "Spices and Seasonings", 
                    "name": "crushed red pepper", 
                    "nameClean": "red pepper flakes", 
                    "image": "red-pepper-flakes.jpg", 
                    "measures": {
                        "metric": {
                            "unitLong": "teaspoons", 
                            "unitShort": "tsps", 
                            "amount": 0.25
                        }, 
                        "us": {
                            "unitLong": "teaspoons", 
                            "unitShort": "tsps", 
                            "amount": 0.25
                        }
                    }, 
                    "id": 1032009, 
                    "amount": 0.25, 
                    "meta": [
                        "red", 
                        "crushed"
                    ], 
                    "consistency": "solid", 
                    "originalName": "crushed red pepper", 
                    "original": "1/4 teaspoon crushed red pepper", 
                    "unit": "teaspoon"
                }, 
                {
                    "aisle": "Produce", 
                    "name": "carrots", 
                    "nameClean": "carrot", 
                    "image": "sliced-carrot.png", 
                    "measures": {
                        "metric": {
                            "unitLong": "", 
                            "unitShort": "", 
                            "amount": 2.0
                        }, 
                        "us": {
                            "unitLong": "", 
                            "unitShort": "", 
                            "amount": 2.0
                        }
                    }, 
                    "id": 11124, 
                    "amount": 2.0, 
                    "meta": [
                        "sliced", 
                        "thin"
                    ], 
                    "consistency": "solid", 
                    "originalName": "carrots, sliced thin on the bias", 
                    "original": "2 carrots, sliced thin on the bias", 
                    "unit": ""
                }, 
                {
                    "aisle": "Produce", 
                    "name": "daikon", 
                    "nameClean": "daikon radish", 
                    "image": "daikon.jpg", 
                    "measures": {
                        "metric": {
                            "unitLong": "", 
                            "unitShort": "", 
                            "amount": 2.0
                        }, 
                        "us": {
                            "unitLong": "", 
                            "unitShort": "", 
                            "amount": 2.0
                        }
                    }, 
                    "id": 11430, 
                    "amount": 2.0, 
                    "meta": [
                        "sliced", 
                        "thin"
                    ], 
                    "consistency": "solid", 
                    "originalName": "daikon radishes, sliced thin on the bias", 
                    "original": "2 daikon radishes, sliced thin on the bias", 
                    "unit": ""
                }, 
                {
                    "aisle": "Bakery/Bread", 
                    "name": "sub rolls", 
                    "nameClean": "sub bun", 
                    "image": "french-rolls.jpg", 
                    "measures": {
                        "metric": {
                            "unitLong": "", 
                            "unitShort": "", 
                            "amount": 6.0
                        }, 
                        "us": {
                            "unitLong": "", 
                            "unitShort": "", 
                            "amount": 6.0
                        }
                    }, 
                    "id": 98940, 
                    "amount": 6.0, 
                    "meta": [
                        "soft"
                    ], 
                    "consistency": "solid", 
                    "originalName": "soft sub rolls", 
                    "original": "6 soft sub rolls", 
                    "unit": ""
                }, 
                {
                    "aisle": "Condiments", 
                    "name": "mayonnaise", 
                    "nameClean": "mayonnaise", 
                    "image": "mayonnaise.png", 
                    "measures": {
                        "metric": {
                            "unitLong": "milliliters", 
                            "unitShort": "ml", 
                            "amount": 78.863
                        }, 
                        "us": {
                            "unitLong": "cups", 
                            "unitShort": "cups", 
                            "amount": 0.333
                        }
                    }, 
                    "id": 4025, 
                    "amount": 0.3333333333333333, 
                    "meta": [], 
                    "consistency": "liquid", 
                    "originalName": "mayonnaise", 
                    "original": "1/3 cup mayonnaise", 
                    "unit": "cup"
                }, 
                {
                    "aisle": "Produce", 
                    "name": "cucumber", 
                    "nameClean": "cucumber", 
                    "image": "cucumber.jpg", 
                    "measures": {
                        "metric": {
                            "unitLong": "", 
                            "unitShort": "", 
                            "amount": 0.5
                        }, 
                        "us": {
                            "unitLong": "", 
                            "unitShort": "", 
                            "amount": 0.5
                        }
                    }, 
                    "id": 11206, 
                    "amount": 0.5, 
                    "meta": [
                        "sliced", 
                        "thin"
                    ], 
                    "consistency": "solid", 
                    "originalName": "cucumber, sliced thin", 
                    "original": "1/2 cucumber, sliced thin", 
                    "unit": ""
                }, 
                {
                    "aisle": "Produce;Spices and Seasonings", 
                    "name": "cilantro leaves", 
                    "nameClean": "cilantro", 
                    "image": "cilantro.png", 
                    "measures": {
                        "metric": {
                            "unitLong": "milliliters", 
                            "unitShort": "ml", 
                            "amount": 236.588
                        }, 
                        "us": {
                            "unitLong": "cup", 
                            "unitShort": "cup", 
                            "amount": 1.0
                        }
                    }, 
                    "id": 11165, 
                    "amount": 1.0, 
                    "meta": [
                        "(or mint)"
                    ], 
                    "consistency": "solid", 
                    "originalName": "cilantro leaves (or mint)", 
                    "original": "1 cup cilantro leaves (or mint)", 
                    "unit": "cup"
                }
            ], 
            "healthScore": 17.0, 
            "imageType": "jpg", 
            "spoonacularScore": 70.0, 
            "sourceUrl": "https://www.foodista.com/recipe/2Q34KBV6/grilled-chicken-banh-mi", 
            "glutenFree": false, 
            "vegan": false, 
            "veryHealthy": false, 
            "weightWatcherSmartPoints": 14, 
            "analyzedInstructions": [
                {
                    "steps": [
                        {
                            "equipment": [
                                {
                                    "image": "roasting-pan.jpg", 
                                    "id": 404646, 
                                    "name": "baking pan", 
                                    "localizedName": "baking pan"
                                }
                            ], 
                            "step": "Mix the first six ingredients in a baking dish.", 
                            "number": 1, 
                            "ingredients": []
                        }, 
                        {
                            "equipment": [], 
                            "step": "Add the chicken breasts to the dish, cover, and refrigerate at least 1 hour. Longer is better!", 
                            "length": {
                                "number": 60, 
                                "unit": "minutes"
                            }, 
                            "number": 2, 
                            "ingredients": [
                                {
                                    "image": "chicken-breasts.png", 
                                    "id": 5062, 
                                    "name": "chicken breast", 
                                    "localizedName": "chicken breast"
                                }
                            ]
                        }, 
                        {
                            "equipment": [
                                {
                                    "image": "bowl.jpg", 
                                    "id": 404783, 
                                    "name": "bowl", 
                                    "localizedName": "bowl"
                                }
                            ], 
                            "step": "Stir the hot tap water and sugar in a medium bowl, until the sugar dissolves.", 
                            "number": 3, 
                            "ingredients": [
                                {
                                    "image": "sugar-in-bowl.png", 
                                    "id": 19335, 
                                    "name": "sugar", 
                                    "localizedName": "sugar"
                                }, 
                                {
                                    "image": "water.png", 
                                    "id": 14412, 
                                    "name": "water", 
                                    "localizedName": "water"
                                }
                            ]
                        }, 
                        {
                            "equipment": [], 
                            "step": "Add the vinegar, salt, red pepper, sliced carrots and radishes. Cover and refrigerate for at least 30 minutes.", 
                            "length": {
                                "number": 30, 
                                "unit": "minutes"
                            }, 
                            "number": 4, 
                            "ingredients": [
                                {
                                    "image": "red-pepper.jpg", 
                                    "id": 11821, 
                                    "name": "red pepper", 
                                    "localizedName": "red pepper"
                                }, 
                                {
                                    "image": "radishes.jpg", 
                                    "id": 11429, 
                                    "name": "radish", 
                                    "localizedName": "radish"
                                }, 
                                {
                                    "image": "sliced-carrot.png", 
                                    "id": 11124, 
                                    "name": "carrot", 
                                    "localizedName": "carrot"
                                }, 
                                {
                                    "image": "vinegar-(white).jpg", 
                                    "id": 2053, 
                                    "name": "vinegar", 
                                    "localizedName": "vinegar"
                                }, 
                                {
                                    "image": "salt.jpg", 
                                    "id": 2047, 
                                    "name": "salt", 
                                    "localizedName": "salt"
                                }
                            ]
                        }, 
                        {
                            "equipment": [
                                {
                                    "image": "grill.jpg", 
                                    "id": 404706, 
                                    "name": "grill", 
                                    "localizedName": "grill"
                                }
                            ], 
                            "step": "Heat the grill to medium. Grill the chicken breasts for 5 minutes per side.", 
                            "length": {
                                "number": 5, 
                                "unit": "minutes"
                            }, 
                            "number": 5, 
                            "ingredients": [
                                {
                                    "image": "chicken-breasts.png", 
                                    "id": 5062, 
                                    "name": "chicken breast", 
                                    "localizedName": "chicken breast"
                                }
                            ]
                        }, 
                        {
                            "equipment": [
                                {
                                    "image": "aluminum-foil.png", 
                                    "id": 404765, 
                                    "name": "aluminum foil", 
                                    "localizedName": "aluminum foil"
                                }
                            ], 
                            "step": "Remove from heat and cover them with foil to rest for 5 minutes.", 
                            "length": {
                                "number": 5, 
                                "unit": "minutes"
                            }, 
                            "number": 6, 
                            "ingredients": []
                        }, 
                        {
                            "equipment": [
                                {
                                    "image": "grill.jpg", 
                                    "id": 404706, 
                                    "name": "grill", 
                                    "localizedName": "grill"
                                }
                            ], 
                            "step": "Open the sub rolls and grill the insides for about 1-3 minuteuntil toasted.", 
                            "number": 7, 
                            "ingredients": [
                                {
                                    "image": "french-rolls.jpg", 
                                    "id": 98940, 
                                    "name": "sub bun", 
                                    "localizedName": "sub bun"
                                }
                            ]
                        }, 
                        {
                            "equipment": [], 
                            "step": "Drain the pickled veggies. Slice the chicken into thin pieces.", 
                            "number": 8, 
                            "ingredients": [
                                {
                                    "image": "whole-chicken.jpg", 
                                    "id": 5006, 
                                    "name": "whole chicken", 
                                    "localizedName": "whole chicken"
                                }
                            ]
                        }, 
                        {
                            "equipment": [], 
                            "step": "Spread mayo over in the sub rolls.", 
                            "number": 9, 
                            "ingredients": [
                                {
                                    "image": "french-rolls.jpg", 
                                    "id": 98940, 
                                    "name": "sub bun", 
                                    "localizedName": "sub bun"
                                }, 
                                {
                                    "image": "", 
                                    "id": 0, 
                                    "name": "spread", 
                                    "localizedName": "spread"
                                }, 
                                {
                                    "image": "mayonnaise.png", 
                                    "id": 4025, 
                                    "name": "mayonnaise", 
                                    "localizedName": "mayonnaise"
                                }
                            ]
                        }, 
                        {
                            "equipment": [], 
                            "step": "Layer the cucumbers, chicken, pickled veggies, cilantro leaves and jalapeos in the rolls.", 
                            "number": 10, 
                            "ingredients": [
                                {
                                    "image": "cilantro.png", 
                                    "id": 11165, 
                                    "name": "fresh cilantro", 
                                    "localizedName": "fresh cilantro"
                                }, 
                                {
                                    "image": "cucumber.jpg", 
                                    "id": 11206, 
                                    "name": "cucumber", 
                                    "localizedName": "cucumber"
                                }, 
                                {
                                    "image": "whole-chicken.jpg", 
                                    "id": 5006, 
                                    "name": "whole chicken", 
                                    "localizedName": "whole chicken"
                                }, 
                                {
                                    "image": "dinner-yeast-rolls.jpg", 
                                    "id": 0, 
                                    "name": "roll", 
                                    "localizedName": "roll"
                                }
                            ]
                        }, 
                        {
                            "equipment": [], 
                            "step": "Serve immediately!", 
                            "number": 11, 
                            "ingredients": []
                        }, 
                        {
                            "equipment": [], 
                            "step": "Serve 6.", 
                            "number": 12, 
                            "ingredients": []
                        }
                    ], 
                    "name": ""
                }
            ], 
            "aggregateLikes": 43, 
            "instructions": "Mix the first six ingredients in a baking dish. Add the chicken breasts to the dish, cover, and refrigerate at least 1 hour. Longer is better!\nStir the hot tap water and sugar in a medium bowl, until the sugar dissolves. Add the vinegar, salt, red pepper, sliced carrots and radishes. Cover and refrigerate for at least 30 minutes.\nHeat the grill to medium. Grill the chicken breasts for 5 minutes per side. Remove from heat and cover them with foil to rest for 5 minutes.\nOpen the sub rolls and grill the insides for about 1-3 minuteuntil toasted.\nDrain the pickled veggies. Slice the chicken into thin pieces.\nSpread mayo over in the sub rolls. Layer the cucumbers, chicken, pickled veggies, cilantro leaves and jalapeos in the rolls.\nServe immediately! Serve 6.", 
            "license": "CC BY 3.0", 
            "dishTypes": "main course", 
            "occasions": [
                "father's day", 
                "4th of july", 
                "summer"
            ], 
            "vegetarian": false, 
            "spoonacularSourceUrl": "https://spoonacular.com/grilled-chicken-banh-mi-645634", 
            "originalId": null, 
            "summary": "You can never have too many Vietnamese recipes, so give Grilled Chicken Banh Mi a try. Watching your figure? This dairy free recipe has 481 calories, 28g of protein, and 14g of fat per serving. For $2.6 per serving, this recipe covers 24% of your daily requirements of vitamins and minerals. This recipe serves 6. 43 people have tried and liked this recipe. It works best as a main course, and is done in around around 45 minutes. If you have sub rolls, chicken breasts, rice vinegar, and a few other ingredients on hand, you can make it. It will be a hit at your The Fourth Of July event. It is brought to you by Foodista. With a spoonacular score of 69%, this dish is solid. If you like this recipe, take a look at these similar recipes: Grilled Chicken B\u00e1nh M\u00ec, Grilled Chicken Banh Mi, and Grilled-Chicken Banh Mi.", 
            "readyInMinutes": 45, 
            "servings": 6, 
            "sustainable": false, 
            "dairyFree": true
        }
    ]
}