{
    "recipes": [
        {
            "rating": 4, 
            "sourceName": "Afrolems", 
            "cuisines": "Indian", 
            "image": "https://spoonacular.com/recipeImages/716364-556x370.jpg", 
            "cheap": false, 
            "gaps": "no", 
            "creditsText": "Afrolems", 
            "id": 77, 
            "veryPopular": false, 
            "lowFodmap": false, 
            "title": "Rice and Peas with Coconut Curry Mackerel", 
            "diets": [
                "gluten free", 
                "dairy free", 
                "pescatarian"
            ], 
            "pricePerServing": 241.7, 
            "extendedIngredients": [
                {
                    "aisle": "Canned and Jarred;Milk, Eggs, Other Dairy", 
                    "name": "coconut milk", 
                    "nameClean": "coconut milk", 
                    "image": "coconut-milk.png", 
                    "measures": {
                        "metric": {
                            "unitLong": "milliliters", 
                            "unitShort": "ml", 
                            "amount": 473.176
                        }, 
                        "us": {
                            "unitLong": "cups", 
                            "unitShort": "cups", 
                            "amount": 2.0
                        }
                    }, 
                    "id": 12118, 
                    "amount": 2.0, 
                    "meta": [], 
                    "consistency": "liquid", 
                    "originalName": "coconut milk", 
                    "original": "2 cups of coconut milk", 
                    "unit": "cups"
                }, 
                {
                    "aisle": "Baking", 
                    "name": "corn starch", 
                    "nameClean": "corn starch", 
                    "image": "white-powder.jpg", 
                    "measures": {
                        "metric": {
                            "unitLong": "Tbsp", 
                            "unitShort": "Tbsp", 
                            "amount": 1.0
                        }, 
                        "us": {
                            "unitLong": "Tbsp", 
                            "unitShort": "Tbsp", 
                            "amount": 1.0
                        }
                    }, 
                    "id": 20027, 
                    "amount": 1.0, 
                    "meta": [], 
                    "consistency": "solid", 
                    "originalName": "corn starch", 
                    "original": "1 tablespoon of corn starch", 
                    "unit": "tablespoon"
                }, 
                {
                    "aisle": "Spices and Seasonings", 
                    "name": "curry powder", 
                    "nameClean": "curry powder", 
                    "image": "curry-powder.jpg", 
                    "measures": {
                        "metric": {
                            "unitLong": "Tbsps", 
                            "unitShort": "Tbsps", 
                            "amount": 2.0
                        }, 
                        "us": {
                            "unitLong": "Tbsps", 
                            "unitShort": "Tbsps", 
                            "amount": 2.0
                        }
                    }, 
                    "id": 2015, 
                    "amount": 2.0, 
                    "meta": [], 
                    "consistency": "solid", 
                    "originalName": "curry powder", 
                    "original": "2 tablespoons of curry powder", 
                    "unit": "tablespoons"
                }, 
                {
                    "aisle": "Produce", 
                    "name": "garlic", 
                    "nameClean": "garlic", 
                    "image": "garlic.png", 
                    "measures": {
                        "metric": {
                            "unitLong": "clove", 
                            "unitShort": "clove", 
                            "amount": 1.0
                        }, 
                        "us": {
                            "unitLong": "clove", 
                            "unitShort": "clove", 
                            "amount": 1.0
                        }
                    }, 
                    "id": 11215, 
                    "amount": 1.0, 
                    "meta": [
                        "chopped", 
                        "()"
                    ], 
                    "consistency": "solid", 
                    "originalName": "garlic (chopped)", 
                    "original": "1 clove of garlic (chopped)", 
                    "unit": "clove"
                }, 
                {
                    "aisle": "Frozen", 
                    "name": "ice cubes", 
                    "nameClean": "ice", 
                    "image": "ice-cubes.png", 
                    "measures": {
                        "metric": {
                            "unitLong": "cube", 
                            "unitShort": "cubes", 
                            "amount": 1.0
                        }, 
                        "us": {
                            "unitLong": "cube", 
                            "unitShort": "cubes", 
                            "amount": 1.0
                        }
                    }, 
                    "id": 10014412, 
                    "amount": 1.0, 
                    "meta": [], 
                    "consistency": "solid", 
                    "originalName": "Seasoning", 
                    "original": "Seasoning cubes", 
                    "unit": "cubes"
                }, 
                {
                    "aisle": "Seafood", 
                    "name": "mackerel", 
                    "nameClean": "mackerel", 
                    "image": "mackerel-fresh.jpg", 
                    "measures": {
                        "metric": {
                            "unitLong": "medium piece", 
                            "unitShort": "medium piece", 
                            "amount": 1.0
                        }, 
                        "us": {
                            "unitLong": "medium piece", 
                            "unitShort": "medium piece", 
                            "amount": 1.0
                        }
                    }, 
                    "id": 15050, 
                    "amount": 1.0, 
                    "meta": [
                        "chopped", 
                        "( in 4 pieces)"
                    ], 
                    "consistency": "solid", 
                    "originalName": "Mackerel (chopped in 4 pieces)", 
                    "original": "1 medium piece of Mackerel (chopped in 4 pieces)", 
                    "unit": "medium piece"
                }, 
                {
                    "aisle": "Produce", 
                    "name": "onion", 
                    "nameClean": "onion", 
                    "image": "brown-onion.png", 
                    "measures": {
                        "metric": {
                            "unitLong": "", 
                            "unitShort": "", 
                            "amount": 0.5
                        }, 
                        "us": {
                            "unitLong": "", 
                            "unitShort": "", 
                            "amount": 0.5
                        }
                    }, 
                    "id": 11282, 
                    "amount": 0.5, 
                    "meta": [], 
                    "consistency": "solid", 
                    "originalName": "bulb of onion", 
                    "original": "1/2 bulb of onion", 
                    "unit": ""
                }, 
                {
                    "aisle": "Pasta and Rice;Canned and Jarred", 
                    "name": "red kidney beans", 
                    "nameClean": "kidney beans", 
                    "image": "kidney-beans.jpg", 
                    "measures": {
                        "metric": {
                            "unitLong": "milliliters", 
                            "unitShort": "ml", 
                            "amount": 118.294
                        }, 
                        "us": {
                            "unitLong": "cups", 
                            "unitShort": "cups", 
                            "amount": 0.5
                        }
                    }, 
                    "id": 16033, 
                    "amount": 0.5, 
                    "meta": [
                        "red"
                    ], 
                    "consistency": "solid", 
                    "originalName": "red kidney beans", 
                    "original": "1/2 cup of red kidney beans", 
                    "unit": "cup"
                }, 
                {
                    "aisle": "Pasta and Rice", 
                    "name": "rice", 
                    "nameClean": "rice", 
                    "image": "uncooked-white-rice.png", 
                    "measures": {
                        "metric": {
                            "unitLong": "milliliters", 
                            "unitShort": "ml", 
                            "amount": 236.588
                        }, 
                        "us": {
                            "unitLong": "cup", 
                            "unitShort": "cup", 
                            "amount": 1.0
                        }
                    }, 
                    "id": 20444, 
                    "amount": 1.0, 
                    "meta": [], 
                    "consistency": "solid", 
                    "originalName": "Rice", 
                    "original": "1 cup of Rice", 
                    "unit": "cup"
                }, 
                {
                    "aisle": "Produce;Ethnic Foods", 
                    "name": "scotch bonnet chili peppers", 
                    "nameClean": "habanero chili", 
                    "image": "habanero-pepper.jpg", 
                    "measures": {
                        "metric": {
                            "unitLong": "", 
                            "unitShort": "", 
                            "amount": 3.0
                        }, 
                        "us": {
                            "unitLong": "", 
                            "unitShort": "", 
                            "amount": 3.0
                        }
                    }, 
                    "id": 10011819, 
                    "amount": 3.0, 
                    "meta": [], 
                    "consistency": "solid", 
                    "originalName": "scotch bonnet peppers", 
                    "original": "3 scotch bonnet peppers", 
                    "unit": ""
                }
            ], 
            "healthScore": 53.0, 
            "imageType": "jpg", 
            "spoonacularScore": 94.0, 
            "sourceUrl": "http://www.afrolems.com/2014/10/31/rice-and-peas-with-coconut-curry-mackerel/", 
            "glutenFree": true, 
            "vegan": false, 
            "veryHealthy": false, 
            "weightWatcherSmartPoints": 22, 
            "analyzedInstructions": [
                {
                    "steps": [
                        {
                            "equipment": [
                                {
                                    "image": "stock-pot.jpg", 
                                    "id": 404752, 
                                    "name": "pot", 
                                    "localizedName": "pot"
                                }
                            ], 
                            "step": "Pour 1 cup of coconut milk in a pot with 1 seasoning cube and allow to boil for a minute.", 
                            "number": 1, 
                            "ingredients": [
                                {
                                    "image": "stock-cube.jpg", 
                                    "id": 0, 
                                    "name": "seasoning cube", 
                                    "localizedName": "seasoning cube"
                                }, 
                                {
                                    "image": "coconut-milk.png", 
                                    "id": 12118, 
                                    "name": "coconut milk", 
                                    "localizedName": "coconut milk"
                                }
                            ]
                        }, 
                        {
                            "equipment": [
                                {
                                    "image": "stock-pot.jpg", 
                                    "id": 404752, 
                                    "name": "pot", 
                                    "localizedName": "pot"
                                }
                            ], 
                            "step": "Pour in your rice and peas in the boiling coconut milk and pour 2 cups of water and leave to boil till the rice and peas are soft on low heat.In a separate pot, season and bring the mackerel to boil in the rest of the coconut milk, curry powder and some water.Toss in the chopped onion, scotch bonnet peppers and garlic and allow to simmer on medium heat.Once the fish is cooked, add the corn starch to thicken the sauce and allow to simmer for 4 minutes on low heat.", 
                            "length": {
                                "number": 4, 
                                "unit": "minutes"
                            }, 
                            "number": 2, 
                            "ingredients": [
                                {
                                    "image": "coconut-milk.png", 
                                    "id": 12118, 
                                    "name": "coconut milk", 
                                    "localizedName": "coconut milk"
                                }, 
                                {
                                    "image": "curry-powder.jpg", 
                                    "id": 2015, 
                                    "name": "curry powder", 
                                    "localizedName": "curry powder"
                                }, 
                                {
                                    "image": "white-powder.jpg", 
                                    "id": 20027, 
                                    "name": "corn starch", 
                                    "localizedName": "corn starch"
                                }, 
                                {
                                    "image": "mackerel-fresh.jpg", 
                                    "id": 15050, 
                                    "name": "mackerel", 
                                    "localizedName": "mackerel"
                                }, 
                                {
                                    "image": "green-pepper.jpg", 
                                    "id": 10111333, 
                                    "name": "peppers", 
                                    "localizedName": "peppers"
                                }, 
                                {
                                    "image": "garlic.png", 
                                    "id": 11215, 
                                    "name": "garlic", 
                                    "localizedName": "garlic"
                                }, 
                                {
                                    "image": "whiskey-bottle.jpg", 
                                    "id": 10014052, 
                                    "name": "scotch whiskey", 
                                    "localizedName": "scotch whiskey"
                                }, 
                                {
                                    "image": "brown-onion.png", 
                                    "id": 11282, 
                                    "name": "onion", 
                                    "localizedName": "onion"
                                }, 
                                {
                                    "image": "", 
                                    "id": 0, 
                                    "name": "sauce", 
                                    "localizedName": "sauce"
                                }, 
                                {
                                    "image": "water.png", 
                                    "id": 14412, 
                                    "name": "water", 
                                    "localizedName": "water"
                                }, 
                                {
                                    "image": "fish-fillet.jpg", 
                                    "id": 10115261, 
                                    "name": "fish", 
                                    "localizedName": "fish"
                                }, 
                                {
                                    "image": "peas.jpg", 
                                    "id": 11304, 
                                    "name": "peas", 
                                    "localizedName": "peas"
                                }, 
                                {
                                    "image": "uncooked-white-rice.png", 
                                    "id": 20444, 
                                    "name": "rice", 
                                    "localizedName": "rice"
                                }
                            ]
                        }, 
                        {
                            "equipment": [], 
                            "step": "Serve with the rice and peas", 
                            "number": 3, 
                            "ingredients": [
                                {
                                    "image": "peas.jpg", 
                                    "id": 11304, 
                                    "name": "peas", 
                                    "localizedName": "peas"
                                }, 
                                {
                                    "image": "uncooked-white-rice.png", 
                                    "id": 20444, 
                                    "name": "rice", 
                                    "localizedName": "rice"
                                }
                            ]
                        }
                    ], 
                    "name": ""
                }
            ], 
            "aggregateLikes": 26, 
            "instructions": "Pour 1 cup of coconut milk in a pot with 1 seasoning cube and allow to boil for a minute.Pour in your rice and peas in the boiling coconut milk and pour 2 cups of water and leave to boil till the rice and peas are soft on low heat.In a separate pot, season and bring the mackerel to boil in the rest of the coconut milk, curry powder and some water.Toss in the chopped onion, scotch bonnet peppers and garlic and allow to simmer on medium heat.Once the fish is cooked, add the corn starch to thicken the sauce and allow to simmer for 4 minutes on low heat.Serve with the rice and peas", 
            "license": "CC BY 4.0", 
            "dishTypes": "main course", 
            "occasions": [], 
            "vegetarian": false, 
            "spoonacularSourceUrl": "https://spoonacular.com/rice-and-peas-with-coconut-curry-mackerel-716364", 
            "originalId": null, 
            "summary": "Rice and Peas with Coconut Curry Mackerel might be just the Indian recipe you are searching for. One serving contains 624 calories, 31g of protein, and 34g of fat. This gluten free, dairy free, and pescatarian recipe serves 4 and costs $2.42 per serving. This recipe from Afrolems has 26 fans. It works well as a budget friendly main course. From preparation to the plate, this recipe takes roughly 45 minutes. If you have seasoning cubes, mackerel, curry powder, and a few other ingredients on hand, you can make it. To use up the curry powder you could follow this main course with the Curry Ice Cream with Mango and Pistachio as a dessert. All things considered, we decided this recipe deserves a spoonacular score of 95%. This score is amazing. Similar recipes include Coconut Chicken Curry with Snow Peas and Rice, Black Eyed Peas Curry (With Coconut) (Lobia Curry), and Skillet Chicken with Snap Peas, Mushrooms, and Coconut Curry.", 
            "readyInMinutes": 45, 
            "servings": 4, 
            "sustainable": false, 
            "dairyFree": true
        }
    ]
}