{
    "recipes": [
        {
            "rating": 4, 
            "sourceName": "Foodista", 
            "cuisines": "American", 
            "image": "https://spoonacular.com/recipeImages/631882-556x370.jpg", 
            "cheap": false, 
            "gaps": "no", 
            "creditsText": "Foodista.com \u2013 The Cooking Encyclopedia Everyone Can Edit", 
            "id": 78, 
            "veryPopular": false, 
            "lowFodmap": false, 
            "title": "Rocky Road Fudge", 
            "diets": [
                "gluten free"
            ], 
            "pricePerServing": 66.8, 
            "extendedIngredients": [
                {
                    "aisle": "Baking", 
                    "name": "semi sweet chocolate chips", 
                    "nameClean": "semisweet chocolate chips", 
                    "image": "chocolate-chips.jpg", 
                    "measures": {
                        "metric": {
                            "unitLong": "milliliters", 
                            "unitShort": "ml", 
                            "amount": 473.176
                        }, 
                        "us": {
                            "unitLong": "cups", 
                            "unitShort": "cups", 
                            "amount": 2.0
                        }
                    }, 
                    "id": 10019903, 
                    "amount": 2.0, 
                    "meta": [
                        "(12 oz. pkg.)"
                    ], 
                    "consistency": "solid", 
                    "originalName": "(12 oz. pkg.) semi-sweet chocolate chips", 
                    "original": "2 c. (12 oz. pkg.) semi-sweet chocolate chips", 
                    "unit": "c"
                }, 
                {
                    "aisle": "Baking", 
                    "name": "sweetened condensed milk", 
                    "nameClean": "sweetened condensed milk", 
                    "image": "evaporated-milk.png", 
                    "measures": {
                        "metric": {
                            "unitLong": "grams", 
                            "unitShort": "g", 
                            "amount": 396.893
                        }, 
                        "us": {
                            "unitLong": "ounces", 
                            "unitShort": "oz", 
                            "amount": 14.0
                        }
                    }, 
                    "id": 1095, 
                    "amount": 14.0, 
                    "meta": [
                        "sweetened", 
                        "canned"
                    ], 
                    "consistency": "solid", 
                    "originalName": "sweetened condensed milk", 
                    "original": "14 oz. can sweetened condensed milk", 
                    "unit": "oz"
                }, 
                {
                    "aisle": "Baking", 
                    "name": "vanilla extract", 
                    "nameClean": "vanilla extract", 
                    "image": "vanilla-extract.jpg", 
                    "measures": {
                        "metric": {
                            "unitLong": "teaspoon", 
                            "unitShort": "tsp", 
                            "amount": 1.0
                        }, 
                        "us": {
                            "unitLong": "teaspoon", 
                            "unitShort": "tsp", 
                            "amount": 1.0
                        }
                    }, 
                    "id": 2050, 
                    "amount": 1.0, 
                    "meta": [], 
                    "consistency": "liquid", 
                    "originalName": "vanilla extract", 
                    "original": "1 t. vanilla extract", 
                    "unit": "t"
                }, 
                {
                    "aisle": "Spices and Seasonings", 
                    "name": "salt", 
                    "nameClean": "table salt", 
                    "image": "salt.jpg", 
                    "measures": {
                        "metric": {
                            "unitLong": "teaspoons", 
                            "unitShort": "tsps", 
                            "amount": 0.125
                        }, 
                        "us": {
                            "unitLong": "teaspoons", 
                            "unitShort": "tsps", 
                            "amount": 0.125
                        }
                    }, 
                    "id": 2047, 
                    "amount": 0.125, 
                    "meta": [], 
                    "consistency": "solid", 
                    "originalName": "salt", 
                    "original": "1/8 t. salt", 
                    "unit": "t"
                }, 
                {
                    "aisle": "Baking", 
                    "name": "mini marshmallows", 
                    "nameClean": "mini marshmallows", 
                    "image": "marshmallows-mini.png", 
                    "measures": {
                        "metric": {
                            "unitLong": "milliliters", 
                            "unitShort": "ml", 
                            "amount": 709.764
                        }, 
                        "us": {
                            "unitLong": "cups", 
                            "unitShort": "cups", 
                            "amount": 3.0
                        }
                    }, 
                    "id": 10119116, 
                    "amount": 3.0, 
                    "meta": [], 
                    "consistency": "solid", 
                    "originalName": "mini-marshmallows", 
                    "original": "3 c. mini-marshmallows", 
                    "unit": "c"
                }, 
                {
                    "aisle": "Nuts;Baking", 
                    "name": "walnuts", 
                    "nameClean": "walnuts", 
                    "image": "walnuts.jpg", 
                    "measures": {
                        "metric": {
                            "unitLong": "milliliters", 
                            "unitShort": "ml", 
                            "amount": 354.882
                        }, 
                        "us": {
                            "unitLong": "cups", 
                            "unitShort": "cups", 
                            "amount": 1.5
                        }
                    }, 
                    "id": 12155, 
                    "amount": 1.5, 
                    "meta": [
                        "toasted", 
                        "chopped"
                    ], 
                    "consistency": "solid", 
                    "originalName": "toasted, chopped walnuts", 
                    "original": "1 1/2 c. toasted, chopped walnuts", 
                    "unit": "c"
                }
            ], 
            "healthScore": 2.0, 
            "imageType": "jpg", 
            "spoonacularScore": 33.0, 
            "sourceUrl": "https://www.foodista.com/recipe/HYGDSRK2/5-minute-rocky-road-fudge", 
            "glutenFree": true, 
            "vegan": false, 
            "veryHealthy": false, 
            "weightWatcherSmartPoints": 15, 
            "analyzedInstructions": [
                {
                    "steps": [
                        {
                            "equipment": [
                                {
                                    "image": "aluminum-foil.png", 
                                    "id": 404765, 
                                    "name": "aluminum foil", 
                                    "localizedName": "aluminum foil"
                                }, 
                                {
                                    "image": "pan.png", 
                                    "id": 404645, 
                                    "name": "frying pan", 
                                    "localizedName": "frying pan"
                                }
                            ], 
                            "step": "Line a 13x9-inch pan with foil, lightly spray with cooking spray. Set aside.", 
                            "number": 1, 
                            "ingredients": [
                                {
                                    "image": "cooking-spray.png", 
                                    "id": 4679, 
                                    "name": "cooking spray", 
                                    "localizedName": "cooking spray"
                                }
                            ]
                        }, 
                        {
                            "equipment": [
                                {
                                    "image": "microwave.jpg", 
                                    "id": 404762, 
                                    "name": "microwave", 
                                    "localizedName": "microwave"
                                }, 
                                {
                                    "image": "bowl.jpg", 
                                    "id": 404783, 
                                    "name": "bowl", 
                                    "localizedName": "bowl"
                                }
                            ], 
                            "step": "In a large, microwave safe bowl, add chocolate chips and condensed milk. Microwave for about 40 seconds, or until the chips are just melted when you stir them. If needed, continue to microwave in 15 second increments until melted. Do not overcook. Immediately stir in vanilla and salt. Then fold in the marshmallows and nuts.", 
                            "number": 2, 
                            "ingredients": [
                                {
                                    "image": "chocolate-chips.jpg", 
                                    "id": 99278, 
                                    "name": "chocolate chips", 
                                    "localizedName": "chocolate chips"
                                }, 
                                {
                                    "image": "evaporated-milk.png", 
                                    "id": 1095, 
                                    "name": "sweetened condensed milk", 
                                    "localizedName": "sweetened condensed milk"
                                }, 
                                {
                                    "image": "normal-marshmallows.jpg", 
                                    "id": 19116, 
                                    "name": "marshmallows", 
                                    "localizedName": "marshmallows"
                                }, 
                                {
                                    "image": "vanilla.jpg", 
                                    "id": 1052050, 
                                    "name": "vanilla", 
                                    "localizedName": "vanilla"
                                }, 
                                {
                                    "image": "french-fries-isolated.jpg", 
                                    "id": 11408, 
                                    "name": "french fries", 
                                    "localizedName": "french fries"
                                }, 
                                {
                                    "image": "nuts-mixed.jpg", 
                                    "id": 12135, 
                                    "name": "nuts", 
                                    "localizedName": "nuts"
                                }, 
                                {
                                    "image": "salt.jpg", 
                                    "id": 2047, 
                                    "name": "salt", 
                                    "localizedName": "salt"
                                }
                            ]
                        }, 
                        {
                            "equipment": [
                                {
                                    "image": "pan.png", 
                                    "id": 404645, 
                                    "name": "frying pan", 
                                    "localizedName": "frying pan"
                                }
                            ], 
                            "step": "Working quickly, spread and press fudge into the prepared pan. Refrigerate until completely cooled before cutting into squares.", 
                            "number": 3, 
                            "ingredients": [
                                {
                                    "image": "", 
                                    "id": 0, 
                                    "name": "spread", 
                                    "localizedName": "spread"
                                }, 
                                {
                                    "image": "fudge-isolated.jpg", 
                                    "id": 19100, 
                                    "name": "fudge", 
                                    "localizedName": "fudge"
                                }
                            ]
                        }
                    ], 
                    "name": ""
                }
            ], 
            "aggregateLikes": 26, 
            "instructions": "Line a 13x9-inch pan with foil, lightly spray with cooking spray. Set aside.\nIn a large, microwave safe bowl, add chocolate chips and condensed milk. Microwave for about 40 seconds, or until the chips are just melted when you stir them. If needed, continue to microwave in 15 second increments until melted. Do not overcook. Immediately stir in vanilla and salt. Then fold in the marshmallows and nuts.\nWorking quickly, spread and press fudge into the prepared pan. Refrigerate until completely cooled before cutting into squares.", 
            "license": "CC BY 3.0", 
            "dishTypes": "dessert", 
            "occasions": [], 
            "vegetarian": false, 
            "spoonacularSourceUrl": "https://spoonacular.com/5-minute-rocky-road-fudge-631882", 
            "originalId": null, 
            "summary": "Forget going out to eat or ordering takeout every time you crave Cajun food. Try making 5-Minute Rocky Road Fudge at home. One serving contains 333 calories, 6g of protein, and 19g of fat. This gluten free recipe serves 15 and costs 67 cents per serving. It is brought to you by Foodista. 26 people were impressed by this recipe. If you have walnuts, condensed milk, mini-marshmallows, and a few other ingredients on hand, you can make it. From preparation to the plate, this recipe takes approximately approximately 45 minutes. Taking all factors into account, this recipe earns a spoonacular score of 30%, which is rather bad. Users who liked this recipe also liked 10 Minute Rocky Road Fudge, Rocky Road Fudge, and Rocky Road Fudge.", 
            "readyInMinutes": 45, 
            "servings": 15, 
            "sustainable": false, 
            "dairyFree": false
        }
    ]
}