{
    "recipes": [
        {
            "rating": 4, 
            "sourceName": "Foodista", 
            "cuisines": "Chinese", 
            "image": "https://spoonacular.com/recipeImages/660707-556x370.jpg", 
            "cheap": false, 
            "gaps": "no", 
            "creditsText": "Foodista.com \u2013 The Cooking Encyclopedia Everyone Can Edit", 
            "id": 83, 
            "veryPopular": false, 
            "lowFodmap": false, 
            "title": "Southwest Egg Rolls with Cilantro Lime Pesto", 
            "diets": [
                "dairy free"
            ], 
            "pricePerServing": 23.49, 
            "extendedIngredients": [
                {
                    "aisle": "Produce;Spices and Seasonings", 
                    "name": "cilantro", 
                    "nameClean": "cilantro", 
                    "image": "cilantro.png", 
                    "measures": {
                        "metric": {
                            "unitLong": "bunch", 
                            "unitShort": "bunch", 
                            "amount": 1.0
                        }, 
                        "us": {
                            "unitLong": "bunch", 
                            "unitShort": "bunch", 
                            "amount": 1.0
                        }
                    }, 
                    "id": 11165, 
                    "amount": 1.0, 
                    "meta": [], 
                    "consistency": "solid", 
                    "originalName": "cilantro, stems discarded", 
                    "original": "1 bunch cilantro, stems discarded", 
                    "unit": "bunch"
                }, 
                {
                    "aisle": "Produce", 
                    "name": "garlic", 
                    "nameClean": "garlic", 
                    "image": "garlic.png", 
                    "measures": {
                        "metric": {
                            "unitLong": "cloves", 
                            "unitShort": "cloves", 
                            "amount": 3.0
                        }, 
                        "us": {
                            "unitLong": "cloves", 
                            "unitShort": "cloves", 
                            "amount": 3.0
                        }
                    }, 
                    "id": 11215, 
                    "amount": 3.0, 
                    "meta": [], 
                    "consistency": "solid", 
                    "originalName": "garlic", 
                    "original": "3 cloves garlic", 
                    "unit": "cloves"
                }, 
                {
                    "aisle": "Nuts", 
                    "name": "almonds", 
                    "nameClean": "almonds", 
                    "image": "almonds.jpg", 
                    "measures": {
                        "metric": {
                            "unitLong": "Tbsp", 
                            "unitShort": "Tbsp", 
                            "amount": 1.0
                        }, 
                        "us": {
                            "unitLong": "Tbsp", 
                            "unitShort": "Tbsp", 
                            "amount": 1.0
                        }
                    }, 
                    "id": 12061, 
                    "amount": 1.0, 
                    "meta": [
                        "sliced"
                    ], 
                    "consistency": "solid", 
                    "originalName": "heaping Tbsp sliced almonds", 
                    "original": "1 heaping Tbsp sliced almonds", 
                    "unit": "Tbsp"
                }, 
                {
                    "aisle": "Produce", 
                    "name": "juice of lime", 
                    "nameClean": "lime juice", 
                    "image": "lime-juice.png", 
                    "measures": {
                        "metric": {
                            "unitLong": "", 
                            "unitShort": "", 
                            "amount": 1.0
                        }, 
                        "us": {
                            "unitLong": "", 
                            "unitShort": "", 
                            "amount": 1.0
                        }
                    }, 
                    "id": 9160, 
                    "amount": 1.0, 
                    "meta": [
                        "divided"
                    ], 
                    "consistency": "liquid", 
                    "originalName": "juice of lime, divided", 
                    "original": "juice of lime, divided", 
                    "unit": ""
                }, 
                {
                    "aisle": "Oil, Vinegar, Salad Dressing", 
                    "name": "olive oil", 
                    "nameClean": "olive oil", 
                    "image": "olive-oil.jpg", 
                    "measures": {
                        "metric": {
                            "unitLong": "serving", 
                            "unitShort": "serving", 
                            "amount": 1.0
                        }, 
                        "us": {
                            "unitLong": "serving", 
                            "unitShort": "serving", 
                            "amount": 1.0
                        }
                    }, 
                    "id": 4053, 
                    "amount": 1.0, 
                    "meta": [], 
                    "consistency": "liquid", 
                    "originalName": "olive oil", 
                    "original": "olive oil", 
                    "unit": "serving"
                }, 
                {
                    "aisle": "Spices and Seasonings", 
                    "name": "Salt & Pepper", 
                    "nameClean": "salt and pepper", 
                    "image": "salt-and-pepper.jpg", 
                    "measures": {
                        "metric": {
                            "unitLong": "serving", 
                            "unitShort": "serving", 
                            "amount": 1.0
                        }, 
                        "us": {
                            "unitLong": "serving", 
                            "unitShort": "serving", 
                            "amount": 1.0
                        }
                    }, 
                    "id": 1102047, 
                    "amount": 1.0, 
                    "meta": [], 
                    "consistency": "solid", 
                    "originalName": "salt & pepper", 
                    "original": "salt & pepper", 
                    "unit": "serving"
                }, 
                {
                    "aisle": "Ethnic Foods", 
                    "name": "egg roll wrappers", 
                    "nameClean": "egg roll wrappers", 
                    "image": "puff-pastry-squares.jpg", 
                    "measures": {
                        "metric": {
                            "unitLong": "", 
                            "unitShort": "", 
                            "amount": 12.0
                        }, 
                        "us": {
                            "unitLong": "", 
                            "unitShort": "", 
                            "amount": 12.0
                        }
                    }, 
                    "id": 18368, 
                    "amount": 12.0, 
                    "meta": [], 
                    "consistency": "solid", 
                    "originalName": "egg roll wrappers", 
                    "original": "12 egg roll wrappers", 
                    "unit": ""
                }, 
                {
                    "aisle": "Produce", 
                    "name": "red bell pepper", 
                    "nameClean": "red pepper", 
                    "image": "red-pepper.jpg", 
                    "measures": {
                        "metric": {
                            "unitLong": "small", 
                            "unitShort": "small", 
                            "amount": 1.0
                        }, 
                        "us": {
                            "unitLong": "small", 
                            "unitShort": "small", 
                            "amount": 1.0
                        }
                    }, 
                    "id": 11821, 
                    "amount": 1.0, 
                    "meta": [
                        "red"
                    ], 
                    "consistency": "solid", 
                    "originalName": "red bell pepper, small dice", 
                    "original": "1 red bell pepper, small dice", 
                    "unit": "small"
                }, 
                {
                    "aisle": "Produce", 
                    "name": "corn", 
                    "nameClean": "corn", 
                    "image": "corn.png", 
                    "measures": {
                        "metric": {
                            "unitLong": "milliliters", 
                            "unitShort": "ml", 
                            "amount": 118.294
                        }, 
                        "us": {
                            "unitLong": "cups", 
                            "unitShort": "cups", 
                            "amount": 0.5
                        }
                    }, 
                    "id": 11168, 
                    "amount": 0.5, 
                    "meta": [], 
                    "consistency": "solid", 
                    "originalName": "corn", 
                    "original": "1/2 cup corn", 
                    "unit": "cup"
                }, 
                {
                    "aisle": "Pasta and Rice;Canned and Jarred", 
                    "name": "black beans", 
                    "nameClean": "black beans", 
                    "image": "black-beans.jpg", 
                    "measures": {
                        "metric": {
                            "unitLong": "milliliters", 
                            "unitShort": "ml", 
                            "amount": 118.294
                        }, 
                        "us": {
                            "unitLong": "cups", 
                            "unitShort": "cups", 
                            "amount": 0.5
                        }
                    }, 
                    "id": 16015, 
                    "amount": 0.5, 
                    "meta": [
                        "rinsed", 
                        "drained"
                    ], 
                    "consistency": "solid", 
                    "originalName": "black beans, rinsed and drained", 
                    "original": "1/2 cup black beans, rinsed and drained", 
                    "unit": "cup"
                }
            ], 
            "healthScore": 9.0, 
            "imageType": "jpg", 
            "spoonacularScore": 51.0, 
            "sourceUrl": "https://www.foodista.com/recipe/CM34KFZM/southwest-egg-rolls", 
            "glutenFree": false, 
            "vegan": false, 
            "veryHealthy": false, 
            "weightWatcherSmartPoints": 2, 
            "analyzedInstructions": [
                {
                    "steps": [
                        {
                            "equipment": [
                                {
                                    "image": "oven.jpg", 
                                    "id": 404784, 
                                    "name": "oven", 
                                    "localizedName": "oven"
                                }
                            ], 
                            "step": "Oven at 385 degrees.", 
                            "number": 1, 
                            "ingredients": []
                        }, 
                        {
                            "equipment": [
                                {
                                    "image": "food-processor.png", 
                                    "id": 404771, 
                                    "name": "food processor", 
                                    "localizedName": "food processor"
                                }
                            ], 
                            "step": "Make the pesto: In a small food processor add the garlic and almonds. Pulse until finely chopped.", 
                            "number": 2, 
                            "ingredients": [
                                {
                                    "image": "almonds.jpg", 
                                    "id": 12061, 
                                    "name": "almonds", 
                                    "localizedName": "almonds"
                                }, 
                                {
                                    "image": "garlic.png", 
                                    "id": 11215, 
                                    "name": "garlic", 
                                    "localizedName": "garlic"
                                }, 
                                {
                                    "image": "basil-pesto.png", 
                                    "id": 93698, 
                                    "name": "pesto", 
                                    "localizedName": "pesto"
                                }
                            ]
                        }, 
                        {
                            "equipment": [
                                {
                                    "image": "plastic-wrap.jpg", 
                                    "id": 404730, 
                                    "name": "plastic wrap", 
                                    "localizedName": "plastic wrap"
                                }, 
                                {
                                    "image": "bowl.jpg", 
                                    "id": 404783, 
                                    "name": "bowl", 
                                    "localizedName": "bowl"
                                }
                            ], 
                            "step": "Add the cilantro leaves and about 3-4 Tbsp olive oil, the amount is really a preference of how loose or thick you like the pesto. Start with a little and add a little at a time until you reach the consistency of your preference. Stir in the juice of 1/2 a lime. If you are making this ahead of time...place in a bowl and drizzle just enough olive oil on top to coat, this keeps the air from getting to the cilantro. Cover with plastic wrap and refrigerate.", 
                            "number": 3, 
                            "ingredients": [
                                {
                                    "image": "cilantro.png", 
                                    "id": 11165, 
                                    "name": "fresh cilantro", 
                                    "localizedName": "fresh cilantro"
                                }, 
                                {
                                    "image": "olive-oil.jpg", 
                                    "id": 4053, 
                                    "name": "olive oil", 
                                    "localizedName": "olive oil"
                                }, 
                                {
                                    "image": "cilantro.png", 
                                    "id": 11165, 
                                    "name": "cilantro", 
                                    "localizedName": "cilantro"
                                }, 
                                {
                                    "image": "apple-juice.jpg", 
                                    "id": 1019016, 
                                    "name": "juice", 
                                    "localizedName": "juice"
                                }, 
                                {
                                    "image": "basil-pesto.png", 
                                    "id": 93698, 
                                    "name": "pesto", 
                                    "localizedName": "pesto"
                                }, 
                                {
                                    "image": "lime.jpg", 
                                    "id": 9159, 
                                    "name": "lime", 
                                    "localizedName": "lime"
                                }, 
                                {
                                    "image": "flour-tortilla.jpg", 
                                    "id": 10018364, 
                                    "name": "wrap", 
                                    "localizedName": "wrap"
                                }
                            ]
                        }, 
                        {
                            "equipment": [
                                {
                                    "image": "pan.png", 
                                    "id": 404645, 
                                    "name": "frying pan", 
                                    "localizedName": "frying pan"
                                }
                            ], 
                            "step": "Saut the peppers with a drizzle of olive oil in a pan over medium high heat for just a couple minutes.", 
                            "number": 4, 
                            "ingredients": [
                                {
                                    "image": "olive-oil.jpg", 
                                    "id": 4053, 
                                    "name": "olive oil", 
                                    "localizedName": "olive oil"
                                }, 
                                {
                                    "image": "green-pepper.jpg", 
                                    "id": 10111333, 
                                    "name": "peppers", 
                                    "localizedName": "peppers"
                                }
                            ]
                        }, 
                        {
                            "equipment": [
                                {
                                    "image": "bowl.jpg", 
                                    "id": 404783, 
                                    "name": "bowl", 
                                    "localizedName": "bowl"
                                }
                            ], 
                            "step": "Mix the peppers, corn and black beans in a bowl.", 
                            "number": 5, 
                            "ingredients": [
                                {
                                    "image": "black-beans.jpg", 
                                    "id": 16015, 
                                    "name": "black beans", 
                                    "localizedName": "black beans"
                                }, 
                                {
                                    "image": "green-pepper.jpg", 
                                    "id": 10111333, 
                                    "name": "peppers", 
                                    "localizedName": "peppers"
                                }, 
                                {
                                    "image": "corn.png", 
                                    "id": 11168, 
                                    "name": "corn", 
                                    "localizedName": "corn"
                                }
                            ]
                        }, 
                        {
                            "equipment": [], 
                            "step": "Lay out the egg roll wrappers. Smear some of the cilantro lime pesto on the end closest to you, leaving about an inch of the wrapper on the very end.", 
                            "number": 6, 
                            "ingredients": [
                                {
                                    "image": "puff-pastry-squares.jpg", 
                                    "id": 18368, 
                                    "name": "egg roll wrappers", 
                                    "localizedName": "egg roll wrappers"
                                }, 
                                {
                                    "image": "cilantro.png", 
                                    "id": 11165, 
                                    "name": "cilantro", 
                                    "localizedName": "cilantro"
                                }, 
                                {
                                    "image": "basil-pesto.png", 
                                    "id": 93698, 
                                    "name": "pesto", 
                                    "localizedName": "pesto"
                                }, 
                                {
                                    "image": "lime.jpg", 
                                    "id": 9159, 
                                    "name": "lime", 
                                    "localizedName": "lime"
                                }
                            ]
                        }, 
                        {
                            "equipment": [], 
                            "step": "Add a spoon full of the veggies along the line of pesto.", 
                            "number": 7, 
                            "ingredients": [
                                {
                                    "image": "basil-pesto.png", 
                                    "id": 93698, 
                                    "name": "pesto", 
                                    "localizedName": "pesto"
                                }
                            ]
                        }, 
                        {
                            "equipment": [], 
                            "step": "Brush the ends of the wrapper with water, this will help seal the egg roll. Fold the end nearest you over the veggies and the two", 
                            "number": 8, 
                            "ingredients": [
                                {
                                    "image": "water.png", 
                                    "id": 14412, 
                                    "name": "water", 
                                    "localizedName": "water"
                                }, 
                                {
                                    "image": "dinner-yeast-rolls.jpg", 
                                    "id": 0, 
                                    "name": "roll", 
                                    "localizedName": "roll"
                                }, 
                                {
                                    "image": "egg.png", 
                                    "id": 1123, 
                                    "name": "egg", 
                                    "localizedName": "egg"
                                }
                            ]
                        }, 
                        {
                            "equipment": [], 
                            "step": "sides fold in as well.", 
                            "number": 9, 
                            "ingredients": []
                        }, 
                        {
                            "equipment": [], 
                            "step": "Roll up the wrapper to the end.", 
                            "number": 10, 
                            "ingredients": [
                                {
                                    "image": "dinner-yeast-rolls.jpg", 
                                    "id": 0, 
                                    "name": "roll", 
                                    "localizedName": "roll"
                                }
                            ]
                        }, 
                        {
                            "equipment": [
                                {
                                    "image": "baking-sheet.jpg", 
                                    "id": 404727, 
                                    "name": "baking sheet", 
                                    "localizedName": "baking sheet"
                                }
                            ], 
                            "step": "Place seam side down on a lined baking sheet that his been brushed with a bit of olive oil to prevent sticking.", 
                            "number": 11, 
                            "ingredients": [
                                {
                                    "image": "olive-oil.jpg", 
                                    "id": 4053, 
                                    "name": "olive oil", 
                                    "localizedName": "olive oil"
                                }
                            ]
                        }, 
                        {
                            "equipment": [], 
                            "step": "Brush the egg rolls lightly with olive oil as well, this will help get that golden color.", 
                            "number": 12, 
                            "ingredients": [
                                {
                                    "image": "olive-oil.jpg", 
                                    "id": 4053, 
                                    "name": "olive oil", 
                                    "localizedName": "olive oil"
                                }, 
                                {
                                    "image": "dinner-yeast-rolls.jpg", 
                                    "id": 0, 
                                    "name": "roll", 
                                    "localizedName": "roll"
                                }, 
                                {
                                    "image": "egg.png", 
                                    "id": 1123, 
                                    "name": "egg", 
                                    "localizedName": "egg"
                                }
                            ]
                        }, 
                        {
                            "equipment": [
                                {
                                    "image": "oven.jpg", 
                                    "id": 404784, 
                                    "name": "oven", 
                                    "localizedName": "oven"
                                }
                            ], 
                            "step": "Bake for approx 18 minutes, or until golden and crispy.", 
                            "length": {
                                "number": 18, 
                                "unit": "minutes"
                            }, 
                            "number": 13, 
                            "ingredients": []
                        }
                    ], 
                    "name": ""
                }
            ], 
            "aggregateLikes": 8, 
            "instructions": "Oven at 385 degrees.\nMake the pesto: In a small food processor add the garlic and almonds. Pulse until finely chopped. Add the cilantro leaves and about 3-4 Tbsp olive oil, the amount is really a preference of how loose or thick you like the pesto. Start with a little and add a little at a time until you reach the consistency of your preference. Stir in the juice of 1/2 a lime. If you are making this ahead of time...place in a bowl and drizzle just enough olive oil on top to coat, this keeps the air from getting to the cilantro. Cover with plastic wrap and refrigerate.\nSaut the peppers with a drizzle of olive oil in a pan over medium high heat for just a couple minutes. Mix the peppers, corn and black beans in a bowl.\nLay out the egg roll wrappers. Smear some of the cilantro lime pesto on the end closest to you, leaving about an inch of the wrapper on the very end.\nAdd a spoon full of the veggies along the line of pesto. Brush the ends of the wrapper with water, this will help seal the egg roll. Fold the end nearest you over the veggies and the two\nsides fold in as well.\nRoll up the wrapper to the end. Place seam side down on a lined baking sheet that his been brushed with a bit of olive oil to prevent sticking.\nBrush the egg rolls lightly with olive oil as well, this will help get that golden color. Bake for approx 18 minutes, or until golden and crispy.", 
            "license": "CC BY 3.0", 
            "dishTypes": "appetizer", 
            "occasions": [], 
            "vegetarian": false, 
            "spoonacularSourceUrl": "https://spoonacular.com/southwest-egg-rolls-with-cilantro-lime-pesto-660707", 
            "originalId": null, 
            "summary": "Southwest Egg Rolls with Cilantro Lime Pesto is a hor d'oeuvre that serves 12. One serving contains 72 calories, 2g of protein, and 2g of fat. For 23 cents per serving, this recipe covers 4% of your daily requirements of vitamins and minerals. 8 people found this recipe to be scrumptious and satisfying. It is brought to you by Foodista. This recipe is typical of Chinese cuisine. From preparation to the plate, this recipe takes about about 45 minutes. A mixture of bell pepper, juice of lime, corn, and a handful of other ingredients are all it takes to make this recipe so delicious. It is a good option if you're following a dairy free diet. Taking all factors into account, this recipe earns a spoonacular score of 50%, which is solid. Try Southwest Egg Rolls with Avocado-Lime Ranch, Chili\u2019s Southwest Eggrolls \u2013 enjoy this restaurant favorite anywhere. These Southwest style egg rolls are delicious, and Southwest Quesadilla with Cilantro-Lime Sour Cream for similar recipes.", 
            "readyInMinutes": 45, 
            "servings": 12, 
            "sustainable": false, 
            "dairyFree": true
        }
    ]
}