{
    "rating": 4, 
    "sourceName": "Half Baked Harvest", 
    "cuisines": "Mexican", 
    "image": "https://spoonacular.com/recipeImages/549832-556x370.jpg", 
    "cheap": false, 
    "gaps": "no", 
    "creditsText": "Half Baked Harvest", 
    "cookingMinutes": 240, 
    "id": 88, 
    "veryPopular": true, 
    "lowFodmap": false, 
    "title": "Taco", 
    "diets": [], 
    "preparationMinutes": 15, 
    "pricePerServing": 385.99, 
    "extendedIngredients": [
        {
            "aisle": "Meat", 
            "name": "flank steak", 
            "nameClean": "flank steak", 
            "image": "flank-steak.jpg", 
            "measures": {
                "metric": {
                    "unitLong": "grams", 
                    "unitShort": "g", 
                    "amount": 907.185
                }, 
                "us": {
                    "unitLong": "pounds", 
                    "unitShort": "lb", 
                    "amount": 2.0
                }
            }, 
            "id": 23657, 
            "amount": 2.0, 
            "meta": [], 
            "consistency": "solid", 
            "originalName": "flank steak", 
            "original": "2 pounds flank steak", 
            "unit": "pounds"
        }, 
        {
            "aisle": "Spices and Seasonings", 
            "name": "onion powder", 
            "nameClean": "onion powder", 
            "image": "onion-powder.jpg", 
            "measures": {
                "metric": {
                    "unitLong": "teaspoons", 
                    "unitShort": "tsps", 
                    "amount": 2.0
                }, 
                "us": {
                    "unitLong": "teaspoons", 
                    "unitShort": "tsps", 
                    "amount": 2.0
                }
            }, 
            "id": 2026, 
            "amount": 2.0, 
            "meta": [], 
            "consistency": "solid", 
            "originalName": "onion powder", 
            "original": "2 teaspoons onion powder", 
            "unit": "teaspoons"
        }, 
        {
            "aisle": "Spices and Seasonings", 
            "name": "paprika", 
            "nameClean": "smoked paprika", 
            "image": "paprika.jpg", 
            "measures": {
                "metric": {
                    "unitLong": "teaspoon", 
                    "unitShort": "tsp", 
                    "amount": 1.0
                }, 
                "us": {
                    "unitLong": "teaspoon", 
                    "unitShort": "tsp", 
                    "amount": 1.0
                }
            }, 
            "id": 1012028, 
            "amount": 1.0, 
            "meta": [
                "smoked"
            ], 
            "consistency": "solid", 
            "originalName": "smoked paprika", 
            "original": "1 teaspoon smoked paprika", 
            "unit": "teaspoon"
        }, 
        {
            "aisle": "Spices and Seasonings", 
            "name": "kosher salt", 
            "nameClean": "kosher salt", 
            "image": "salt.jpg", 
            "measures": {
                "metric": {
                    "unitLong": "serving", 
                    "unitShort": "serving", 
                    "amount": 1.0
                }, 
                "us": {
                    "unitLong": "serving", 
                    "unitShort": "serving", 
                    "amount": 1.0
                }
            }, 
            "id": 1082047, 
            "amount": 1.0, 
            "meta": [], 
            "consistency": "solid", 
            "originalName": "kosher salt", 
            "original": "kosher salt", 
            "unit": "serving"
        }, 
        {
            "aisle": "Produce", 
            "name": "juice of lime", 
            "nameClean": "lime juice", 
            "image": "lime-juice.png", 
            "measures": {
                "metric": {
                    "unitLong": "", 
                    "unitShort": "", 
                    "amount": 1.0
                }, 
                "us": {
                    "unitLong": "", 
                    "unitShort": "", 
                    "amount": 1.0
                }
            }, 
            "id": 9160, 
            "amount": 1.0, 
            "meta": [], 
            "consistency": "liquid", 
            "originalName": "zest and juice of lime", 
            "original": "zest and juice of 1 lime", 
            "unit": ""
        }, 
        {
            "aisle": "Alcoholic Beverages", 
            "name": "mexican beer", 
            "nameClean": "beer", 
            "image": "beer.jpg", 
            "measures": {
                "metric": {
                    "unitLong": "milliliters", 
                    "unitShort": "ml", 
                    "amount": 118.294
                }, 
                "us": {
                    "unitLong": "cups", 
                    "unitShort": "cups", 
                    "amount": 0.5
                }
            }, 
            "id": 14003, 
            "amount": 0.5, 
            "meta": [
                " such as negra modelo"
            ], 
            "consistency": "liquid", 
            "originalName": "Mexican beer, such as Negra Modelo", 
            "original": "1/2 cup Mexican beer, such as Negra Modelo", 
            "unit": "cup"
        }, 
        {
            "aisle": "Bakery/Bread;Pasta and Rice;Ethnic Foods", 
            "name": "flour tortillas", 
            "nameClean": "flour tortilla", 
            "image": "flour-tortilla.jpg", 
            "measures": {
                "metric": {
                    "unitLong": "serving", 
                    "unitShort": "serving", 
                    "amount": 1.0
                }, 
                "us": {
                    "unitLong": "serving", 
                    "unitShort": "serving", 
                    "amount": 1.0
                }
            }, 
            "id": 10218364, 
            "amount": 1.0, 
            "meta": [
                "warmed"
            ], 
            "consistency": "solid", 
            "originalName": "warmed corn or flour tortillas", 
            "original": "warmed corn or flour tortillas,", 
            "unit": "serving"
        }, 
        {
            "aisle": "Cheese", 
            "name": "avocado", 
            "nameClean": "feta cheese", 
            "image": "feta.png", 
            "measures": {
                "metric": {
                    "unitLong": "serving", 
                    "unitShort": "serving", 
                    "amount": 1.0
                }, 
                "us": {
                    "unitLong": "serving", 
                    "unitShort": "serving", 
                    "amount": 1.0
                }
            }, 
            "id": 1019, 
            "amount": 1.0, 
            "meta": [
                "shredded", 
                "for serving"
            ], 
            "consistency": "solid", 
            "originalName": "avocado, feta cheese, jalape\u00f1os, pickled onion, and shredded lettuce, for serving", 
            "original": "avocado, feta cheese, jalape\u00f1os, pickled onion, and shredded lettuce, for serving", 
            "unit": "serving"
        }, 
        {
            "aisle": "Produce", 
            "name": "potatoes", 
            "nameClean": "potato", 
            "image": "potatoes-yukon-gold.png", 
            "measures": {
                "metric": {
                    "unitLong": "", 
                    "unitShort": "", 
                    "amount": 4.0
                }, 
                "us": {
                    "unitLong": "", 
                    "unitShort": "", 
                    "amount": 4.0
                }
            }, 
            "id": 11352, 
            "amount": 4.0, 
            "meta": [
                "cut into \u00bc-inch-thick matchsticks"
            ], 
            "consistency": "solid", 
            "originalName": "potatoes, cut into \u00bc-inch-thick matchsticks", 
            "original": "4 potatoes, cut into \u00bc-inch-thick matchsticks", 
            "unit": ""
        }, 
        {
            "aisle": "Spices and Seasonings", 
            "name": "garlic powder", 
            "nameClean": "garlic powder", 
            "image": "garlic-powder.png", 
            "measures": {
                "metric": {
                    "unitLong": "teaspoon", 
                    "unitShort": "tsp", 
                    "amount": 1.0
                }, 
                "us": {
                    "unitLong": "teaspoon", 
                    "unitShort": "tsp", 
                    "amount": 1.0
                }
            }, 
            "id": 1022020, 
            "amount": 1.0, 
            "meta": [], 
            "consistency": "solid", 
            "originalName": "garlic powder", 
            "original": "1 teaspoon garlic powder", 
            "unit": "teaspoon"
        }, 
        {
            "aisle": "Milk, Eggs, Other Dairy", 
            "name": "greek yogurt", 
            "nameClean": "plain greek yogurt", 
            "image": "white-cream.png", 
            "measures": {
                "metric": {
                    "unitLong": "milliliters", 
                    "unitShort": "ml", 
                    "amount": 118.294
                }, 
                "us": {
                    "unitLong": "cups", 
                    "unitShort": "cups", 
                    "amount": 0.5
                }
            }, 
            "id": 1001256, 
            "amount": 0.5, 
            "meta": [
                "plain", 
                "sour"
            ], 
            "consistency": "liquid", 
            "originalName": "plain Greek yogurt or sour cream", 
            "original": "1/2 cup plain Greek yogurt or sour cream", 
            "unit": "cup"
        }, 
        {
            "aisle": "Produce", 
            "name": "green onions", 
            "nameClean": "spring onions", 
            "image": "spring-onions.jpg", 
            "measures": {
                "metric": {
                    "unitLong": "", 
                    "unitShort": "", 
                    "amount": 2.0
                }, 
                "us": {
                    "unitLong": "", 
                    "unitShort": "", 
                    "amount": 2.0
                }
            }, 
            "id": 11291, 
            "amount": 2.0, 
            "meta": [
                "finely chopped"
            ], 
            "consistency": "solid", 
            "originalName": "green onions, finely chopped", 
            "original": "2 green onions, finely chopped", 
            "unit": ""
        }
    ], 
    "healthScore": 62.0, 
    "imageType": "jpg", 
    "spoonacularScore": 98.0, 
    "sourceUrl": "https://www.halfbakedharvest.com/loaded-crockpot-carne-asada-tacos/", 
    "glutenFree": false, 
    "vegan": false, 
    "veryHealthy": true, 
    "weightWatcherSmartPoints": 12, 
    "analyzedInstructions": [
        {
            "steps": [
                {
                    "equipment": [
                        {
                            "image": "slow-cooker.jpg", 
                            "id": 404718, 
                            "name": "slow cooker", 
                            "localizedName": "slow cooker"
                        }, 
                        {
                            "image": "bowl.jpg", 
                            "id": 404783, 
                            "name": "bowl", 
                            "localizedName": "bowl"
                        }
                    ], 
                    "step": "In the bowl of your slow cooker, combine the steak, garlic, chili powder, onion powder, paprika, pinch of salt, olive oil, lime juice and zest. Rub the seasonings into the steak.", 
                    "number": 1, 
                    "ingredients": [
                        {
                            "image": "chili-powder.jpg", 
                            "id": 2009, 
                            "name": "chili powder", 
                            "localizedName": "chili powder"
                        }, 
                        {
                            "image": "onion-powder.jpg", 
                            "id": 2026, 
                            "name": "onion powder", 
                            "localizedName": "onion powder"
                        }, 
                        {
                            "image": "lime-juice.png", 
                            "id": 9160, 
                            "name": "lime juice", 
                            "localizedName": "lime juice"
                        }, 
                        {
                            "image": "seasoning.png", 
                            "id": 1042027, 
                            "name": "seasoning", 
                            "localizedName": "seasoning"
                        }, 
                        {
                            "image": "olive-oil.jpg", 
                            "id": 4053, 
                            "name": "olive oil", 
                            "localizedName": "olive oil"
                        }, 
                        {
                            "image": "paprika.jpg", 
                            "id": 2028, 
                            "name": "paprika", 
                            "localizedName": "paprika"
                        }, 
                        {
                            "image": "garlic.png", 
                            "id": 11215, 
                            "name": "garlic", 
                            "localizedName": "garlic"
                        }, 
                        {
                            "image": "ribeye-raw.jpg", 
                            "id": 23232, 
                            "name": "steak", 
                            "localizedName": "steak"
                        }, 
                        {
                            "image": "salt.jpg", 
                            "id": 2047, 
                            "name": "salt", 
                            "localizedName": "salt"
                        }, 
                        {
                            "image": "seasoning.png", 
                            "id": 1012034, 
                            "name": "dry seasoning rub", 
                            "localizedName": "dry seasoning rub"
                        }
                    ]
                }, 
                {
                    "equipment": [], 
                    "step": "Add the beer. Cover and cook on low for 6 hours or on high for 3-4 hours.", 
                    "length": {
                        "number": 600, 
                        "unit": "minutes"
                    }, 
                    "number": 2, 
                    "ingredients": [
                        {
                            "image": "beer.jpg", 
                            "id": 14003, 
                            "name": "beer", 
                            "localizedName": "beer"
                        }
                    ]
                }, 
                {
                    "equipment": [
                        {
                            "image": "oven.jpg", 
                            "id": 405914, 
                            "name": "broiler", 
                            "localizedName": "broiler"
                        }
                    ], 
                    "step": "Preheat the broiler to high.", 
                    "number": 3, 
                    "ingredients": []
                }, 
                {
                    "equipment": [
                        {
                            "image": "baking-sheet.jpg", 
                            "id": 404727, 
                            "name": "baking sheet", 
                            "localizedName": "baking sheet"
                        }
                    ], 
                    "step": "Remove the steak from the sauce to a baking sheet.", 
                    "number": 4, 
                    "ingredients": [
                        {
                            "image": "", 
                            "id": 0, 
                            "name": "sauce", 
                            "localizedName": "sauce"
                        }, 
                        {
                            "image": "ribeye-raw.jpg", 
                            "id": 23232, 
                            "name": "steak", 
                            "localizedName": "steak"
                        }
                    ]
                }, 
                {
                    "equipment": [], 
                    "step": "Let rest 10 minutes. Lightly shred.", 
                    "length": {
                        "number": 10, 
                        "unit": "minutes"
                    }, 
                    "number": 5, 
                    "ingredients": []
                }, 
                {
                    "equipment": [], 
                    "step": "Add 1/2 cup of the cooking liquid, then drizzle on the honey.", 
                    "number": 6, 
                    "ingredients": [
                        {
                            "image": "honey.png", 
                            "id": 19296, 
                            "name": "honey", 
                            "localizedName": "honey"
                        }
                    ]
                }, 
                {
                    "equipment": [
                        {
                            "image": "oven.jpg", 
                            "id": 405914, 
                            "name": "broiler", 
                            "localizedName": "broiler"
                        }
                    ], 
                    "step": "Transfer to the broiler. Broil for 2-5 minutes, until the streak caramelizes. Watch closely! Toss with additional cooking liquid, if desired.", 
                    "length": {
                        "number": 5, 
                        "unit": "minutes"
                    }, 
                    "number": 7, 
                    "ingredients": []
                }, 
                {
                    "equipment": [
                        {
                            "id": 404784, 
                            "image": "oven.jpg", 
                            "name": "oven", 
                            "temperature": {
                                "number": 425.0, 
                                "unit": "Fahrenheit"
                            }, 
                            "localizedName": "oven"
                        }
                    ], 
                    "step": "Meanwhile, make the fries. Preheat the oven to 425 degrees F.", 
                    "number": 8, 
                    "ingredients": [
                        {
                            "image": "french-fries-isolated.jpg", 
                            "id": 11408, 
                            "name": "french fries", 
                            "localizedName": "french fries"
                        }
                    ]
                }, 
                {
                    "equipment": [
                        {
                            "image": "baking-sheet.jpg", 
                            "id": 404727, 
                            "name": "baking sheet", 
                            "localizedName": "baking sheet"
                        }
                    ], 
                    "step": "Place the potatoes on a large baking sheet and toss with olive oil, chili powder, paprika, garlic powder, and a large pinch of salt.", 
                    "number": 9, 
                    "ingredients": [
                        {
                            "image": "garlic-powder.png", 
                            "id": 1022020, 
                            "name": "garlic powder", 
                            "localizedName": "garlic powder"
                        }, 
                        {
                            "image": "chili-powder.jpg", 
                            "id": 2009, 
                            "name": "chili powder", 
                            "localizedName": "chili powder"
                        }, 
                        {
                            "image": "olive-oil.jpg", 
                            "id": 4053, 
                            "name": "olive oil", 
                            "localizedName": "olive oil"
                        }, 
                        {
                            "image": "potatoes-yukon-gold.png", 
                            "id": 11352, 
                            "name": "potato", 
                            "localizedName": "potato"
                        }, 
                        {
                            "image": "paprika.jpg", 
                            "id": 2028, 
                            "name": "paprika", 
                            "localizedName": "paprika"
                        }, 
                        {
                            "image": "salt.jpg", 
                            "id": 2047, 
                            "name": "salt", 
                            "localizedName": "salt"
                        }
                    ]
                }, 
                {
                    "equipment": [
                        {
                            "image": "baking-sheet.jpg", 
                            "id": 404727, 
                            "name": "baking sheet", 
                            "localizedName": "baking sheet"
                        }, 
                        {
                            "image": "pan.png", 
                            "id": 404645, 
                            "name": "frying pan", 
                            "localizedName": "frying pan"
                        }
                    ], 
                    "step": "Spread the fries in an even layer. Do not overcrowd the pan, if needed, divide the fries between 2 baking sheets.", 
                    "number": 10, 
                    "ingredients": [
                        {
                            "image": "", 
                            "id": 0, 
                            "name": "spread", 
                            "localizedName": "spread"
                        }, 
                        {
                            "image": "french-fries-isolated.jpg", 
                            "id": 11408, 
                            "name": "french fries", 
                            "localizedName": "french fries"
                        }
                    ]
                }, 
                {
                    "equipment": [
                        {
                            "image": "oven.jpg", 
                            "id": 404784, 
                            "name": "oven", 
                            "localizedName": "oven"
                        }
                    ], 
                    "step": "Transfer to the oven and bake for 15-20 minutes, then flip and bake for 15 minutes more.", 
                    "length": {
                        "number": 35, 
                        "unit": "minutes"
                    }, 
                    "number": 11, 
                    "ingredients": []
                }, 
                {
                    "equipment": [], 
                    "step": "To make the sauce.", 
                    "number": 12, 
                    "ingredients": [
                        {
                            "image": "", 
                            "id": 0, 
                            "name": "sauce", 
                            "localizedName": "sauce"
                        }
                    ]
                }, 
                {
                    "equipment": [
                        {
                            "image": "bowl.jpg", 
                            "id": 404783, 
                            "name": "bowl", 
                            "localizedName": "bowl"
                        }
                    ], 
                    "step": "Combine all ingredients in a bowl and mix until combined. Season with salt.", 
                    "number": 13, 
                    "ingredients": [
                        {
                            "image": "salt.jpg", 
                            "id": 2047, 
                            "name": "salt", 
                            "localizedName": "salt"
                        }
                    ]
                }, 
                {
                    "equipment": [], 
                    "step": "Stuff the carne asada into the warmed tortillas. Top as desired with lettuce, avocado, fries, cheese, and additional sauce. Enjoy!\u00a0", 
                    "number": 14, 
                    "ingredients": [
                        {
                            "image": "flour-tortilla.jpg", 
                            "id": 18364, 
                            "name": "tortilla", 
                            "localizedName": "tortilla"
                        }, 
                        {
                            "image": "avocado.jpg", 
                            "id": 9037, 
                            "name": "avocado", 
                            "localizedName": "avocado"
                        }, 
                        {
                            "image": "iceberg-lettuce.jpg", 
                            "id": 11252, 
                            "name": "lettuce", 
                            "localizedName": "lettuce"
                        }, 
                        {
                            "image": "cheddar-cheese.png", 
                            "id": 1041009, 
                            "name": "cheese", 
                            "localizedName": "cheese"
                        }, 
                        {
                            "image": "french-fries-isolated.jpg", 
                            "id": 11408, 
                            "name": "french fries", 
                            "localizedName": "french fries"
                        }, 
                        {
                            "image": "", 
                            "id": 0, 
                            "name": "sauce", 
                            "localizedName": "sauce"
                        }
                    ]
                }, 
                {
                    "equipment": [
                        {
                            "image": "", 
                            "id": 414093, 
                            "name": "instant pot", 
                            "localizedName": "instant pot"
                        }, 
                        {
                            "image": "bowl.jpg", 
                            "id": 404783, 
                            "name": "bowl", 
                            "localizedName": "bowl"
                        }
                    ], 
                    "step": "Cut the steak into 4 pieces. In the bowl of your instant pot, combine the steak, garlic, chili powder, onion powder, paprika, pinch of salt, olive oil, lime juice and zest. Rub the seasonings into the steak.", 
                    "number": 15, 
                    "ingredients": [
                        {
                            "image": "chili-powder.jpg", 
                            "id": 2009, 
                            "name": "chili powder", 
                            "localizedName": "chili powder"
                        }, 
                        {
                            "image": "onion-powder.jpg", 
                            "id": 2026, 
                            "name": "onion powder", 
                            "localizedName": "onion powder"
                        }, 
                        {
                            "image": "lime-juice.png", 
                            "id": 9160, 
                            "name": "lime juice", 
                            "localizedName": "lime juice"
                        }, 
                        {
                            "image": "seasoning.png", 
                            "id": 1042027, 
                            "name": "seasoning", 
                            "localizedName": "seasoning"
                        }, 
                        {
                            "image": "olive-oil.jpg", 
                            "id": 4053, 
                            "name": "olive oil", 
                            "localizedName": "olive oil"
                        }, 
                        {
                            "image": "paprika.jpg", 
                            "id": 2028, 
                            "name": "paprika", 
                            "localizedName": "paprika"
                        }, 
                        {
                            "image": "garlic.png", 
                            "id": 11215, 
                            "name": "garlic", 
                            "localizedName": "garlic"
                        }, 
                        {
                            "image": "ribeye-raw.jpg", 
                            "id": 23232, 
                            "name": "steak", 
                            "localizedName": "steak"
                        }, 
                        {
                            "image": "salt.jpg", 
                            "id": 2047, 
                            "name": "salt", 
                            "localizedName": "salt"
                        }, 
                        {
                            "image": "seasoning.png", 
                            "id": 1012034, 
                            "name": "dry seasoning rub", 
                            "localizedName": "dry seasoning rub"
                        }
                    ]
                }, 
                {
                    "equipment": [], 
                    "step": "Add the beer. Cover and cook on high pressure/manual for 8 minutes. Once done cooking, use the natural or quick release function and release the steam.", 
                    "length": {
                        "number": 8, 
                        "unit": "minutes"
                    }, 
                    "number": 16, 
                    "ingredients": [
                        {
                            "image": "beer.jpg", 
                            "id": 14003, 
                            "name": "beer", 
                            "localizedName": "beer"
                        }
                    ]
                }, 
                {
                    "equipment": [
                        {
                            "image": "oven.jpg", 
                            "id": 405914, 
                            "name": "broiler", 
                            "localizedName": "broiler"
                        }
                    ], 
                    "step": "Preheat the broiler to high.", 
                    "number": 17, 
                    "ingredients": []
                }, 
                {
                    "equipment": [
                        {
                            "image": "baking-sheet.jpg", 
                            "id": 404727, 
                            "name": "baking sheet", 
                            "localizedName": "baking sheet"
                        }
                    ], 
                    "step": "Remove the steak from the sauce to a baking sheet.", 
                    "number": 18, 
                    "ingredients": [
                        {
                            "image": "", 
                            "id": 0, 
                            "name": "sauce", 
                            "localizedName": "sauce"
                        }, 
                        {
                            "image": "ribeye-raw.jpg", 
                            "id": 23232, 
                            "name": "steak", 
                            "localizedName": "steak"
                        }
                    ]
                }, 
                {
                    "equipment": [], 
                    "step": "Let rest 10 minutes. Lightly shred.", 
                    "length": {
                        "number": 10, 
                        "unit": "minutes"
                    }, 
                    "number": 19, 
                    "ingredients": []
                }, 
                {
                    "equipment": [], 
                    "step": "Add 1/2 cup of the cooking liquid, then drizzle on the honey.", 
                    "number": 20, 
                    "ingredients": [
                        {
                            "image": "honey.png", 
                            "id": 19296, 
                            "name": "honey", 
                            "localizedName": "honey"
                        }
                    ]
                }, 
                {
                    "equipment": [
                        {
                            "image": "oven.jpg", 
                            "id": 405914, 
                            "name": "broiler", 
                            "localizedName": "broiler"
                        }
                    ], 
                    "step": "Transfer to the broiler. Broil for 2-5 minutes, until the streak caramelizes. Watch closely! Toss with additional cooking liquid, if desired.", 
                    "length": {
                        "number": 5, 
                        "unit": "minutes"
                    }, 
                    "number": 21, 
                    "ingredients": []
                }, 
                {
                    "equipment": [], 
                    "step": "Follow the directions as directed above for steps 3-", 
                    "number": 22, 
                    "ingredients": []
                }, 
                {
                    "equipment": [
                        {
                            "image": "pan.png", 
                            "id": 404645, 
                            "name": "frying pan", 
                            "localizedName": "frying pan"
                        }
                    ], 
                    "step": "Place the steak in a 9x13 inch pan.", 
                    "number": 23, 
                    "ingredients": [
                        {
                            "image": "ribeye-raw.jpg", 
                            "id": 23232, 
                            "name": "steak", 
                            "localizedName": "steak"
                        }
                    ]
                }, 
                {
                    "equipment": [], 
                    "step": "Add the garlic, chili powder, onion powder, paprika, pinch of salt, olive oil, lime juice and zest. Rub the seasonings into the steak.", 
                    "number": 24, 
                    "ingredients": [
                        {
                            "image": "chili-powder.jpg", 
                            "id": 2009, 
                            "name": "chili powder", 
                            "localizedName": "chili powder"
                        }, 
                        {
                            "image": "onion-powder.jpg", 
                            "id": 2026, 
                            "name": "onion powder", 
                            "localizedName": "onion powder"
                        }, 
                        {
                            "image": "lime-juice.png", 
                            "id": 9160, 
                            "name": "lime juice", 
                            "localizedName": "lime juice"
                        }, 
                        {
                            "image": "seasoning.png", 
                            "id": 1042027, 
                            "name": "seasoning", 
                            "localizedName": "seasoning"
                        }, 
                        {
                            "image": "olive-oil.jpg", 
                            "id": 4053, 
                            "name": "olive oil", 
                            "localizedName": "olive oil"
                        }, 
                        {
                            "image": "paprika.jpg", 
                            "id": 2028, 
                            "name": "paprika", 
                            "localizedName": "paprika"
                        }, 
                        {
                            "image": "garlic.png", 
                            "id": 11215, 
                            "name": "garlic", 
                            "localizedName": "garlic"
                        }, 
                        {
                            "image": "ribeye-raw.jpg", 
                            "id": 23232, 
                            "name": "steak", 
                            "localizedName": "steak"
                        }, 
                        {
                            "image": "salt.jpg", 
                            "id": 2047, 
                            "name": "salt", 
                            "localizedName": "salt"
                        }, 
                        {
                            "image": "seasoning.png", 
                            "id": 1012034, 
                            "name": "dry seasoning rub", 
                            "localizedName": "dry seasoning rub"
                        }
                    ]
                }, 
                {
                    "equipment": [
                        {
                            "image": "grill-pan.jpg", 
                            "id": 404648, 
                            "name": "grill pan", 
                            "localizedName": "grill pan"
                        }, 
                        {
                            "image": "grill.jpg", 
                            "id": 404706, 
                            "name": "grill", 
                            "localizedName": "grill"
                        }
                    ], 
                    "step": "Add the beer. Marinate 30 minutes or in the fridge as long as overnight.\u00a02.\u00a0Preheat your grill or grill pan to high.\u00a0", 
                    "length": {
                        "number": 30, 
                        "unit": "minutes"
                    }, 
                    "number": 25, 
                    "ingredients": [
                        {
                            "image": "beer.jpg", 
                            "id": 14003, 
                            "name": "beer", 
                            "localizedName": "beer"
                        }
                    ]
                }, 
                {
                    "equipment": [], 
                    "step": "Remove the steak from its marinade and sear the steak for 5-8 minutes, flip and sear another 5 minutes or until your desired doneness is reached.", 
                    "length": {
                        "number": 13, 
                        "unit": "minutes"
                    }, 
                    "number": 26, 
                    "ingredients": [
                        {
                            "image": "seasoning.png", 
                            "id": 0, 
                            "name": "marinade", 
                            "localizedName": "marinade"
                        }, 
                        {
                            "image": "ribeye-raw.jpg", 
                            "id": 23232, 
                            "name": "steak", 
                            "localizedName": "steak"
                        }
                    ]
                }, 
                {
                    "equipment": [
                        {
                            "image": "grill.jpg", 
                            "id": 404706, 
                            "name": "grill", 
                            "localizedName": "grill"
                        }
                    ], 
                    "step": "Remove the steak from the grill and allow to rest 10 minutes. Slice steak thinly against the grain.", 
                    "length": {
                        "number": 10, 
                        "unit": "minutes"
                    }, 
                    "number": 27, 
                    "ingredients": [
                        {
                            "image": "", 
                            "id": 0, 
                            "name": "grains", 
                            "localizedName": "grains"
                        }, 
                        {
                            "image": "ribeye-raw.jpg", 
                            "id": 23232, 
                            "name": "steak", 
                            "localizedName": "steak"
                        }
                    ]
                }, 
                {
                    "equipment": [], 
                    "step": "Follow the directions as directed above for steps 3-6.", 
                    "number": 28, 
                    "ingredients": []
                }
            ], 
            "name": ""
        }
    ], 
    "winePairing": {
        "pairingText": "Pinot Noir, Riesling, and Sparkling ros\u00e9 are great choices for Tacos. Acidic white wines like riesling or low-tannin reds like pinot noir can work well with Mexican dishes. Sparkling ros\u00e9 is a safe pairing too. You could try Archery Summit Willamette Valley Pinot Noir. Reviewers quite like it with a 4.9 out of 5 star rating and a price of about 40 dollars per bottle.", 
        "pairedWines": [
            "pinot noir", 
            "riesling", 
            "sparkling rose"
        ], 
        "productMatches": [
            {
                "imageUrl": "https://spoonacular.com/productImages/482880-312x231.jpg", 
                "description": "Fiercely aromatic, this wine boldly blends a pair of unique Willamette Valley subappellations under a single cork. Its presence is immediately felt in the form of a perfume-driven and penetrating aroma of fennel, mulberry, and dried anise. On the palate, the Pinot Noir is firm and vivid, with an abundance of bramble and wild huckleberry notes.Fusing the elegance of the Dundee Hills, the raw muscle of the Eola-Amity Hills, and the dark-fruited nature of Shea Vineyard, this wine epitomizes the spirit of the valley. With slightly firm tannins and an underlying brightness, it is a full, balanced, and deservedly outspoken Pinot Noir. The remarkable 2018 vintage celebrates balance, texture, and intense color, and this wine neatly expresses all of the above.", 
                "title": "Archery Summit Willamette Valley Pinot Noir", 
                "price": "$39.99", 
                "score": 0.9273684210526316, 
                "link": "https://click.linksynergy.com/deeplink?id=*QCiIS6t4gA&mid=2025&murl=https%3A%2F%2Fwww.wine.com%2Fproduct%2Farchery-summit-willamette-valley-pinot-noir-2017%2F596432", 
                "ratingCount": 6.0, 
                "id": 482880, 
                "averageRating": 0.9800000000000001
            }
        ]
    }, 
    "aggregateLikes": 8093, 
    "instructions": "1. In the bowl of your slow cooker, combine the steak, garlic, chili powder, onion powder, paprika, pinch of salt, olive oil, lime juice and zest. Rub the seasonings into the steak. Add the beer. Cover and cook on low for 6 hours or on high for 3-4 hours.2. Preheat the broiler to high. Remove the steak from the sauce to a baking sheet. Let rest 10 minutes. Lightly shred. Add 1/2 cup of the cooking liquid, then drizzle on the honey. Transfer to the broiler. Broil for 2-5 minutes, until the streak caramelizes. Watch closely! Toss with additional cooking liquid, if desired.3. Meanwhile, make the fries. Preheat the oven to 425 degrees F.4. Place the potatoes on a large baking sheet and toss with olive oil, chili powder, paprika, garlic powder, and a large pinch of salt. Spread the fries in an even layer. Do not overcrowd the pan, if needed, divide the fries between 2 baking sheets. Transfer to the oven and bake for 15-20 minutes, then flip and bake for 15 minutes more.5. To make the sauce. Combine all ingredients in a bowl and mix until combined. Season with salt.6. Stuff the carne asada into the warmed tortillas. Top as desired with lettuce, avocado, fries, cheese, and additional sauce. Enjoy!\u00a0\n1.\u00a0Cut the steak into 4 pieces. In the bowl of your instant pot, combine the steak, garlic, chili powder, onion powder, paprika, pinch of salt, olive oil, lime juice and zest. Rub the seasonings into the steak. Add the beer. Cover and cook on high pressure/manual for 8 minutes. Once done cooking, use the natural or quick release function and release the steam.2. Preheat the broiler to high. Remove the steak from the sauce to a baking sheet. Let rest 10 minutes. Lightly shred. Add 1/2 cup of the cooking liquid, then drizzle on the honey. Transfer to the broiler. Broil for 2-5 minutes, until the streak caramelizes. Watch closely! Toss with additional cooking liquid, if desired.3. Follow the directions as directed above for steps 3-6.\n1. Place the steak in a 9x13 inch pan. Add the garlic, chili powder, onion powder, paprika, pinch of salt, olive oil, lime juice and zest. Rub the seasonings into the steak. Add the beer. Marinate 30 minutes or in the fridge as long as overnight.\u00a02.\u00a0Preheat your grill or grill pan to high.\u00a03. Remove the steak from its marinade and sear the steak for 5-8 minutes, flip and sear another 5 minutes or until your desired doneness is reached. Remove the steak from the grill and allow to rest 10 minutes. Slice steak thinly against the grain.4. Follow the directions as directed above for steps 3-6.", 
    "dishTypes": "main course", 
    "occasions": [], 
    "vegetarian": false, 
    "originalId": null, 
    "summary": "If you want to add more South American recipes to your recipe box, Crockpot Carne Asada Tacos with Cilantro Lime Garlic Sauce might be a recipe you should try. This recipe serves 6 and costs $3.86 per serving. This main course has 485 calories, 39g of protein, and 21g of fat per serving. 8093 people have tried and liked this recipe. Head to the store and pick up potatoes, flour tortillas, juice of lime, and a few other things to make it today. From preparation to the plate, this recipe takes approximately 4 hours and 15 minutes. It is brought to you by Half Baked Harvest. All things considered, we decided this recipe deserves a spoonacular score of 0%. This score is very bad (but still fixable). Similar recipes are Loaded Crockpot Carne Asada Tacos, Crockpot Carne Asada Nachos, and Crockpot Carne Asada Nachos.", 
    "readyInMinutes": 255, 
    "servings": 6, 
    "sustainable": false, 
    "dairyFree": false
}