{
    "recipes": [
        {
            "rating": 3, 
            "sourceName": "Foodista", 
            "cuisines": "Thai", 
            "image": "https://spoonacular.com/recipeImages/663151-556x370.jpg", 
            "cheap": false, 
            "gaps": "no", 
            "creditsText": "Foodista.com \u2013 The Cooking Encyclopedia Everyone Can Edit", 
            "id": 93, 
            "veryPopular": false, 
            "lowFodmap": false, 
            "title": "Thai Shrimp", 
            "diets": [
                "gluten free", 
                "dairy free", 
                "pescatarian"
            ], 
            "pricePerServing": 342.07, 
            "extendedIngredients": [
                {
                    "aisle": "Produce", 
                    "name": "basil leaves", 
                    "nameClean": "fresh basil", 
                    "image": "fresh-basil.jpg", 
                    "measures": {
                        "metric": {
                            "unitLong": "bunch", 
                            "unitShort": "bunch", 
                            "amount": 1.0
                        }, 
                        "us": {
                            "unitLong": "bunch", 
                            "unitShort": "bunch", 
                            "amount": 1.0
                        }
                    }, 
                    "id": 2044, 
                    "amount": 1.0, 
                    "meta": [], 
                    "consistency": "solid", 
                    "originalName": "basil leaves, 2 c. leaves", 
                    "original": "1 bunch basil leaves, 2 c. leaves", 
                    "unit": "bunch"
                }, 
                {
                    "aisle": "Canned and Jarred", 
                    "name": "chicken stock", 
                    "nameClean": "chicken stock", 
                    "image": "chicken-broth.png", 
                    "measures": {
                        "metric": {
                            "unitLong": "liters", 
                            "unitShort": "l", 
                            "amount": 1.893
                        }, 
                        "us": {
                            "unitLong": "cups", 
                            "unitShort": "cups", 
                            "amount": 8.0
                        }
                    }, 
                    "id": 6172, 
                    "amount": 8.0, 
                    "meta": [], 
                    "consistency": "liquid", 
                    "originalName": "chicken stock", 
                    "original": "8 cups chicken stock", 
                    "unit": "cups"
                }, 
                {
                    "aisle": "Pasta and Rice", 
                    "name": "cooked rice", 
                    "nameClean": "cooked rice", 
                    "image": "cooked-white-rice.png", 
                    "measures": {
                        "metric": {
                            "unitLong": "servings", 
                            "unitShort": "servings", 
                            "amount": 4.0
                        }, 
                        "us": {
                            "unitLong": "servings", 
                            "unitShort": "servings", 
                            "amount": 4.0
                        }
                    }, 
                    "id": 10220445, 
                    "amount": 4.0, 
                    "meta": [
                        "hot", 
                        "cooked"
                    ], 
                    "consistency": "solid", 
                    "originalName": "Hot cooked rice", 
                    "original": "Hot cooked rice", 
                    "unit": "servings"
                }, 
                {
                    "aisle": "Ethnic Foods", 
                    "name": "fish sauce", 
                    "nameClean": "fish sauce", 
                    "image": "asian-fish-sauce.jpg", 
                    "measures": {
                        "metric": {
                            "unitLong": "Tbsps", 
                            "unitShort": "Tbsps", 
                            "amount": 2.0
                        }, 
                        "us": {
                            "unitLong": "Tbsps", 
                            "unitShort": "Tbsps", 
                            "amount": 2.0
                        }
                    }, 
                    "id": 6179, 
                    "amount": 2.0, 
                    "meta": [], 
                    "consistency": "liquid", 
                    "originalName": "fish sauce", 
                    "original": "2 tablespoons fish sauce", 
                    "unit": "tablespoons"
                }, 
                {
                    "aisle": "Produce", 
                    "name": "green onions", 
                    "nameClean": "spring onions", 
                    "image": "spring-onions.jpg", 
                    "measures": {
                        "metric": {
                            "unitLong": "", 
                            "unitShort": "", 
                            "amount": 4.0
                        }, 
                        "us": {
                            "unitLong": "", 
                            "unitShort": "", 
                            "amount": 4.0
                        }
                    }, 
                    "id": 11291, 
                    "amount": 4.0, 
                    "meta": [], 
                    "consistency": "solid", 
                    "originalName": "green onions", 
                    "original": "4 green onions", 
                    "unit": ""
                }, 
                {
                    "aisle": "Oil, Vinegar, Salad Dressing", 
                    "name": "peanut oil", 
                    "nameClean": "peanut oil", 
                    "image": "peanut-oil.jpg", 
                    "measures": {
                        "metric": {
                            "unitLong": "teaspoon", 
                            "unitShort": "tsp", 
                            "amount": 1.0
                        }, 
                        "us": {
                            "unitLong": "teaspoon", 
                            "unitShort": "tsp", 
                            "amount": 1.0
                        }
                    }, 
                    "id": 4042, 
                    "amount": 1.0, 
                    "meta": [
                        "organic"
                    ], 
                    "consistency": "liquid", 
                    "originalName": "organic peanut oil", 
                    "original": "1 teaspoon organic peanut oil", 
                    "unit": "teaspoon"
                }, 
                {
                    "aisle": "Produce", 
                    "name": "red chilies", 
                    "nameClean": "chili pepper", 
                    "image": "red-chili.jpg", 
                    "measures": {
                        "metric": {
                            "unitLong": "", 
                            "unitShort": "", 
                            "amount": 3.0
                        }, 
                        "us": {
                            "unitLong": "", 
                            "unitShort": "", 
                            "amount": 3.0
                        }
                    }, 
                    "id": 11819, 
                    "amount": 3.0, 
                    "meta": [
                        "green", 
                        "red", 
                        "hot"
                    ], 
                    "consistency": "solid", 
                    "originalName": "hot red or green chilies", 
                    "original": "3 hot red or green chilies", 
                    "unit": ""
                }, 
                {
                    "aisle": "Seafood", 
                    "name": "shrimp", 
                    "nameClean": "shrimp", 
                    "image": "shrimp.png", 
                    "measures": {
                        "metric": {
                            "unitLong": "grams", 
                            "unitShort": "g", 
                            "amount": 226.796
                        }, 
                        "us": {
                            "unitLong": "ounces", 
                            "unitShort": "oz", 
                            "amount": 8.0
                        }
                    }, 
                    "id": 15270, 
                    "amount": 8.0, 
                    "meta": [
                        "deveined", 
                        "cooked", 
                        "peeled", 
                        "per pound"
                    ], 
                    "consistency": "solid", 
                    "originalName": "shrimp, cooked, peeled, and deveined, 51 \u2013 60 per pound", 
                    "original": "8 ounces shrimp, cooked, peeled, and deveined, 51 \u2013 60 per pound", 
                    "unit": "ounces"
                }, 
                {
                    "aisle": "Ethnic Foods;Condiments", 
                    "name": "soy sauce", 
                    "nameClean": "soy sauce", 
                    "image": "soy-sauce.jpg", 
                    "measures": {
                        "metric": {
                            "unitLong": "teaspoons", 
                            "unitShort": "tsps", 
                            "amount": 2.0
                        }, 
                        "us": {
                            "unitLong": "teaspoons", 
                            "unitShort": "tsps", 
                            "amount": 2.0
                        }
                    }, 
                    "id": 16124, 
                    "amount": 2.0, 
                    "meta": [], 
                    "consistency": "liquid", 
                    "originalName": "soy sauce", 
                    "original": "2 teaspoons soy sauce", 
                    "unit": "teaspoons"
                }, 
                {
                    "aisle": "Baking", 
                    "name": "sugar", 
                    "nameClean": "sugar", 
                    "image": "sugar-in-bowl.png", 
                    "measures": {
                        "metric": {
                            "unitLong": "teaspoon", 
                            "unitShort": "tsp", 
                            "amount": 1.0
                        }, 
                        "us": {
                            "unitLong": "teaspoon", 
                            "unitShort": "tsp", 
                            "amount": 1.0
                        }
                    }, 
                    "id": 19335, 
                    "amount": 1.0, 
                    "meta": [], 
                    "consistency": "solid", 
                    "originalName": "sugar", 
                    "original": "1 teaspoon sugar", 
                    "unit": "teaspoon"
                }
            ], 
            "healthScore": 23.0, 
            "imageType": "jpg", 
            "spoonacularScore": 75.0, 
            "sourceUrl": "http://www.foodista.com/recipe/R35HC6C4/thai-shrimp", 
            "glutenFree": true, 
            "vegan": false, 
            "veryHealthy": false, 
            "weightWatcherSmartPoints": 9, 
            "analyzedInstructions": [
                {
                    "steps": [
                        {
                            "equipment": [], 
                            "step": "Peel and devein shrimp. Wash, dry and steam basil, mince garlic, thinly slice seeded chilies, mince white part of onion and cut green part into 1 inch pieces. Recipe can be prepared ahead to this stage.", 
                            "number": 1, 
                            "ingredients": [
                                {
                                    "image": "red-chili.jpg", 
                                    "id": 11819, 
                                    "name": "chili pepper", 
                                    "localizedName": "chili pepper"
                                }, 
                                {
                                    "image": "garlic.png", 
                                    "id": 11215, 
                                    "name": "garlic", 
                                    "localizedName": "garlic"
                                }, 
                                {
                                    "image": "shrimp.png", 
                                    "id": 15270, 
                                    "name": "shrimp", 
                                    "localizedName": "shrimp"
                                }, 
                                {
                                    "image": "basil.jpg", 
                                    "id": 2044, 
                                    "name": "basil", 
                                    "localizedName": "basil"
                                }, 
                                {
                                    "image": "fresh-ground-beef.jpg", 
                                    "id": 0, 
                                    "name": "ground meat", 
                                    "localizedName": "ground meat"
                                }, 
                                {
                                    "image": "brown-onion.png", 
                                    "id": 11282, 
                                    "name": "onion", 
                                    "localizedName": "onion"
                                }
                            ]
                        }, 
                        {
                            "equipment": [
                                {
                                    "image": "wok.png", 
                                    "id": 404666, 
                                    "name": "wok", 
                                    "localizedName": "wok"
                                }
                            ], 
                            "step": "Heat wok over high heat. Swirl oil into wok and heat almost to smoking.", 
                            "number": 2, 
                            "ingredients": [
                                {
                                    "image": "vegetable-oil.jpg", 
                                    "id": 4582, 
                                    "name": "cooking oil", 
                                    "localizedName": "cooking oil"
                                }
                            ]
                        }, 
                        {
                            "equipment": [], 
                            "step": "Add garlic, chilies, onions (white part), and cook 10-15 seconds; add shrimp and stir fry 20 seconds or until they change color.", 
                            "number": 3, 
                            "ingredients": [
                                {
                                    "image": "red-chili.jpg", 
                                    "id": 11819, 
                                    "name": "chili pepper", 
                                    "localizedName": "chili pepper"
                                }, 
                                {
                                    "image": "garlic.png", 
                                    "id": 11215, 
                                    "name": "garlic", 
                                    "localizedName": "garlic"
                                }, 
                                {
                                    "image": "brown-onion.png", 
                                    "id": 11282, 
                                    "name": "onion", 
                                    "localizedName": "onion"
                                }, 
                                {
                                    "image": "shrimp.png", 
                                    "id": 15270, 
                                    "name": "shrimp", 
                                    "localizedName": "shrimp"
                                }
                            ]
                        }, 
                        {
                            "equipment": [], 
                            "step": "Add fish sauce, soy sauce, sugar, chicken, stock and green part of onions and bring mixture to a boil. Stir in basil and cook 20 seconds or until leaves wilt and shrimp are firm and pink. Dish is supposed to be soupy.", 
                            "number": 4, 
                            "ingredients": [
                                {
                                    "image": "asian-fish-sauce.jpg", 
                                    "id": 6179, 
                                    "name": "fish sauce", 
                                    "localizedName": "fish sauce"
                                }, 
                                {
                                    "image": "soy-sauce.jpg", 
                                    "id": 16124, 
                                    "name": "soy sauce", 
                                    "localizedName": "soy sauce"
                                }, 
                                {
                                    "image": "whole-chicken.jpg", 
                                    "id": 5006, 
                                    "name": "whole chicken", 
                                    "localizedName": "whole chicken"
                                }, 
                                {
                                    "image": "brown-onion.png", 
                                    "id": 11282, 
                                    "name": "onion", 
                                    "localizedName": "onion"
                                }, 
                                {
                                    "image": "shrimp.png", 
                                    "id": 15270, 
                                    "name": "shrimp", 
                                    "localizedName": "shrimp"
                                }, 
                                {
                                    "image": "basil.jpg", 
                                    "id": 2044, 
                                    "name": "basil", 
                                    "localizedName": "basil"
                                }, 
                                {
                                    "image": "chicken-broth.png", 
                                    "id": 1006615, 
                                    "name": "stock", 
                                    "localizedName": "stock"
                                }, 
                                {
                                    "image": "sugar-in-bowl.png", 
                                    "id": 19335, 
                                    "name": "sugar", 
                                    "localizedName": "sugar"
                                }
                            ]
                        }, 
                        {
                            "equipment": [], 
                            "step": "Serve over hot cooked rice.", 
                            "number": 5, 
                            "ingredients": [
                                {
                                    "image": "uncooked-white-rice.png", 
                                    "id": 10220445, 
                                    "name": "cooked rice", 
                                    "localizedName": "cooked rice"
                                }
                            ]
                        }
                    ], 
                    "name": ""
                }
            ], 
            "aggregateLikes": 11, 
            "instructions": "Peel and devein shrimp. Wash, dry and steam basil, mince garlic, thinly slice seeded chilies, mince white part of onion and cut green part into 1 inch pieces. Recipe can be prepared ahead to this stage.Heat wok over high heat. Swirl oil into wok and heat almost to smoking. Add garlic, chilies, onions (white part), and cook 10-15 seconds; add shrimp and stir fry 20 seconds or until they change color. Add fish sauce, soy sauce, sugar, chicken, stock and green part of onions and bring mixture to a boil. Stir in basil and cook 20 seconds or until leaves wilt and shrimp are firm and pink. Dish is supposed to be soupy. Serve over hot cooked rice.", 
            "license": "CC BY 3.0", 
            "dishTypes": "main course", 
            "occasions": [], 
            "vegetarian": false, 
            "spoonacularSourceUrl": "https://spoonacular.com/thai-shrimp-663151", 
            "originalId": null, 
            "summary": "The recipe Thai Shrimp is ready in about 45 minutes and is definitely an excellent gluten free, dairy free, and pescatarian option for lovers of Asian food. This recipe makes 4 servings with 368 calories, 27g of protein, and 8g of fat each. For $3.42 per serving, this recipe covers 23% of your daily requirements of vitamins and minerals. It works well as a pretty expensive main course. 8 people have made this recipe and would make it again. A mixture of chilies, chicken stock, rice, and a handful of other ingredients are all it takes to make this recipe so yummy. To use up the peanut oil you could follow this main course with the Salted Peanut Toffee Cookies as a dessert. All things considered, we decided this recipe deserves a spoonacular score of 74%. This score is solid. Try Shrimp Pad Thai for Two, Shrimp Pad Thai, and Shrimp Pad Thai for similar recipes.", 
            "readyInMinutes": 45, 
            "servings": 4, 
            "sustainable": false, 
            "dairyFree": true
        }
    ]
}