{
    "recipes": [
        {
            "rating": 4, 
            "sourceName": "Pink When", 
            "cuisines": "Italian", 
            "image": "https://spoonacular.com/recipeImages/715495-556x370.jpg", 
            "cheap": false, 
            "gaps": "no", 
            "creditsText": "Jen West", 
            "cookingMinutes": 10, 
            "id": 94, 
            "veryPopular": true, 
            "lowFodmap": false, 
            "title": "Turkey Tomato Cheese Pizza", 
            "diets": [], 
            "preparationMinutes": 5, 
            "pricePerServing": 241.43, 
            "extendedIngredients": [
                {
                    "aisle": "Produce", 
                    "name": "green bell pepper", 
                    "nameClean": "green pepper", 
                    "image": "green-pepper.jpg", 
                    "measures": {
                        "metric": {
                            "unitLong": "servings", 
                            "unitShort": "servings", 
                            "amount": 6.0
                        }, 
                        "us": {
                            "unitLong": "servings", 
                            "unitShort": "servings", 
                            "amount": 6.0
                        }
                    }, 
                    "id": 11333, 
                    "amount": 6.0, 
                    "meta": [
                        "green", 
                        "chopped"
                    ], 
                    "consistency": "solid", 
                    "originalName": "green bell pepper, chopped", 
                    "original": "green bell pepper, chopped", 
                    "unit": "servings"
                }, 
                {
                    "aisle": "Produce;Spices and Seasonings", 
                    "name": "parsley", 
                    "nameClean": "parsley", 
                    "image": "parsley.jpg", 
                    "measures": {
                        "metric": {
                            "unitLong": "servings", 
                            "unitShort": "servings", 
                            "amount": 6.0
                        }, 
                        "us": {
                            "unitLong": "servings", 
                            "unitShort": "servings", 
                            "amount": 6.0
                        }
                    }, 
                    "id": 11297, 
                    "amount": 6.0, 
                    "meta": [], 
                    "consistency": "solid", 
                    "originalName": "parsley", 
                    "original": "parsley", 
                    "unit": "servings"
                }, 
                {
                    "aisle": "Produce", 
                    "name": "bell pepper", 
                    "nameClean": "bell pepper", 
                    "image": "bell-pepper-orange.png", 
                    "measures": {
                        "metric": {
                            "unitLong": "servings", 
                            "unitShort": "servings", 
                            "amount": 6.0
                        }, 
                        "us": {
                            "unitLong": "servings", 
                            "unitShort": "servings", 
                            "amount": 6.0
                        }
                    }, 
                    "id": 10211821, 
                    "amount": 6.0, 
                    "meta": [], 
                    "consistency": "solid", 
                    "originalName": "pepper", 
                    "original": "pepper", 
                    "unit": "servings"
                }, 
                {
                    "aisle": "Refrigerated", 
                    "name": "pie crust", 
                    "nameClean": "refrigerated pie crust", 
                    "image": "pie-crust.jpg", 
                    "measures": {
                        "metric": {
                            "unitLong": "servings", 
                            "unitShort": "servings", 
                            "amount": 6.0
                        }, 
                        "us": {
                            "unitLong": "servings", 
                            "unitShort": "servings", 
                            "amount": 6.0
                        }
                    }, 
                    "id": 18334, 
                    "amount": 6.0, 
                    "meta": [
                        "whole wheat"
                    ], 
                    "consistency": "solid", 
                    "originalName": "whole wheat crust", 
                    "original": "whole wheat crust", 
                    "unit": "servings"
                }, 
                {
                    "aisle": "Produce", 
                    "name": "roma tomato", 
                    "nameClean": "italian tomato", 
                    "image": "roma-tomatoes.png", 
                    "measures": {
                        "metric": {
                            "unitLong": "servings", 
                            "unitShort": "servings", 
                            "amount": 6.0
                        }, 
                        "us": {
                            "unitLong": "servings", 
                            "unitShort": "servings", 
                            "amount": 6.0
                        }
                    }, 
                    "id": 10211529, 
                    "amount": 6.0, 
                    "meta": [
                        "diced"
                    ], 
                    "consistency": "solid", 
                    "originalName": "Roma tomato, diced", 
                    "original": "Roma tomato, diced", 
                    "unit": "servings"
                }, 
                {
                    "aisle": "Cheese", 
                    "name": "shredded mozzarella cheese", 
                    "nameClean": "shredded mozzarella", 
                    "image": "shredded-cheese-white.jpg", 
                    "measures": {
                        "metric": {
                            "unitLong": "grams", 
                            "unitShort": "g", 
                            "amount": 28.35
                        }, 
                        "us": {
                            "unitLong": "ounce", 
                            "unitShort": "oz", 
                            "amount": 1.0
                        }
                    }, 
                    "id": 1001026, 
                    "amount": 1.0, 
                    "meta": [
                        "shredded"
                    ], 
                    "consistency": "solid", 
                    "originalName": "shredded M zarella cheese", 
                    "original": "shredded Mozzarella cheese", 
                    "unit": "oz"
                }, 
                {
                    "aisle": "Canned and Jarred", 
                    "name": "tomato sauce", 
                    "nameClean": "canned tomato sauce", 
                    "image": "tomato-sauce-or-pasta-sauce.jpg", 
                    "measures": {
                        "metric": {
                            "unitLong": "servings", 
                            "unitShort": "servings", 
                            "amount": 6.0
                        }, 
                        "us": {
                            "unitLong": "servings", 
                            "unitShort": "servings", 
                            "amount": 6.0
                        }
                    }, 
                    "id": 11549, 
                    "amount": 6.0, 
                    "meta": [], 
                    "consistency": "solid", 
                    "originalName": "tomato sauce", 
                    "original": "tomato sauce", 
                    "unit": "servings"
                }, 
                {
                    "aisle": "Meat", 
                    "name": "turkey breast", 
                    "nameClean": "boneless turkey breast", 
                    "image": "turkey-breast.jpg", 
                    "measures": {
                        "metric": {
                            "unitLong": "milliliters", 
                            "unitShort": "ml", 
                            "amount": 118.294
                        }, 
                        "us": {
                            "unitLong": "cups", 
                            "unitShort": "cups", 
                            "amount": 0.5
                        }
                    }, 
                    "id": 5696, 
                    "amount": 0.5, 
                    "meta": [
                        "cooked", 
                        "chopped", 
                        "()"
                    ], 
                    "consistency": "solid", 
                    "originalName": "chopped Turkey breast (cooked)", 
                    "original": "\u00bd-3/4 cup chopped Turkey breast (cooked)", 
                    "unit": "cup"
                }, 
                {
                    "aisle": "Produce", 
                    "name": "white onion", 
                    "nameClean": "white onion", 
                    "image": "white-onion.png", 
                    "measures": {
                        "metric": {
                            "unitLong": "servings", 
                            "unitShort": "servings", 
                            "amount": 6.0
                        }, 
                        "us": {
                            "unitLong": "servings", 
                            "unitShort": "servings", 
                            "amount": 6.0
                        }
                    }, 
                    "id": 10611282, 
                    "amount": 6.0, 
                    "meta": [
                        "white", 
                        "chopped"
                    ], 
                    "consistency": "solid", 
                    "originalName": "white onion, chopped", 
                    "original": "white onion, chopped", 
                    "unit": "servings"
                }
            ], 
            "healthScore": 33.0, 
            "imageType": "jpg", 
            "spoonacularScore": 97.0, 
            "sourceUrl": "http://www.pinkwhen.com/turkey-tomato-cheese-pizza-recipe/", 
            "glutenFree": false, 
            "vegan": false, 
            "veryHealthy": false, 
            "weightWatcherSmartPoints": 6, 
            "analyzedInstructions": [
                {
                    "steps": [
                        {
                            "equipment": [
                                {
                                    "image": "grill.jpg", 
                                    "id": 404706, 
                                    "name": "grill", 
                                    "localizedName": "grill"
                                }
                            ], 
                            "step": "Heat up your grill to 450 degrees.Start off with your whole wheat crust and spread the tomato sauce evenly over the top.", 
                            "number": 1, 
                            "ingredients": [
                                {
                                    "image": "tomato-sauce-or-pasta-sauce.jpg", 
                                    "id": 11549, 
                                    "name": "tomato sauce", 
                                    "localizedName": "tomato sauce"
                                }, 
                                {
                                    "image": "", 
                                    "id": 0, 
                                    "name": "spread", 
                                    "localizedName": "spread"
                                }, 
                                {
                                    "image": "", 
                                    "id": 0, 
                                    "name": "crust", 
                                    "localizedName": "crust"
                                }, 
                                {
                                    "image": "", 
                                    "id": 0, 
                                    "name": "wheat", 
                                    "localizedName": "wheat"
                                }
                            ]
                        }, 
                        {
                            "equipment": [], 
                            "step": "Add a little cheese, bell pepper, onion, turkey and create a layer.Top with another layer of cheese, turkey, tomato, bell pepper, onion.", 
                            "number": 2, 
                            "ingredients": [
                                {
                                    "image": "bell-pepper-orange.png", 
                                    "id": 10211821, 
                                    "name": "bell pepper", 
                                    "localizedName": "bell pepper"
                                }, 
                                {
                                    "image": "cheddar-cheese.png", 
                                    "id": 1041009, 
                                    "name": "cheese", 
                                    "localizedName": "cheese"
                                }, 
                                {
                                    "image": "tomato.png", 
                                    "id": 11529, 
                                    "name": "tomato", 
                                    "localizedName": "tomato"
                                }, 
                                {
                                    "image": "turkey-raw-whole.jpg", 
                                    "id": 5165, 
                                    "name": "whole turkey", 
                                    "localizedName": "whole turkey"
                                }, 
                                {
                                    "image": "brown-onion.png", 
                                    "id": 11282, 
                                    "name": "onion", 
                                    "localizedName": "onion"
                                }
                            ]
                        }, 
                        {
                            "equipment": [], 
                            "step": "Add another layer of cheese, and then sprinkle with pepper.", 
                            "number": 3, 
                            "ingredients": [
                                {
                                    "image": "cheddar-cheese.png", 
                                    "id": 1041009, 
                                    "name": "cheese", 
                                    "localizedName": "cheese"
                                }, 
                                {
                                    "image": "pepper.jpg", 
                                    "id": 1002030, 
                                    "name": "pepper", 
                                    "localizedName": "pepper"
                                }
                            ]
                        }, 
                        {
                            "equipment": [
                                {
                                    "image": "grill.jpg", 
                                    "id": 404706, 
                                    "name": "grill", 
                                    "localizedName": "grill"
                                }
                            ], 
                            "step": "Place the pizza on a ceramic grill plate and place into the grill.Grill for 6-10 minutes, or until cooked as desired.Slice, and serve immediately.", 
                            "length": {
                                "number": 10, 
                                "unit": "minutes"
                            }, 
                            "number": 4, 
                            "ingredients": []
                        }
                    ], 
                    "name": ""
                }
            ], 
            "aggregateLikes": 910, 
            "instructions": "Heat up your grill to 450 degrees.Start off with your whole wheat crust and spread the tomato sauce evenly over the top. Add a little cheese, bell pepper, onion, turkey and create a layer.Top with another layer of cheese, turkey, tomato, bell pepper, onion.Add another layer of cheese, and then sprinkle with pepper.Place the pizza on a ceramic grill plate and place into the grill.Grill for 6-10 minutes, or until cooked as desired.Slice, and serve immediately.", 
            "spoonacularSourceUrl": "https://spoonacular.com/turkey-tomato-cheese-pizza-715495", 
            "dishTypes": "main course", 
            "occasions": [], 
            "vegetarian": false, 
            "originalId": null, 
            "summary": "You can never have too many main course recipes, so give Turkey Tomato Cheese Pizzan a try. For $2.04 per serving, this recipe covers 22% of your daily requirements of vitamins and minerals. This recipe makes 6 servings with 242 calories, 19g of protein, and 8g of fat each. 910 people have made this recipe and would make it again. This recipe is typical of Mediterranean cuisine. From preparation to the plate, this recipe takes approximately 15 minutes. A mixture of bell pepper, onion, tomato sauce, and a handful of other ingredients are all it takes to make this recipe so yummy. To use up the pepper you could follow this main course with the Dr. Pepper Cake with Flour Cooked Frosting as a dessert. All things considered, we decided this recipe deserves a spoonacular score of 94%. This score is outstanding. Try Turkey Tomato Pizza, Tomato Cheese Pizza, and Cheese & Tomato Pizza for similar recipes.", 
            "readyInMinutes": 15, 
            "servings": 6, 
            "sustainable": false, 
            "dairyFree": false
        }
    ]
}