{
    "recipes": [
        {
            "rating": 4, 
            "sourceName": "Foodista", 
            "cuisines": "Irish", 
            "image": "https://spoonacular.com/recipeImages/664680-556x370.jpg", 
            "cheap": false, 
            "gaps": "no", 
            "creditsText": "Foodista.com \u2013 The Cooking Encyclopedia Everyone Can Edit", 
            "id": 97, 
            "veryPopular": false, 
            "lowFodmap": false, 
            "title": "Vegetarian Mushroom Shepherd's Pie", 
            "diets": [
                "gluten free", 
                "dairy free"
            ], 
            "pricePerServing": 119.65, 
            "extendedIngredients": [
                {
                    "aisle": "Produce", 
                    "name": "red skin potatoes", 
                    "nameClean": "red potato", 
                    "image": "red-potatoes.jpg", 
                    "measures": {
                        "metric": {
                            "unitLong": "kg", 
                            "unitShort": "kg", 
                            "amount": 1.0
                        }, 
                        "us": {
                            "unitLong": "pounds", 
                            "unitShort": "lb", 
                            "amount": 2.205
                        }
                    }, 
                    "id": 10011355, 
                    "amount": 1.0, 
                    "meta": [
                        "red"
                    ], 
                    "consistency": "solid", 
                    "originalName": "red skin potatoes", 
                    "original": "1 kg red skin potatoes", 
                    "unit": "kg"
                }, 
                {
                    "aisle": "Health Foods", 
                    "name": "soy lecithin granules", 
                    "nameClean": "soy lecithin granules", 
                    "image": "soy-lecithin.png", 
                    "measures": {
                        "metric": {
                            "unitLong": "grams", 
                            "unitShort": "g", 
                            "amount": 100.0
                        }, 
                        "us": {
                            "unitLong": "ounces", 
                            "unitShort": "oz", 
                            "amount": 3.527
                        }
                    }, 
                    "id": 98965, 
                    "amount": 100.0, 
                    "meta": [], 
                    "consistency": "solid", 
                    "originalName": "soy granules", 
                    "original": "100g soy granules", 
                    "unit": "g"
                }, 
                {
                    "aisle": "Produce", 
                    "name": "mushrooms", 
                    "nameClean": "fresh mushrooms", 
                    "image": "mushrooms-white.jpg", 
                    "measures": {
                        "metric": {
                            "unitLong": "kg", 
                            "unitShort": "kg", 
                            "amount": 1.0
                        }, 
                        "us": {
                            "unitLong": "pounds", 
                            "unitShort": "lb", 
                            "amount": 2.205
                        }
                    }, 
                    "id": 11260, 
                    "amount": 1.0, 
                    "meta": [], 
                    "consistency": "solid", 
                    "originalName": "mushrooms", 
                    "original": "1 kg mushrooms", 
                    "unit": "kg"
                }, 
                {
                    "aisle": "Produce", 
                    "name": "carrot", 
                    "nameClean": "carrot", 
                    "image": "sliced-carrot.png", 
                    "measures": {
                        "metric": {
                            "unitLong": "", 
                            "unitShort": "", 
                            "amount": 1.0
                        }, 
                        "us": {
                            "unitLong": "", 
                            "unitShort": "", 
                            "amount": 1.0
                        }
                    }, 
                    "id": 11124, 
                    "amount": 1.0, 
                    "meta": [], 
                    "consistency": "solid", 
                    "originalName": "carrot", 
                    "original": "1 carrot", 
                    "unit": ""
                }, 
                {
                    "aisle": "Produce", 
                    "name": "red bell pepper", 
                    "nameClean": "red pepper", 
                    "image": "red-pepper.jpg", 
                    "measures": {
                        "metric": {
                            "unitLong": "", 
                            "unitShort": "", 
                            "amount": 1.0
                        }, 
                        "us": {
                            "unitLong": "", 
                            "unitShort": "", 
                            "amount": 1.0
                        }
                    }, 
                    "id": 11821, 
                    "amount": 1.0, 
                    "meta": [
                        "red"
                    ], 
                    "consistency": "solid", 
                    "originalName": "red bell pepper", 
                    "original": "1 red bell pepper", 
                    "unit": ""
                }, 
                {
                    "aisle": "Produce", 
                    "name": "onions", 
                    "nameClean": "onion", 
                    "image": "brown-onion.png", 
                    "measures": {
                        "metric": {
                            "unitLong": "", 
                            "unitShort": "", 
                            "amount": 2.0
                        }, 
                        "us": {
                            "unitLong": "", 
                            "unitShort": "", 
                            "amount": 2.0
                        }
                    }, 
                    "id": 11282, 
                    "amount": 2.0, 
                    "meta": [
                        "diced"
                    ], 
                    "consistency": "solid", 
                    "originalName": "onions, diced", 
                    "original": "2 onions, diced", 
                    "unit": ""
                }, 
                {
                    "aisle": "Produce;Spices and Seasonings", 
                    "name": "dill", 
                    "nameClean": "dill", 
                    "image": "dill.jpg", 
                    "measures": {
                        "metric": {
                            "unitLong": "bunch", 
                            "unitShort": "bunch", 
                            "amount": 1.0
                        }, 
                        "us": {
                            "unitLong": "bunch", 
                            "unitShort": "bunch", 
                            "amount": 1.0
                        }
                    }, 
                    "id": 2045, 
                    "amount": 1.0, 
                    "meta": [
                        "chopped"
                    ], 
                    "consistency": "solid", 
                    "originalName": "dill, chopped", 
                    "original": "1 bunch of dill, chopped", 
                    "unit": "bunch"
                }, 
                {
                    "aisle": "Produce;Spices and Seasonings", 
                    "name": "parsley", 
                    "nameClean": "parsley", 
                    "image": "parsley.jpg", 
                    "measures": {
                        "metric": {
                            "unitLong": "bunch", 
                            "unitShort": "bunch", 
                            "amount": 1.0
                        }, 
                        "us": {
                            "unitLong": "bunch", 
                            "unitShort": "bunch", 
                            "amount": 1.0
                        }
                    }, 
                    "id": 11297, 
                    "amount": 1.0, 
                    "meta": [
                        "chopped"
                    ], 
                    "consistency": "solid", 
                    "originalName": "parsley, chopped", 
                    "original": "1 bunch of parsley, chopped", 
                    "unit": "bunch"
                }, 
                {
                    "aisle": "Milk, Eggs, Other Dairy", 
                    "name": "egg", 
                    "nameClean": "egg", 
                    "image": "egg.png", 
                    "measures": {
                        "metric": {
                            "unitLong": "", 
                            "unitShort": "", 
                            "amount": 2.0
                        }, 
                        "us": {
                            "unitLong": "", 
                            "unitShort": "", 
                            "amount": 2.0
                        }
                    }, 
                    "id": 1123, 
                    "amount": 2.0, 
                    "meta": [
                        "dry", 
                        "for vegans, you can also add 3-4 tbsp  yeast flakes)"
                    ], 
                    "consistency": "solid", 
                    "originalName": "eggs ( or egg substitutes for vegans, you can also add 3-4 tbsp dry yeast flakes)", 
                    "original": "2 eggs ( or egg substitutes for vegans, you can also add 3-4 tbsp dry yeast flakes)", 
                    "unit": ""
                }, 
                {
                    "aisle": "Spices and Seasonings", 
                    "name": "sea salt", 
                    "nameClean": "coarse sea salt", 
                    "image": "salt.jpg", 
                    "measures": {
                        "metric": {
                            "unitLong": "serving", 
                            "unitShort": "serving", 
                            "amount": 1.0
                        }, 
                        "us": {
                            "unitLong": "serving", 
                            "unitShort": "serving", 
                            "amount": 1.0
                        }
                    }, 
                    "id": 1012047, 
                    "amount": 1.0, 
                    "meta": [
                        "to taste"
                    ], 
                    "consistency": "solid", 
                    "originalName": "sea salt, to taste", 
                    "original": "sea salt, to taste", 
                    "unit": "serving"
                }, 
                {
                    "aisle": "Spices and Seasonings", 
                    "name": "ground pepper", 
                    "nameClean": "black pepper", 
                    "image": "pepper.jpg", 
                    "measures": {
                        "metric": {
                            "unitLong": "teaspoons", 
                            "unitShort": "tsps", 
                            "amount": 0.5
                        }, 
                        "us": {
                            "unitLong": "teaspoons", 
                            "unitShort": "tsps", 
                            "amount": 0.5
                        }
                    }, 
                    "id": 1002030, 
                    "amount": 0.5, 
                    "meta": [], 
                    "consistency": "solid", 
                    "originalName": "ground pepper", 
                    "original": "1/2 tsp ground pepper", 
                    "unit": "tsp"
                }, 
                {
                    "aisle": "Spices and Seasonings", 
                    "name": "sweet paprika", 
                    "nameClean": "sweet paprika", 
                    "image": "paprika.jpg", 
                    "measures": {
                        "metric": {
                            "unitLong": "teaspoon", 
                            "unitShort": "tsp", 
                            "amount": 1.0
                        }, 
                        "us": {
                            "unitLong": "teaspoon", 
                            "unitShort": "tsp", 
                            "amount": 1.0
                        }
                    }, 
                    "id": 1002028, 
                    "amount": 1.0, 
                    "meta": [
                        "sweet"
                    ], 
                    "consistency": "solid", 
                    "originalName": "sweet paprika", 
                    "original": "1 tsp sweet paprika", 
                    "unit": "tsp"
                }, 
                {
                    "aisle": "Produce;Spices and Seasonings", 
                    "name": "thyme", 
                    "nameClean": "thyme", 
                    "image": "thyme.jpg", 
                    "measures": {
                        "metric": {
                            "unitLong": "Tbsp", 
                            "unitShort": "Tbsp", 
                            "amount": 1.0
                        }, 
                        "us": {
                            "unitLong": "Tbsp", 
                            "unitShort": "Tbsp", 
                            "amount": 1.0
                        }
                    }, 
                    "id": 2049, 
                    "amount": 1.0, 
                    "meta": [
                        "dry"
                    ], 
                    "consistency": "solid", 
                    "originalName": "dry thyme", 
                    "original": "1 tbsp dry thyme", 
                    "unit": "tbsp"
                }, 
                {
                    "aisle": "Oil, Vinegar, Salad Dressing", 
                    "name": "sunflower oil", 
                    "nameClean": "sunflower oil", 
                    "image": "vegetable-oil.jpg", 
                    "measures": {
                        "metric": {
                            "unitLong": "Tbsps", 
                            "unitShort": "Tbsps", 
                            "amount": 2.0
                        }, 
                        "us": {
                            "unitLong": "Tbsps", 
                            "unitShort": "Tbsps", 
                            "amount": 2.0
                        }
                    }, 
                    "id": 4584, 
                    "amount": 2.0, 
                    "meta": [], 
                    "consistency": "liquid", 
                    "originalName": "unrefined sunflower oil", 
                    "original": "2 tbsp unrefined sunflower oil", 
                    "unit": "tbsp"
                }
            ], 
            "healthScore": 35.0, 
            "imageType": "jpg", 
            "spoonacularScore": 83.0, 
            "sourceUrl": "https://www.foodista.com/recipe/Q8LZSX4D/vegetarian-mushroom-shepherd-s-pie-with-vegan-version", 
            "glutenFree": true, 
            "vegan": false, 
            "veryHealthy": false, 
            "weightWatcherSmartPoints": 4, 
            "analyzedInstructions": [
                {
                    "steps": [
                        {
                            "equipment": [
                                {
                                    "image": "stock-pot.jpg", 
                                    "id": 404752, 
                                    "name": "pot", 
                                    "localizedName": "pot"
                                }
                            ], 
                            "step": "Peel potatoes and put them in a large pot filled with water. Boil them until they're tender. Mash them and let them cool for a while.", 
                            "number": 1, 
                            "ingredients": [
                                {
                                    "image": "potatoes-yukon-gold.png", 
                                    "id": 11352, 
                                    "name": "potato", 
                                    "localizedName": "potato"
                                }, 
                                {
                                    "image": "water.png", 
                                    "id": 14412, 
                                    "name": "water", 
                                    "localizedName": "water"
                                }
                            ]
                        }, 
                        {
                            "equipment": [], 
                            "step": "Chop the mushrooms, carrot and red bell pepper.", 
                            "number": 2, 
                            "ingredients": [
                                {
                                    "image": "red-pepper.jpg", 
                                    "id": 11821, 
                                    "name": "red pepper", 
                                    "localizedName": "red pepper"
                                }, 
                                {
                                    "image": "mushrooms.png", 
                                    "id": 11260, 
                                    "name": "mushrooms", 
                                    "localizedName": "mushrooms"
                                }, 
                                {
                                    "image": "sliced-carrot.png", 
                                    "id": 11124, 
                                    "name": "carrot", 
                                    "localizedName": "carrot"
                                }
                            ]
                        }, 
                        {
                            "equipment": [
                                {
                                    "image": "food-processor.png", 
                                    "id": 404771, 
                                    "name": "food processor", 
                                    "localizedName": "food processor"
                                }
                            ], 
                            "step": "Add them into your food processor and pulse until all ingredients are well mixed together.", 
                            "number": 3, 
                            "ingredients": []
                        }, 
                        {
                            "equipment": [
                                {
                                    "image": "pan.png", 
                                    "id": 404645, 
                                    "name": "frying pan", 
                                    "localizedName": "frying pan"
                                }
                            ], 
                            "step": "Heat oil in a large skillet.", 
                            "number": 4, 
                            "ingredients": [
                                {
                                    "image": "vegetable-oil.jpg", 
                                    "id": 4582, 
                                    "name": "cooking oil", 
                                    "localizedName": "cooking oil"
                                }
                            ]
                        }, 
                        {
                            "equipment": [], 
                            "step": "Add the mixture above, diced onions, chopped dill and parsley, soy granules, eggs (or egg substitute) and spices. Saut for 10 minutes.", 
                            "length": {
                                "number": 10, 
                                "unit": "minutes"
                            }, 
                            "number": 5, 
                            "ingredients": [
                                {
                                    "image": "liquid-egg-substitute.jpg", 
                                    "id": 1226, 
                                    "name": "egg substitute", 
                                    "localizedName": "egg substitute"
                                }, 
                                {
                                    "image": "parsley.jpg", 
                                    "id": 11297, 
                                    "name": "parsley", 
                                    "localizedName": "parsley"
                                }, 
                                {
                                    "image": "brown-onion.png", 
                                    "id": 11282, 
                                    "name": "onion", 
                                    "localizedName": "onion"
                                }, 
                                {
                                    "image": "spices.png", 
                                    "id": 2035, 
                                    "name": "spices", 
                                    "localizedName": "spices"
                                }, 
                                {
                                    "image": "dill.jpg", 
                                    "id": 2045, 
                                    "name": "dill", 
                                    "localizedName": "dill"
                                }, 
                                {
                                    "image": "egg.png", 
                                    "id": 1123, 
                                    "name": "egg", 
                                    "localizedName": "egg"
                                }
                            ]
                        }, 
                        {
                            "equipment": [], 
                            "step": "* I added the soy granules without boiling them because the mushrooms contain a lot of water and these soy granules will absorb all excess water.", 
                            "number": 6, 
                            "ingredients": [
                                {
                                    "image": "mushrooms.png", 
                                    "id": 11260, 
                                    "name": "mushrooms", 
                                    "localizedName": "mushrooms"
                                }, 
                                {
                                    "image": "water.png", 
                                    "id": 14412, 
                                    "name": "water", 
                                    "localizedName": "water"
                                }
                            ]
                        }, 
                        {
                            "equipment": [
                                {
                                    "image": "baking-paper.jpg", 
                                    "id": 404770, 
                                    "name": "baking paper", 
                                    "localizedName": "baking paper"
                                }
                            ], 
                            "step": "Put some parchment paper on the bottom of a casserole. Divide the mashed potatoes in two.", 
                            "number": 7, 
                            "ingredients": [
                                {
                                    "image": "potatoes-yukon-gold.png", 
                                    "id": 11352, 
                                    "name": "potato", 
                                    "localizedName": "potato"
                                }
                            ]
                        }, 
                        {
                            "equipment": [
                                {
                                    "image": "spatula-or-turner.jpg", 
                                    "id": 404642, 
                                    "name": "spatula", 
                                    "localizedName": "spatula"
                                }
                            ], 
                            "step": "Place the first half in the casserole and spread it with a spatula.", 
                            "number": 8, 
                            "ingredients": [
                                {
                                    "image": "", 
                                    "id": 0, 
                                    "name": "spread", 
                                    "localizedName": "spread"
                                }
                            ]
                        }, 
                        {
                            "equipment": [], 
                            "step": "Add the filling.", 
                            "number": 9, 
                            "ingredients": []
                        }, 
                        {
                            "equipment": [], 
                            "step": "Place over the other half of mashed potatoes.", 
                            "number": 10, 
                            "ingredients": [
                                {
                                    "image": "potatoes-yukon-gold.png", 
                                    "id": 11352, 
                                    "name": "potato", 
                                    "localizedName": "potato"
                                }
                            ]
                        }, 
                        {
                            "equipment": [
                                {
                                    "image": "oven.jpg", 
                                    "id": 404784, 
                                    "name": "oven", 
                                    "localizedName": "oven"
                                }
                            ], 
                            "step": "Heat your oven at 39", 
                            "number": 11, 
                            "ingredients": []
                        }, 
                        {
                            "equipment": [
                                {
                                    "image": "oven.jpg", 
                                    "id": 404784, 
                                    "name": "oven", 
                                    "localizedName": "oven"
                                }
                            ], 
                            "step": "Put the casserole in the oven. Cook for 40 minutes.", 
                            "length": {
                                "number": 40, 
                                "unit": "minutes"
                            }, 
                            "number": 12, 
                            "ingredients": []
                        }, 
                        {
                            "equipment": [], 
                            "step": "Don't serve immediately.", 
                            "number": 13, 
                            "ingredients": []
                        }, 
                        {
                            "equipment": [], 
                            "step": "Let it cool for at least half an hour.", 
                            "number": 14, 
                            "ingredients": []
                        }
                    ], 
                    "name": ""
                }
            ], 
            "aggregateLikes": 11, 
            "instructions": "Peel potatoes and put them in a large pot filled with water. Boil them until they're tender. Mash them and let them cool for a while.\nChop the mushrooms, carrot and red bell pepper. Add them into your food processor and pulse until all ingredients are well mixed together.\nHeat oil in a large skillet. Add the mixture above, diced onions, chopped dill and parsley, soy granules, eggs (or egg substitute) and spices. Saut for 10 minutes.\n* I added the soy granules without boiling them because the mushrooms contain a lot of water and these soy granules will absorb all excess water.\nPut some parchment paper on the bottom of a casserole. Divide the mashed potatoes in two. Place the first half in the casserole and spread it with a spatula. Add the filling. Place over the other half of mashed potatoes.\nHeat your oven at 392. Put the casserole in the oven. Cook for 40 minutes.\nDon't serve immediately. Let it cool for at least half an hour.", 
            "license": "CC BY 3.0", 
            "dishTypes": "side dish", 
            "occasions": [], 
            "vegetarian": false, 
            "spoonacularSourceUrl": "https://spoonacular.com/vegetarian-mushroom-shepherds-pie-664680", 
            "originalId": null, 
            "summary": "Vegetarian Mushroom Shepherd's Pie could be just the gluten free and dairy free recipe you've been looking for. This recipe serves 12 and costs $1.2 per serving. One serving contains 124 calories, 6g of protein, and 6g of fat. If you have bell pepper, soy granules, thyme, and a few other ingredients on hand, you can make it. This recipe is liked by 9 foodies and cooks. This recipe is typical of European cuisine. It is brought to you by Foodista. From preparation to the plate, this recipe takes roughly roughly 45 minutes. Overall, this recipe earns a super spoonacular score of 83%. Similar recipes are Vegetarian Mushroom Shepherd's Pie - With Vegan Version, Curried Vegetarian Shepherd's Pie with Portobello Mushroom Sauce, and Vegetarian Shepherd's Pie.", 
            "readyInMinutes": 45, 
            "servings": 12, 
            "sustainable": false, 
            "dairyFree": true
        }
    ]
}